solid OpenSCAD_Model
  facet normal -1 0 0
    outer loop
      vertex 3 45.571 0
      vertex 3 50 10
      vertex 3 50 0
    endloop
  endfacet
  facet normal -1 -0 0
    outer loop
      vertex 3 50 10
      vertex 3 45.571 0
      vertex 3 45.571 10
    endloop
  endfacet
  facet normal 0 0 1
    outer loop
      vertex 13.7351 50 10
      vertex 11 46.5 10
      vertex 13.7351 46.5 10
    endloop
  endfacet
  facet normal 0 0 1
    outer loop
      vertex 11 46.5 10
      vertex 3.7669 41 10
      vertex 11 41 10
    endloop
  endfacet
  facet normal -0 0 1
    outer loop
      vertex 3 50 10
      vertex 11 46.5 10
      vertex 13.7351 50 10
    endloop
  endfacet
  facet normal 0 0 1
    outer loop
      vertex 11 46.5 10
      vertex 3 50 10
      vertex 3 45.571 10
    endloop
  endfacet
  facet normal 0 0 1
    outer loop
      vertex 11 46.5 10
      vertex 3 45.571 10
      vertex 3.7669 41 10
    endloop
  endfacet
  facet normal -0 0 1
    outer loop
      vertex 1.46447 44.0355 10
      vertex 3.7669 41 10
      vertex 3 45.571 10
    endloop
  endfacet
  facet normal -0 0 1
    outer loop
      vertex 0.842651 43.2779 10
      vertex 3.7669 41 10
      vertex 1.46447 44.0355 10
    endloop
  endfacet
  facet normal -0 0 1
    outer loop
      vertex 0.380602 42.4134 10
      vertex 3.7669 41 10
      vertex 0.842651 43.2779 10
    endloop
  endfacet
  facet normal 0 0 1
    outer loop
      vertex 3.7669 41 10
      vertex 0.380602 42.4134 10
      vertex 3.6903 40.8567 10
    endloop
  endfacet
  facet normal -0 0 1
    outer loop
      vertex 0.0960732 41.4755 10
      vertex 3.6903 40.8567 10
      vertex 0.380602 42.4134 10
    endloop
  endfacet
  facet normal 0 0 1
    outer loop
      vertex 3.6903 40.8567 10
      vertex 0.0960732 41.4755 10
      vertex 3.54804 40.3877 10
    endloop
  endfacet
  facet normal -0 0 1
    outer loop
      vertex 0 40.5 10
      vertex 3.54804 40.3877 10
      vertex 0.0960732 41.4755 10
    endloop
  endfacet
  facet normal 0 0 1
    outer loop
      vertex 3.54804 40.3877 10
      vertex 0 40.5 10
      vertex 3.5 39.9 10
    endloop
  endfacet
  facet normal 0 0 1
    outer loop
      vertex 0 23.6117 10
      vertex 3.5 39.9 10
      vertex 0 40.5 10
    endloop
  endfacet
  facet normal 0 0 1
    outer loop
      vertex 3.5 39.9 10
      vertex 0 23.6117 10
      vertex 3.5 23.6117 10
    endloop
  endfacet
  facet normal 1 -0 0
    outer loop
      vertex 11 41 10
      vertex 11 46.5 1.5
      vertex 11 46.5 10
    endloop
  endfacet
  facet normal 1 0 0
    outer loop
      vertex 11 46.5 1.5
      vertex 11 41 10
      vertex 11 41 1.5
    endloop
  endfacet
  facet normal 0 1 -0
    outer loop
      vertex 56.8223 50 7.69069
      vertex 50.7649 50 10
      vertex 61 50 10
    endloop
  endfacet
  facet normal 0 1 -0
    outer loop
      vertex 56.4747 50 7.6168
      vertex 50.7649 50 10
      vertex 56.8223 50 7.69069
    endloop
  endfacet
  facet normal 0 1 -0
    outer loop
      vertex 55.8625 50 7.26335
      vertex 50.7649 50 10
      vertex 56.15 50 7.47224
    endloop
  endfacet
  facet normal 0 1 -0
    outer loop
      vertex 55.6247 50 6.99923
      vertex 50.7649 50 10
      vertex 55.8625 50 7.26335
    endloop
  endfacet
  facet normal 0 1 0
    outer loop
      vertex 56.8223 50 7.69069
      vertex 61 50 10
      vertex 57.1777 50 7.69069
    endloop
  endfacet
  facet normal 0 1 0
    outer loop
      vertex 61 50 10
      vertex 57.5253 50 7.6168
      vertex 57.1777 50 7.69069
    endloop
  endfacet
  facet normal 0 1 0
    outer loop
      vertex 61 50 10
      vertex 57.85 50 7.47224
      vertex 57.5253 50 7.6168
    endloop
  endfacet
  facet normal 0 1 0
    outer loop
      vertex 61 50 10
      vertex 58.1375 50 7.26335
      vertex 57.85 50 7.47224
    endloop
  endfacet
  facet normal 0 1 0
    outer loop
      vertex 61 50 10
      vertex 58.3753 50 6.99923
      vertex 58.1375 50 7.26335
    endloop
  endfacet
  facet normal 0 1 0
    outer loop
      vertex 61 50 10
      vertex 58.553 50 6.69145
      vertex 58.3753 50 6.99923
    endloop
  endfacet
  facet normal 0 1 0
    outer loop
      vertex 61 50 10
      vertex 58.6628 50 6.35345
      vertex 58.553 50 6.69145
    endloop
  endfacet
  facet normal 0 1 0
    outer loop
      vertex 61 50 10
      vertex 58.7 50 6
      vertex 58.6628 50 6.35345
    endloop
  endfacet
  facet normal 0 1 0
    outer loop
      vertex 61 50 10
      vertex 58.6628 50 5.64655
      vertex 58.7 50 6
    endloop
  endfacet
  facet normal 0 1 -0
    outer loop
      vertex 61 50 0
      vertex 58.6628 50 5.64655
      vertex 61 50 10
    endloop
  endfacet
  facet normal 0 1 0
    outer loop
      vertex 61 50 0
      vertex 56.8223 50 4.30931
      vertex 57.1777 50 4.30931
    endloop
  endfacet
  facet normal 0 1 0
    outer loop
      vertex 56.8223 50 4.30931
      vertex 61 50 0
      vertex 39.9678 50 4.08467
    endloop
  endfacet
  facet normal 0 1 0
    outer loop
      vertex 39.9678 50 4.08467
      vertex 61 50 0
      vertex 39.0238 50 3.83172
    endloop
  endfacet
  facet normal 0 1 0
    outer loop
      vertex 39.0238 50 3.83172
      vertex 61 50 0
      vertex 38.0715 50 3.61187
    endloop
  endfacet
  facet normal 0 1 0
    outer loop
      vertex 38.0715 50 3.61187
      vertex 61 50 0
      vertex 37.1121 50 3.42538
    endloop
  endfacet
  facet normal 0 1 0
    outer loop
      vertex 37.1121 50 3.42538
      vertex 61 50 0
      vertex 36.1468 50 3.27249
    endloop
  endfacet
  facet normal 0 1 0
    outer loop
      vertex 36.1468 50 3.27249
      vertex 61 50 0
      vertex 35.1768 50 3.15339
    endloop
  endfacet
  facet normal 0 1 0
    outer loop
      vertex 33.2272 50 3.01706
      vertex 61 50 0
      vertex 32.25 50 3
    endloop
  endfacet
  facet normal 0 1 0
    outer loop
      vertex 34.2032 50 3.06821
      vertex 61 50 0
      vertex 33.2272 50 3.01706
    endloop
  endfacet
  facet normal 0 1 0
    outer loop
      vertex 35.1768 50 3.15339
      vertex 61 50 0
      vertex 34.2032 50 3.06821
    endloop
  endfacet
  facet normal 0 1 0
    outer loop
      vertex 57.5253 50 4.3832
      vertex 61 50 0
      vertex 57.1777 50 4.30931
    endloop
  endfacet
  facet normal 0 1 0
    outer loop
      vertex 57.85 50 4.52776
      vertex 61 50 0
      vertex 57.5253 50 4.3832
    endloop
  endfacet
  facet normal 0 1 0
    outer loop
      vertex 58.1375 50 4.73665
      vertex 61 50 0
      vertex 57.85 50 4.52776
    endloop
  endfacet
  facet normal 0 1 0
    outer loop
      vertex 58.3753 50 5.00076
      vertex 61 50 0
      vertex 58.1375 50 4.73665
    endloop
  endfacet
  facet normal 0 1 0
    outer loop
      vertex 58.553 50 5.30855
      vertex 61 50 0
      vertex 58.3753 50 5.00076
    endloop
  endfacet
  facet normal 0 1 0
    outer loop
      vertex 58.6628 50 5.64655
      vertex 61 50 0
      vertex 58.553 50 5.30855
    endloop
  endfacet
  facet normal 0 1 -0
    outer loop
      vertex 56.15 50 7.47224
      vertex 50.7649 50 10
      vertex 56.4747 50 7.6168
    endloop
  endfacet
  facet normal 0 1 -0
    outer loop
      vertex 55.447 50 6.69145
      vertex 50.7649 50 10
      vertex 55.6247 50 6.99923
    endloop
  endfacet
  facet normal 0 1 0
    outer loop
      vertex 50.7649 50 10
      vertex 55.447 50 6.69145
      vertex 50.2481 50 9.55076
    endloop
  endfacet
  facet normal 0 1 -0
    outer loop
      vertex 55.3372 50 6.35345
      vertex 50.2481 50 9.55076
      vertex 55.447 50 6.69145
    endloop
  endfacet
  facet normal 0 1 0
    outer loop
      vertex 50.2481 50 9.55076
      vertex 55.3372 50 6.35345
      vertex 49.4885 50 8.9357
    endloop
  endfacet
  facet normal 0 1 -0
    outer loop
      vertex 55.3 50 6
      vertex 49.4885 50 8.9357
      vertex 55.3372 50 6.35345
    endloop
  endfacet
  facet normal 0 1 0
    outer loop
      vertex 49.4885 50 8.9357
      vertex 55.3 50 6
      vertex 48.708 50 8.34752
    endloop
  endfacet
  facet normal 0 1 0
    outer loop
      vertex 55.3372 50 5.64655
      vertex 48.708 50 8.34752
      vertex 55.3 50 6
    endloop
  endfacet
  facet normal 0 1 0
    outer loop
      vertex 48.708 50 8.34752
      vertex 55.3372 50 5.64655
      vertex 47.9074 50 7.78695
    endloop
  endfacet
  facet normal 0 1 0
    outer loop
      vertex 55.447 50 5.30855
      vertex 47.9074 50 7.78695
      vertex 55.3372 50 5.64655
    endloop
  endfacet
  facet normal 0 1 0
    outer loop
      vertex 47.9074 50 7.78695
      vertex 55.447 50 5.30855
      vertex 47.0877 50 7.25465
    endloop
  endfacet
  facet normal 0 1 0
    outer loop
      vertex 55.6247 50 5.00076
      vertex 47.0877 50 7.25465
      vertex 55.447 50 5.30855
    endloop
  endfacet
  facet normal 0 1 0
    outer loop
      vertex 47.0877 50 7.25465
      vertex 55.6247 50 5.00076
      vertex 46.25 50 6.75129
    endloop
  endfacet
  facet normal 0 1 0
    outer loop
      vertex 46.25 50 6.75129
      vertex 55.6247 50 5.00076
      vertex 45.3952 50 6.27747
    endloop
  endfacet
  facet normal 0 1 0
    outer loop
      vertex 55.8625 50 4.73665
      vertex 45.3952 50 6.27747
      vertex 55.6247 50 5.00076
    endloop
  endfacet
  facet normal 0 1 0
    outer loop
      vertex 45.3952 50 6.27747
      vertex 55.8625 50 4.73665
      vertex 44.5244 50 5.83377
    endloop
  endfacet
  facet normal 0 1 0
    outer loop
      vertex 56.15 50 4.52776
      vertex 44.5244 50 5.83377
      vertex 55.8625 50 4.73665
    endloop
  endfacet
  facet normal 0 1 0
    outer loop
      vertex 44.5244 50 5.83377
      vertex 56.15 50 4.52776
      vertex 43.6386 50 5.42073
    endloop
  endfacet
  facet normal 0 1 0
    outer loop
      vertex 43.6386 50 5.42073
      vertex 56.15 50 4.52776
      vertex 42.739 50 5.03885
    endloop
  endfacet
  facet normal 0 1 0
    outer loop
      vertex 42.739 50 5.03885
      vertex 56.15 50 4.52776
      vertex 41.8266 50 4.68861
    endloop
  endfacet
  facet normal 0 1 0
    outer loop
      vertex 56.4747 50 4.3832
      vertex 41.8266 50 4.68861
      vertex 56.15 50 4.52776
    endloop
  endfacet
  facet normal 0 1 0
    outer loop
      vertex 56.4747 50 4.3832
      vertex 40.9025 50 4.37042
      vertex 41.8266 50 4.68861
    endloop
  endfacet
  facet normal 0 1 0
    outer loop
      vertex 39.9678 50 4.08467
      vertex 56.4747 50 4.3832
      vertex 56.8223 50 4.30931
    endloop
  endfacet
  facet normal 0 1 0
    outer loop
      vertex 56.4747 50 4.3832
      vertex 39.9678 50 4.08467
      vertex 40.9025 50 4.37042
    endloop
  endfacet
  facet normal 0 1 0
    outer loop
      vertex 13.7351 50 10
      vertex 7.52533 50 7.6168
      vertex 7.1777 50 7.69069
    endloop
  endfacet
  facet normal 0 1 0
    outer loop
      vertex 15.792 50 8.34752
      vertex 7.85 50 7.47224
      vertex 7.52533 50 7.6168
    endloop
  endfacet
  facet normal 0 1 0
    outer loop
      vertex 15.792 50 8.34752
      vertex 8.13752 50 7.26335
      vertex 7.85 50 7.47224
    endloop
  endfacet
  facet normal 0 1 0
    outer loop
      vertex 8.55303 50 5.30855
      vertex 16.5926 50 7.78695
      vertex 17.4123 50 7.25465
    endloop
  endfacet
  facet normal 0 1 0
    outer loop
      vertex 15.792 50 8.34752
      vertex 8.37533 50 6.99923
      vertex 8.13752 50 7.26335
    endloop
  endfacet
  facet normal 0 1 0
    outer loop
      vertex 8.37533 50 5.00076
      vertex 17.4123 50 7.25465
      vertex 18.25 50 6.75129
    endloop
  endfacet
  facet normal 0 1 0
    outer loop
      vertex 15.792 50 8.34752
      vertex 8.55303 50 6.69145
      vertex 8.37533 50 6.99923
    endloop
  endfacet
  facet normal 0 1 0
    outer loop
      vertex 15.792 50 8.34752
      vertex 8.66285 50 6.35345
      vertex 8.55303 50 6.69145
    endloop
  endfacet
  facet normal 0 1 0
    outer loop
      vertex 8.13752 50 4.73665
      vertex 18.25 50 6.75129
      vertex 19.1048 50 6.27747
    endloop
  endfacet
  facet normal 0 1 0
    outer loop
      vertex 15.792 50 8.34752
      vertex 8.7 50 6
      vertex 8.66285 50 6.35345
    endloop
  endfacet
  facet normal 0 1 0
    outer loop
      vertex 8.13752 50 4.73665
      vertex 19.1048 50 6.27747
      vertex 19.9756 50 5.83377
    endloop
  endfacet
  facet normal 0 1 0
    outer loop
      vertex 15.792 50 8.34752
      vertex 8.66285 50 5.64655
      vertex 8.7 50 6
    endloop
  endfacet
  facet normal 0 1 0
    outer loop
      vertex 7.85 50 4.52776
      vertex 19.9756 50 5.83377
      vertex 20.8614 50 5.42073
    endloop
  endfacet
  facet normal 0 1 0
    outer loop
      vertex 16.5926 50 7.78695
      vertex 8.55303 50 5.30855
      vertex 8.66285 50 5.64655
    endloop
  endfacet
  facet normal 0 1 0
    outer loop
      vertex 3 50 0
      vertex 20.8614 50 5.42073
      vertex 21.761 50 5.03885
    endloop
  endfacet
  facet normal 0 1 0
    outer loop
      vertex 17.4123 50 7.25465
      vertex 8.37533 50 5.00076
      vertex 8.55303 50 5.30855
    endloop
  endfacet
  facet normal 0 1 0
    outer loop
      vertex 18.25 50 6.75129
      vertex 8.13752 50 4.73665
      vertex 8.37533 50 5.00076
    endloop
  endfacet
  facet normal 0 1 0
    outer loop
      vertex 3 50 0
      vertex 21.761 50 5.03885
      vertex 22.6734 50 4.68861
    endloop
  endfacet
  facet normal 0 1 0
    outer loop
      vertex 19.9756 50 5.83377
      vertex 7.85 50 4.52776
      vertex 8.13752 50 4.73665
    endloop
  endfacet
  facet normal 0 1 0
    outer loop
      vertex 20.8614 50 5.42073
      vertex 3 50 0
      vertex 7.85 50 4.52776
    endloop
  endfacet
  facet normal 0 1 0
    outer loop
      vertex 3 50 0
      vertex 22.6734 50 4.68861
      vertex 23.5975 50 4.37042
    endloop
  endfacet
  facet normal 0 1 0
    outer loop
      vertex 7.85 50 4.52776
      vertex 3 50 0
      vertex 7.52533 50 4.3832
    endloop
  endfacet
  facet normal 0 1 0
    outer loop
      vertex 7.52533 50 4.3832
      vertex 3 50 0
      vertex 7.1777 50 4.30931
    endloop
  endfacet
  facet normal 0 1 0
    outer loop
      vertex 3 50 0
      vertex 23.5975 50 4.37042
      vertex 24.5322 50 4.08467
    endloop
  endfacet
  facet normal 0 1 0
    outer loop
      vertex 7.52533 50 7.6168
      vertex 13.7351 50 10
      vertex 14.2519 50 9.55076
    endloop
  endfacet
  facet normal 0 1 0
    outer loop
      vertex 7.52533 50 7.6168
      vertex 14.2519 50 9.55076
      vertex 15.0115 50 8.9357
    endloop
  endfacet
  facet normal 0 1 0
    outer loop
      vertex 7.52533 50 7.6168
      vertex 15.0115 50 8.9357
      vertex 15.792 50 8.34752
    endloop
  endfacet
  facet normal 0 1 0
    outer loop
      vertex 8.66285 50 5.64655
      vertex 15.792 50 8.34752
      vertex 16.5926 50 7.78695
    endloop
  endfacet
  facet normal 0 1 0
    outer loop
      vertex 13.7351 50 10
      vertex 7.1777 50 7.69069
      vertex 3 50 10
    endloop
  endfacet
  facet normal 0 1 -0
    outer loop
      vertex 6.8223 50 7.69069
      vertex 3 50 10
      vertex 7.1777 50 7.69069
    endloop
  endfacet
  facet normal 0 1 -0
    outer loop
      vertex 6.47467 50 7.6168
      vertex 3 50 10
      vertex 6.8223 50 7.69069
    endloop
  endfacet
  facet normal 0 1 -0
    outer loop
      vertex 6.15 50 7.47224
      vertex 3 50 10
      vertex 6.47467 50 7.6168
    endloop
  endfacet
  facet normal 0 1 -0
    outer loop
      vertex 5.86248 50 7.26335
      vertex 3 50 10
      vertex 6.15 50 7.47224
    endloop
  endfacet
  facet normal 0 1 -0
    outer loop
      vertex 5.62467 50 6.99923
      vertex 3 50 10
      vertex 5.86248 50 7.26335
    endloop
  endfacet
  facet normal 0 1 -0
    outer loop
      vertex 5.44697 50 6.69145
      vertex 3 50 10
      vertex 5.62467 50 6.99923
    endloop
  endfacet
  facet normal 0 1 -0
    outer loop
      vertex 5.33715 50 6.35345
      vertex 3 50 10
      vertex 5.44697 50 6.69145
    endloop
  endfacet
  facet normal 0 1 -0
    outer loop
      vertex 5.3 50 6
      vertex 3 50 10
      vertex 5.33715 50 6.35345
    endloop
  endfacet
  facet normal 0 1 0
    outer loop
      vertex 5.33715 50 5.64655
      vertex 3 50 10
      vertex 5.3 50 6
    endloop
  endfacet
  facet normal 0 1 0
    outer loop
      vertex 3 50 0
      vertex 5.33715 50 5.64655
      vertex 5.44697 50 5.30855
    endloop
  endfacet
  facet normal 0 1 0
    outer loop
      vertex 3 50 0
      vertex 24.5322 50 4.08467
      vertex 25.4762 50 3.83172
    endloop
  endfacet
  facet normal 0 1 0
    outer loop
      vertex 3 50 0
      vertex 25.4762 50 3.83172
      vertex 26.4285 50 3.61187
    endloop
  endfacet
  facet normal 0 1 0
    outer loop
      vertex 3 50 0
      vertex 26.4285 50 3.61187
      vertex 27.3879 50 3.42538
    endloop
  endfacet
  facet normal 0 1 0
    outer loop
      vertex 3 50 0
      vertex 27.3879 50 3.42538
      vertex 28.3532 50 3.27249
    endloop
  endfacet
  facet normal 0 1 0
    outer loop
      vertex 3 50 0
      vertex 28.3532 50 3.27249
      vertex 29.3232 50 3.15339
    endloop
  endfacet
  facet normal 0 1 0
    outer loop
      vertex 3 50 0
      vertex 29.3232 50 3.15339
      vertex 30.2968 50 3.06821
    endloop
  endfacet
  facet normal 0 1 0
    outer loop
      vertex 3 50 0
      vertex 32.25 50 3
      vertex 61 50 0
    endloop
  endfacet
  facet normal 0 1 0
    outer loop
      vertex 32.25 50 3
      vertex 3 50 0
      vertex 31.2728 50 3.01706
    endloop
  endfacet
  facet normal 0 1 0
    outer loop
      vertex 31.2728 50 3.01706
      vertex 3 50 0
      vertex 30.2968 50 3.06821
    endloop
  endfacet
  facet normal 0 1 0
    outer loop
      vertex 5.33715 50 5.64655
      vertex 3 50 0
      vertex 3 50 10
    endloop
  endfacet
  facet normal 0 1 0
    outer loop
      vertex 5.62467 50 5.00076
      vertex 3 50 0
      vertex 5.44697 50 5.30855
    endloop
  endfacet
  facet normal 0 1 0
    outer loop
      vertex 5.86248 50 4.73665
      vertex 3 50 0
      vertex 5.62467 50 5.00076
    endloop
  endfacet
  facet normal 0 1 0
    outer loop
      vertex 6.15 50 4.52776
      vertex 3 50 0
      vertex 5.86248 50 4.73665
    endloop
  endfacet
  facet normal 0 1 0
    outer loop
      vertex 6.47467 50 4.3832
      vertex 3 50 0
      vertex 6.15 50 4.52776
    endloop
  endfacet
  facet normal 0 1 0
    outer loop
      vertex 6.8223 50 4.30931
      vertex 3 50 0
      vertex 6.47467 50 4.3832
    endloop
  endfacet
  facet normal 0 1 0
    outer loop
      vertex 7.1777 50 4.30931
      vertex 3 50 0
      vertex 6.8223 50 4.30931
    endloop
  endfacet
  facet normal 0 0 -1
    outer loop
      vertex 3.5 0 0
      vertex 2 2 0
      vertex 3.5 2 0
    endloop
  endfacet
  facet normal 0 0 -1
    outer loop
      vertex 0 0 0
      vertex 2 4.5 0
      vertex 2 2 0
    endloop
  endfacet
  facet normal 0 0 -1
    outer loop
      vertex 2 4.5 0
      vertex 0 40.5 0
      vertex 1.46447 44.0355 0
    endloop
  endfacet
  facet normal 0 0 -1
    outer loop
      vertex 1.46447 44.0355 0
      vertex 0 40.5 0
      vertex 0.842651 43.2779 0
    endloop
  endfacet
  facet normal 0 0 -1
    outer loop
      vertex 0.842651 43.2779 0
      vertex 0 40.5 0
      vertex 0.380602 42.4134 0
    endloop
  endfacet
  facet normal 0 0 -1
    outer loop
      vertex 0 0 0
      vertex 2 2 0
      vertex 3.5 0 0
    endloop
  endfacet
  facet normal -0 0 -1
    outer loop
      vertex 2 4.5 0
      vertex 0 0 0
      vertex 0 40.5 0
    endloop
  endfacet
  facet normal 0 0 -1
    outer loop
      vertex 0.380602 42.4134 0
      vertex 0 40.5 0
      vertex 0.0960732 41.4755 0
    endloop
  endfacet
  facet normal 0 0 -1
    outer loop
      vertex 2 4.5 0
      vertex 3.5 37.5 0
      vertex 3.5 4.5 0
    endloop
  endfacet
  facet normal -0 0 -1
    outer loop
      vertex 3.5 37.5 0
      vertex 2 4.5 0
      vertex 1.46447 44.0355 0
    endloop
  endfacet
  facet normal 0 0 -1
    outer loop
      vertex 3.5 37.5 0
      vertex 1.46447 44.0355 0
      vertex 3 45.571 0
    endloop
  endfacet
  facet normal 0 0 -1
    outer loop
      vertex 62 4.5 0
      vertex 64 40.5 0
      vertex 64 0 0
    endloop
  endfacet
  facet normal 0 0 -1
    outer loop
      vertex 60.5 37.5 0
      vertex 64 40.5 0
      vertex 62 4.5 0
    endloop
  endfacet
  facet normal -0 0 -1
    outer loop
      vertex 64 40.5 0
      vertex 60.5 37.5 0
      vertex 63.9039 41.4755 0
    endloop
  endfacet
  facet normal -0 0 -1
    outer loop
      vertex 63.9039 41.4755 0
      vertex 60.5 37.5 0
      vertex 63.6194 42.4134 0
    endloop
  endfacet
  facet normal 0 0 -1
    outer loop
      vertex 62 4.5 0
      vertex 64 0 0
      vertex 62 2 0
    endloop
  endfacet
  facet normal 0 0 -1
    outer loop
      vertex 60.5 0 0
      vertex 62 2 0
      vertex 64 0 0
    endloop
  endfacet
  facet normal -0 0 -1
    outer loop
      vertex 62 2 0
      vertex 60.5 0 0
      vertex 60.5 2 0
    endloop
  endfacet
  facet normal -0 0 -1
    outer loop
      vertex 63.6194 42.4134 0
      vertex 60.5 37.5 0
      vertex 63.1573 43.2779 0
    endloop
  endfacet
  facet normal -0 0 -1
    outer loop
      vertex 63.1573 43.2779 0
      vertex 60.5 37.5 0
      vertex 62.5355 44.0355 0
    endloop
  endfacet
  facet normal 0 0 -1
    outer loop
      vertex 60.5 37.5 0
      vertex 62 4.5 0
      vertex 60.5 4.5 0
    endloop
  endfacet
  facet normal -0 0 -1
    outer loop
      vertex 62.5355 44.0355 0
      vertex 60.5 37.5 0
      vertex 61 45.571 0
    endloop
  endfacet
  facet normal 0 0 -1
    outer loop
      vertex 3 45.571 0
      vertex 61 45.571 0
      vertex 60.5 37.5 0
    endloop
  endfacet
  facet normal 0 0 -1
    outer loop
      vertex 3 45.571 0
      vertex 60.5 37.5 0
      vertex 3.5 37.5 0
    endloop
  endfacet
  facet normal 0 0 -1
    outer loop
      vertex 61 45.571 0
      vertex 3 45.571 0
      vertex 61 50 0
    endloop
  endfacet
  facet normal -0 0 -1
    outer loop
      vertex 61 50 0
      vertex 3 45.571 0
      vertex 3 50 0
    endloop
  endfacet
  facet normal 0 -1 0
    outer loop
      vertex 7.1777 41 7.69069
      vertex 3.7669 41 10
      vertex 6.8223 41 7.69069
    endloop
  endfacet
  facet normal 0 -1 0
    outer loop
      vertex 3.7669 41 10
      vertex 6.47467 41 7.6168
      vertex 6.8223 41 7.69069
    endloop
  endfacet
  facet normal 0 -1 0
    outer loop
      vertex 3.7669 41 10
      vertex 6.15 41 7.47224
      vertex 6.47467 41 7.6168
    endloop
  endfacet
  facet normal 0 -1 0
    outer loop
      vertex 3.7669 41 10
      vertex 5.86248 41 7.26335
      vertex 6.15 41 7.47224
    endloop
  endfacet
  facet normal 0 -1 0
    outer loop
      vertex 3.7669 41 10
      vertex 5.62467 41 6.99923
      vertex 5.86248 41 7.26335
    endloop
  endfacet
  facet normal 0 -1 0
    outer loop
      vertex 3.7669 41 10
      vertex 5.44697 41 6.69145
      vertex 5.62467 41 6.99923
    endloop
  endfacet
  facet normal 0 -1 0
    outer loop
      vertex 3.7669 41 10
      vertex 5.33715 41 6.35345
      vertex 5.44697 41 6.69145
    endloop
  endfacet
  facet normal 0 -1 0
    outer loop
      vertex 3.7669 41 10
      vertex 5.3 41 6
      vertex 5.33715 41 6.35345
    endloop
  endfacet
  facet normal 0 -1 0
    outer loop
      vertex 3.7669 41 1.5
      vertex 5.3 41 6
      vertex 3.7669 41 10
    endloop
  endfacet
  facet normal 0 -1 -0
    outer loop
      vertex 5.3 41 6
      vertex 3.7669 41 1.5
      vertex 5.33715 41 5.64655
    endloop
  endfacet
  facet normal 0 -1 -0
    outer loop
      vertex 6.8223 41 4.30931
      vertex 3.7669 41 1.5
      vertex 7.1777 41 4.30931
    endloop
  endfacet
  facet normal 0 -1 -0
    outer loop
      vertex 6.47467 41 4.3832
      vertex 3.7669 41 1.5
      vertex 6.8223 41 4.30931
    endloop
  endfacet
  facet normal 0 -1 -0
    outer loop
      vertex 6.15 41 4.52776
      vertex 3.7669 41 1.5
      vertex 6.47467 41 4.3832
    endloop
  endfacet
  facet normal 0 -1 -0
    outer loop
      vertex 5.86248 41 4.73665
      vertex 3.7669 41 1.5
      vertex 6.15 41 4.52776
    endloop
  endfacet
  facet normal 0 -1 -0
    outer loop
      vertex 5.62467 41 5.00076
      vertex 3.7669 41 1.5
      vertex 5.86248 41 4.73665
    endloop
  endfacet
  facet normal 0 -1 -0
    outer loop
      vertex 5.44697 41 5.30855
      vertex 3.7669 41 1.5
      vertex 5.62467 41 5.00076
    endloop
  endfacet
  facet normal 0 -1 -0
    outer loop
      vertex 5.33715 41 5.64655
      vertex 3.7669 41 1.5
      vertex 5.44697 41 5.30855
    endloop
  endfacet
  facet normal 0 -1 0
    outer loop
      vertex 3.7669 41 10
      vertex 7.1777 41 7.69069
      vertex 11 41 10
    endloop
  endfacet
  facet normal 0 -1 0
    outer loop
      vertex 7.52533 41 7.6168
      vertex 11 41 10
      vertex 7.1777 41 7.69069
    endloop
  endfacet
  facet normal 0 -1 0
    outer loop
      vertex 7.85 41 7.47224
      vertex 11 41 10
      vertex 7.52533 41 7.6168
    endloop
  endfacet
  facet normal 0 -1 0
    outer loop
      vertex 8.13752 41 7.26335
      vertex 11 41 10
      vertex 7.85 41 7.47224
    endloop
  endfacet
  facet normal 0 -1 0
    outer loop
      vertex 8.37533 41 6.99923
      vertex 11 41 10
      vertex 8.13752 41 7.26335
    endloop
  endfacet
  facet normal 0 -1 0
    outer loop
      vertex 8.55303 41 6.69145
      vertex 11 41 10
      vertex 8.37533 41 6.99923
    endloop
  endfacet
  facet normal 0 -1 0
    outer loop
      vertex 8.66285 41 6.35345
      vertex 11 41 10
      vertex 8.55303 41 6.69145
    endloop
  endfacet
  facet normal 0 -1 0
    outer loop
      vertex 8.7 41 6
      vertex 11 41 10
      vertex 8.66285 41 6.35345
    endloop
  endfacet
  facet normal 0 -1 0
    outer loop
      vertex 11 41 1.5
      vertex 8.7 41 6
      vertex 8.66285 41 5.64655
    endloop
  endfacet
  facet normal 0 -1 0
    outer loop
      vertex 11 41 1.5
      vertex 8.66285 41 5.64655
      vertex 8.55303 41 5.30855
    endloop
  endfacet
  facet normal 0 -1 0
    outer loop
      vertex 11 41 1.5
      vertex 7.1777 41 4.30931
      vertex 3.7669 41 1.5
    endloop
  endfacet
  facet normal 0 -1 0
    outer loop
      vertex 7.1777 41 4.30931
      vertex 11 41 1.5
      vertex 7.52533 41 4.3832
    endloop
  endfacet
  facet normal 0 -1 0
    outer loop
      vertex 7.52533 41 4.3832
      vertex 11 41 1.5
      vertex 7.85 41 4.52776
    endloop
  endfacet
  facet normal 0 -1 0
    outer loop
      vertex 8.7 41 6
      vertex 11 41 1.5
      vertex 11 41 10
    endloop
  endfacet
  facet normal 0 -1 0
    outer loop
      vertex 8.37533 41 5.00076
      vertex 11 41 1.5
      vertex 8.55303 41 5.30855
    endloop
  endfacet
  facet normal 0 -1 0
    outer loop
      vertex 8.13752 41 4.73665
      vertex 11 41 1.5
      vertex 8.37533 41 5.00076
    endloop
  endfacet
  facet normal 0 -1 0
    outer loop
      vertex 7.85 41 4.52776
      vertex 11 41 1.5
      vertex 8.13752 41 4.73665
    endloop
  endfacet
  facet normal -1 0 0
    outer loop
      vertex 53 41 1.5
      vertex 53 46.5 10
      vertex 53 46.5 1.5
    endloop
  endfacet
  facet normal -1 -0 0
    outer loop
      vertex 53 46.5 10
      vertex 53 41 1.5
      vertex 53 41 10
    endloop
  endfacet
  facet normal -0 0 1
    outer loop
      vertex 53 46.5 10
      vertex 61 45.571 10
      vertex 61 50 10
    endloop
  endfacet
  facet normal 0 0 1
    outer loop
      vertex 61 45.571 10
      vertex 60.452 40.3877 10
      vertex 60.5 39.9 10
    endloop
  endfacet
  facet normal 0 0 1
    outer loop
      vertex 61 45.571 10
      vertex 60.3097 40.8567 10
      vertex 60.452 40.3877 10
    endloop
  endfacet
  facet normal 0 0 1
    outer loop
      vertex 61 45.571 10
      vertex 60.2331 41 10
      vertex 60.3097 40.8567 10
    endloop
  endfacet
  facet normal 0 0 1
    outer loop
      vertex 61 45.571 10
      vertex 53 46.5 10
      vertex 60.2331 41 10
    endloop
  endfacet
  facet normal -0 0 1
    outer loop
      vertex 50.7649 50 10
      vertex 53 46.5 10
      vertex 61 50 10
    endloop
  endfacet
  facet normal 0 0 1
    outer loop
      vertex 53 46.5 10
      vertex 50.7649 50 10
      vertex 50.7649 46.5 10
    endloop
  endfacet
  facet normal 0 0 1
    outer loop
      vertex 60.5 39.9 10
      vertex 64 40.5 10
      vertex 63.9039 41.4755 10
    endloop
  endfacet
  facet normal 0 0 1
    outer loop
      vertex 60.5 39.9 10
      vertex 63.9039 41.4755 10
      vertex 63.6194 42.4134 10
    endloop
  endfacet
  facet normal 0 0 1
    outer loop
      vertex 60.5 39.9 10
      vertex 63.6194 42.4134 10
      vertex 63.1573 43.2779 10
    endloop
  endfacet
  facet normal 0 0 1
    outer loop
      vertex 60.5 39.9 10
      vertex 63.1573 43.2779 10
      vertex 62.5355 44.0355 10
    endloop
  endfacet
  facet normal 0 0 1
    outer loop
      vertex 60.5 39.9 10
      vertex 62.5355 44.0355 10
      vertex 61 45.571 10
    endloop
  endfacet
  facet normal 0 0 1
    outer loop
      vertex 64 40.5 10
      vertex 60.5 39.9 10
      vertex 64 23.6117 10
    endloop
  endfacet
  facet normal 0 0 1
    outer loop
      vertex 64 23.6117 10
      vertex 60.5 39.9 10
      vertex 60.5 23.6117 10
    endloop
  endfacet
  facet normal 0 0 1
    outer loop
      vertex 60.2331 41 10
      vertex 53 46.5 10
      vertex 53 41 10
    endloop
  endfacet
  facet normal 1 -0 0
    outer loop
      vertex 61 45.571 10
      vertex 61 50 0
      vertex 61 50 10
    endloop
  endfacet
  facet normal 1 0 0
    outer loop
      vertex 61 50 0
      vertex 61 45.571 10
      vertex 61 45.571 0
    endloop
  endfacet
  facet normal 0 -1 0
    outer loop
      vertex 53 41 10
      vertex 56.8223 41 7.69069
      vertex 60.2331 41 10
    endloop
  endfacet
  facet normal 0 -1 0
    outer loop
      vertex 53 41 10
      vertex 56.4747 41 7.6168
      vertex 56.8223 41 7.69069
    endloop
  endfacet
  facet normal 0 -1 0
    outer loop
      vertex 53 41 10
      vertex 56.15 41 7.47224
      vertex 56.4747 41 7.6168
    endloop
  endfacet
  facet normal 0 -1 0
    outer loop
      vertex 53 41 10
      vertex 55.8625 41 7.26335
      vertex 56.15 41 7.47224
    endloop
  endfacet
  facet normal 0 -1 0
    outer loop
      vertex 53 41 10
      vertex 55.6247 41 6.99923
      vertex 55.8625 41 7.26335
    endloop
  endfacet
  facet normal 0 -1 0
    outer loop
      vertex 53 41 10
      vertex 55.447 41 6.69145
      vertex 55.6247 41 6.99923
    endloop
  endfacet
  facet normal 0 -1 0
    outer loop
      vertex 53 41 10
      vertex 55.3372 41 6.35345
      vertex 55.447 41 6.69145
    endloop
  endfacet
  facet normal 0 -1 0
    outer loop
      vertex 53 41 10
      vertex 55.3 41 6
      vertex 55.3372 41 6.35345
    endloop
  endfacet
  facet normal 0 -1 0
    outer loop
      vertex 53 41 1.5
      vertex 55.3 41 6
      vertex 53 41 10
    endloop
  endfacet
  facet normal 0 -1 -0
    outer loop
      vertex 55.3 41 6
      vertex 53 41 1.5
      vertex 55.3372 41 5.64655
    endloop
  endfacet
  facet normal 0 -1 0
    outer loop
      vertex 60.2331 41 1.5
      vertex 56.8223 41 4.30931
      vertex 53 41 1.5
    endloop
  endfacet
  facet normal 0 -1 -0
    outer loop
      vertex 56.4747 41 4.3832
      vertex 53 41 1.5
      vertex 56.8223 41 4.30931
    endloop
  endfacet
  facet normal 0 -1 -0
    outer loop
      vertex 56.15 41 4.52776
      vertex 53 41 1.5
      vertex 56.4747 41 4.3832
    endloop
  endfacet
  facet normal 0 -1 -0
    outer loop
      vertex 55.8625 41 4.73665
      vertex 53 41 1.5
      vertex 56.15 41 4.52776
    endloop
  endfacet
  facet normal 0 -1 -0
    outer loop
      vertex 55.6247 41 5.00076
      vertex 53 41 1.5
      vertex 55.8625 41 4.73665
    endloop
  endfacet
  facet normal 0 -1 -0
    outer loop
      vertex 55.447 41 5.30855
      vertex 53 41 1.5
      vertex 55.6247 41 5.00076
    endloop
  endfacet
  facet normal 0 -1 -0
    outer loop
      vertex 55.3372 41 5.64655
      vertex 53 41 1.5
      vertex 55.447 41 5.30855
    endloop
  endfacet
  facet normal 0 -1 0
    outer loop
      vertex 57.1777 41 7.69069
      vertex 60.2331 41 10
      vertex 56.8223 41 7.69069
    endloop
  endfacet
  facet normal 0 -1 0
    outer loop
      vertex 57.5253 41 7.6168
      vertex 60.2331 41 10
      vertex 57.1777 41 7.69069
    endloop
  endfacet
  facet normal 0 -1 0
    outer loop
      vertex 57.85 41 7.47224
      vertex 60.2331 41 10
      vertex 57.5253 41 7.6168
    endloop
  endfacet
  facet normal 0 -1 0
    outer loop
      vertex 58.1375 41 7.26335
      vertex 60.2331 41 10
      vertex 57.85 41 7.47224
    endloop
  endfacet
  facet normal 0 -1 0
    outer loop
      vertex 58.3753 41 6.99923
      vertex 60.2331 41 10
      vertex 58.1375 41 7.26335
    endloop
  endfacet
  facet normal 0 -1 0
    outer loop
      vertex 58.553 41 6.69145
      vertex 60.2331 41 10
      vertex 58.3753 41 6.99923
    endloop
  endfacet
  facet normal 0 -1 0
    outer loop
      vertex 58.6628 41 6.35345
      vertex 60.2331 41 10
      vertex 58.553 41 6.69145
    endloop
  endfacet
  facet normal 0 -1 0
    outer loop
      vertex 58.7 41 6
      vertex 60.2331 41 10
      vertex 58.6628 41 6.35345
    endloop
  endfacet
  facet normal 0 -1 0
    outer loop
      vertex 60.2331 41 1.5
      vertex 58.7 41 6
      vertex 58.6628 41 5.64655
    endloop
  endfacet
  facet normal 0 -1 0
    outer loop
      vertex 60.2331 41 1.5
      vertex 58.6628 41 5.64655
      vertex 58.553 41 5.30855
    endloop
  endfacet
  facet normal 0 -1 0
    outer loop
      vertex 56.8223 41 4.30931
      vertex 60.2331 41 1.5
      vertex 57.1777 41 4.30931
    endloop
  endfacet
  facet normal 0 -1 0
    outer loop
      vertex 57.1777 41 4.30931
      vertex 60.2331 41 1.5
      vertex 57.5253 41 4.3832
    endloop
  endfacet
  facet normal 0 -1 0
    outer loop
      vertex 58.7 41 6
      vertex 60.2331 41 1.5
      vertex 60.2331 41 10
    endloop
  endfacet
  facet normal 0 -1 0
    outer loop
      vertex 58.3753 41 5.00076
      vertex 60.2331 41 1.5
      vertex 58.553 41 5.30855
    endloop
  endfacet
  facet normal 0 -1 0
    outer loop
      vertex 58.1375 41 4.73665
      vertex 60.2331 41 1.5
      vertex 58.3753 41 5.00076
    endloop
  endfacet
  facet normal 0 -1 0
    outer loop
      vertex 57.85 41 4.52776
      vertex 60.2331 41 1.5
      vertex 58.1375 41 4.73665
    endloop
  endfacet
  facet normal 0 -1 0
    outer loop
      vertex 57.5253 41 4.3832
      vertex 60.2331 41 1.5
      vertex 57.85 41 4.52776
    endloop
  endfacet
  facet normal -1 0 0
    outer loop
      vertex 0 23.3147 9.4443
      vertex 0 40.5 10
      vertex 0 40.5 0
    endloop
  endfacet
  facet normal -1 -0 0
    outer loop
      vertex 0 40.5 10
      vertex 0 23.3147 9.4443
      vertex 0 23.6117 10
    endloop
  endfacet
  facet normal -1 0 0
    outer loop
      vertex 0 40.5 0
      vertex 0 22.0711 7.92893
      vertex 0 23.3147 9.4443
    endloop
  endfacet
  facet normal -1 0 0
    outer loop
      vertex 0 40.5 0
      vertex 0 20.5557 6.6853
      vertex 0 22.0711 7.92893
    endloop
  endfacet
  facet normal -1 0 0
    outer loop
      vertex 0 40.5 0
      vertex 0 18.8268 5.76121
      vertex 0 20.5557 6.6853
    endloop
  endfacet
  facet normal -1 0 0
    outer loop
      vertex 0 40.5 0
      vertex 0 16.9509 5.19215
      vertex 0 18.8268 5.76121
    endloop
  endfacet
  facet normal -1 0 0
    outer loop
      vertex 0 40.5 0
      vertex 0 15 5
      vertex 0 16.9509 5.19215
    endloop
  endfacet
  facet normal -1 0 0
    outer loop
      vertex 0 0 0
      vertex 0 15 5
      vertex 0 40.5 0
    endloop
  endfacet
  facet normal -1 -0 0
    outer loop
      vertex 0 15 5
      vertex 0 0 0
      vertex 0 0 5
    endloop
  endfacet
  facet normal 0 -1 0
    outer loop
      vertex 0 0 0
      vertex 3.5 0 5
      vertex 0 0 5
    endloop
  endfacet
  facet normal 0 -1 -0
    outer loop
      vertex 3.5 0 5
      vertex 0 0 0
      vertex 3.5 0 0
    endloop
  endfacet
  facet normal -0.995185 0.0980119 0
    outer loop
      vertex 0 40.5 0
      vertex 0.0960732 41.4755 10
      vertex 0.0960732 41.4755 0
    endloop
  endfacet
  facet normal -0.995185 0.0980119 0
    outer loop
      vertex 0.0960732 41.4755 10
      vertex 0 40.5 0
      vertex 0 40.5 10
    endloop
  endfacet
  facet normal 0 -0.88194 0.471362
    outer loop
      vertex 0 23.3147 9.4443
      vertex 3.5 23.6117 10
      vertex 0 23.6117 10
    endloop
  endfacet
  facet normal 0 -0.88194 0.471362
    outer loop
      vertex 3.5 23.6117 10
      vertex 0 23.3147 9.4443
      vertex 3.5 23.3147 9.4443
    endloop
  endfacet
  facet normal 0 -0.773018 0.634384
    outer loop
      vertex 0 22.0711 7.92893
      vertex 3.5 23.3147 9.4443
      vertex 0 23.3147 9.4443
    endloop
  endfacet
  facet normal 0 -0.773018 0.634384
    outer loop
      vertex 3.5 23.3147 9.4443
      vertex 0 22.0711 7.92893
      vertex 3.5 22.0711 7.92893
    endloop
  endfacet
  facet normal 0 -0.634385 0.773017
    outer loop
      vertex 0 22.0711 7.92893
      vertex 3.5 20.5557 6.6853
      vertex 3.5 22.0711 7.92893
    endloop
  endfacet
  facet normal 0 -0.634385 0.773017
    outer loop
      vertex 3.5 20.5557 6.6853
      vertex 0 22.0711 7.92893
      vertex 0 20.5557 6.6853
    endloop
  endfacet
  facet normal 0 -0.471386 0.881927
    outer loop
      vertex 0 20.5557 6.6853
      vertex 3.5 18.8268 5.76121
      vertex 3.5 20.5557 6.6853
    endloop
  endfacet
  facet normal 0 -0.471386 0.881927
    outer loop
      vertex 3.5 18.8268 5.76121
      vertex 0 20.5557 6.6853
      vertex 0 18.8268 5.76121
    endloop
  endfacet
  facet normal 0 -0.29029 0.956939
    outer loop
      vertex 0 18.8268 5.76121
      vertex 3.5 16.9509 5.19215
      vertex 3.5 18.8268 5.76121
    endloop
  endfacet
  facet normal 0 -0.29029 0.956939
    outer loop
      vertex 3.5 16.9509 5.19215
      vertex 0 18.8268 5.76121
      vertex 0 16.9509 5.19215
    endloop
  endfacet
  facet normal 0 -0.0980187 0.995185
    outer loop
      vertex 0 16.9509 5.19215
      vertex 3.5 15 5
      vertex 3.5 16.9509 5.19215
    endloop
  endfacet
  facet normal 0 -0.0980187 0.995185
    outer loop
      vertex 3.5 15 5
      vertex 0 16.9509 5.19215
      vertex 0 15 5
    endloop
  endfacet
  facet normal 0 0 1
    outer loop
      vertex 3.5 15 5
      vertex 2 4.5 5
      vertex 3.5 4.5 5
    endloop
  endfacet
  facet normal 0 0 1
    outer loop
      vertex 0 0 5
      vertex 2 4.5 5
      vertex 0 15 5
    endloop
  endfacet
  facet normal -0 0 1
    outer loop
      vertex 0 15 5
      vertex 2 4.5 5
      vertex 3.5 15 5
    endloop
  endfacet
  facet normal -0 0 1
    outer loop
      vertex 2 2 5
      vertex 3.5 0 5
      vertex 3.5 2 5
    endloop
  endfacet
  facet normal 0 0 1
    outer loop
      vertex 2 2 5
      vertex 0 0 5
      vertex 3.5 0 5
    endloop
  endfacet
  facet normal 0 0 1
    outer loop
      vertex 2 4.5 5
      vertex 0 0 5
      vertex 2 2 5
    endloop
  endfacet
  facet normal 1 -0 0
    outer loop
      vertex 3.5 0 5
      vertex 3.5 2 0
      vertex 3.5 2 5
    endloop
  endfacet
  facet normal 1 0 0
    outer loop
      vertex 3.5 2 0
      vertex 3.5 0 5
      vertex 3.5 0 0
    endloop
  endfacet
  facet normal 0 1 -0
    outer loop
      vertex 3.5 2 0
      vertex 2 2 5
      vertex 3.5 2 5
    endloop
  endfacet
  facet normal 0 1 0
    outer loop
      vertex 2 2 5
      vertex 3.5 2 0
      vertex 2 2 0
    endloop
  endfacet
  facet normal 1 -0 0
    outer loop
      vertex 2 2 5
      vertex 2 4.5 0
      vertex 2 4.5 5
    endloop
  endfacet
  facet normal 1 0 0
    outer loop
      vertex 2 4.5 0
      vertex 2 2 5
      vertex 2 2 0
    endloop
  endfacet
  facet normal 0 -1 0
    outer loop
      vertex 2 4.5 0
      vertex 3.5 4.5 5
      vertex 2 4.5 5
    endloop
  endfacet
  facet normal 0 -1 -0
    outer loop
      vertex 3.5 4.5 5
      vertex 2 4.5 0
      vertex 3.5 4.5 0
    endloop
  endfacet
  facet normal 1 0 0
    outer loop
      vertex 3.5 39.9 10
      vertex 3.5 37.5 1.5
      vertex 3.5 39.9 1.5
    endloop
  endfacet
  facet normal 1 -0 0
    outer loop
      vertex 3.5 23.6117 10
      vertex 3.5 37.5 1.5
      vertex 3.5 39.9 10
    endloop
  endfacet
  facet normal 1 -0 0
    outer loop
      vertex 3.5 23.3147 9.4443
      vertex 3.5 37.5 1.5
      vertex 3.5 23.6117 10
    endloop
  endfacet
  facet normal 1 -0 0
    outer loop
      vertex 3.5 22.0711 7.92893
      vertex 3.5 37.5 1.5
      vertex 3.5 23.3147 9.4443
    endloop
  endfacet
  facet normal 1 0 0
    outer loop
      vertex 3.5 37.5 1.5
      vertex 3.5 22.0711 7.92893
      vertex 3.5 37.5 0
    endloop
  endfacet
  facet normal 1 -0 0
    outer loop
      vertex 3.5 20.5557 6.6853
      vertex 3.5 37.5 0
      vertex 3.5 22.0711 7.92893
    endloop
  endfacet
  facet normal 1 -0 0
    outer loop
      vertex 3.5 18.8268 5.76121
      vertex 3.5 37.5 0
      vertex 3.5 20.5557 6.6853
    endloop
  endfacet
  facet normal 1 -0 0
    outer loop
      vertex 3.5 16.9509 5.19215
      vertex 3.5 37.5 0
      vertex 3.5 18.8268 5.76121
    endloop
  endfacet
  facet normal 1 0 0
    outer loop
      vertex 3.5 4.5 0
      vertex 3.5 16.9509 5.19215
      vertex 3.5 15 5
    endloop
  endfacet
  facet normal 1 0 0
    outer loop
      vertex 3.5 4.5 0
      vertex 3.5 15 5
      vertex 3.5 4.5 5
    endloop
  endfacet
  facet normal 1 0 0
    outer loop
      vertex 3.5 16.9509 5.19215
      vertex 3.5 4.5 0
      vertex 3.5 37.5 0
    endloop
  endfacet
  facet normal 0 -1 0
    outer loop
      vertex 3.5 37.5 0
      vertex 60.5 37.5 1.5
      vertex 3.5 37.5 1.5
    endloop
  endfacet
  facet normal 0 -1 -0
    outer loop
      vertex 60.5 37.5 1.5
      vertex 3.5 37.5 0
      vertex 60.5 37.5 0
    endloop
  endfacet
  facet normal -1 0 0
    outer loop
      vertex 60.5 22.0711 7.92893
      vertex 60.5 37.5 1.5
      vertex 60.5 37.5 0
    endloop
  endfacet
  facet normal -1 0 0
    outer loop
      vertex 60.5 37.5 1.5
      vertex 60.5 23.3147 9.4443
      vertex 60.5 23.6117 10
    endloop
  endfacet
  facet normal -1 0 0
    outer loop
      vertex 60.5 37.5 1.5
      vertex 60.5 22.0711 7.92893
      vertex 60.5 23.3147 9.4443
    endloop
  endfacet
  facet normal -1 0 0
    outer loop
      vertex 60.5 37.5 0
      vertex 60.5 20.5557 6.6853
      vertex 60.5 22.0711 7.92893
    endloop
  endfacet
  facet normal -1 0 0
    outer loop
      vertex 60.5 37.5 0
      vertex 60.5 18.8268 5.76121
      vertex 60.5 20.5557 6.6853
    endloop
  endfacet
  facet normal -1 0 0
    outer loop
      vertex 60.5 37.5 0
      vertex 60.5 16.9509 5.19215
      vertex 60.5 18.8268 5.76121
    endloop
  endfacet
  facet normal -1 0 0
    outer loop
      vertex 60.5 4.5 0
      vertex 60.5 16.9509 5.19215
      vertex 60.5 37.5 0
    endloop
  endfacet
  facet normal -1 0 0
    outer loop
      vertex 60.5 16.9509 5.19215
      vertex 60.5 4.5 0
      vertex 60.5 15 5
    endloop
  endfacet
  facet normal -1 -0 0
    outer loop
      vertex 60.5 15 5
      vertex 60.5 4.5 0
      vertex 60.5 4.5 5
    endloop
  endfacet
  facet normal -1 0 0
    outer loop
      vertex 60.5 37.5 1.5
      vertex 60.5 39.9 10
      vertex 60.5 39.9 1.5
    endloop
  endfacet
  facet normal -1 -0 0
    outer loop
      vertex 60.5 39.9 10
      vertex 60.5 37.5 1.5
      vertex 60.5 23.6117 10
    endloop
  endfacet
  facet normal 0 -1 0
    outer loop
      vertex 60.5 4.5 0
      vertex 62 4.5 5
      vertex 60.5 4.5 5
    endloop
  endfacet
  facet normal 0 -1 -0
    outer loop
      vertex 62 4.5 5
      vertex 60.5 4.5 0
      vertex 62 4.5 0
    endloop
  endfacet
  facet normal -1 0 0
    outer loop
      vertex 62 2 0
      vertex 62 4.5 5
      vertex 62 4.5 0
    endloop
  endfacet
  facet normal -1 -0 0
    outer loop
      vertex 62 4.5 5
      vertex 62 2 0
      vertex 62 2 5
    endloop
  endfacet
  facet normal 0 1 -0
    outer loop
      vertex 62 2 0
      vertex 60.5 2 5
      vertex 62 2 5
    endloop
  endfacet
  facet normal 0 1 0
    outer loop
      vertex 60.5 2 5
      vertex 62 2 0
      vertex 60.5 2 0
    endloop
  endfacet
  facet normal -1 0 0
    outer loop
      vertex 60.5 0 0
      vertex 60.5 2 5
      vertex 60.5 2 0
    endloop
  endfacet
  facet normal -1 -0 0
    outer loop
      vertex 60.5 2 5
      vertex 60.5 0 0
      vertex 60.5 0 5
    endloop
  endfacet
  facet normal 0 -1 0
    outer loop
      vertex 60.5 0 0
      vertex 64 0 5
      vertex 60.5 0 5
    endloop
  endfacet
  facet normal 0 -1 -0
    outer loop
      vertex 64 0 5
      vertex 60.5 0 0
      vertex 64 0 0
    endloop
  endfacet
  facet normal 1 0 0
    outer loop
      vertex 64 23.3147 9.4443
      vertex 64 40.5 10
      vertex 64 23.6117 10
    endloop
  endfacet
  facet normal 1 0 0
    outer loop
      vertex 64 40.5 10
      vertex 64 23.3147 9.4443
      vertex 64 40.5 0
    endloop
  endfacet
  facet normal 1 -0 0
    outer loop
      vertex 64 22.0711 7.92893
      vertex 64 40.5 0
      vertex 64 23.3147 9.4443
    endloop
  endfacet
  facet normal 1 -0 0
    outer loop
      vertex 64 20.5557 6.6853
      vertex 64 40.5 0
      vertex 64 22.0711 7.92893
    endloop
  endfacet
  facet normal 1 -0 0
    outer loop
      vertex 64 18.8268 5.76121
      vertex 64 40.5 0
      vertex 64 20.5557 6.6853
    endloop
  endfacet
  facet normal 1 -0 0
    outer loop
      vertex 64 16.9509 5.19215
      vertex 64 40.5 0
      vertex 64 18.8268 5.76121
    endloop
  endfacet
  facet normal 1 -0 0
    outer loop
      vertex 64 15 5
      vertex 64 40.5 0
      vertex 64 16.9509 5.19215
    endloop
  endfacet
  facet normal 1 0 0
    outer loop
      vertex 64 0 0
      vertex 64 15 5
      vertex 64 0 5
    endloop
  endfacet
  facet normal 1 0 0
    outer loop
      vertex 64 15 5
      vertex 64 0 0
      vertex 64 40.5 0
    endloop
  endfacet
  facet normal 0.995183 0.098039 0
    outer loop
      vertex 64 40.5 10
      vertex 63.9039 41.4755 0
      vertex 63.9039 41.4755 10
    endloop
  endfacet
  facet normal 0.995183 0.098039 0
    outer loop
      vertex 63.9039 41.4755 0
      vertex 64 40.5 10
      vertex 64 40.5 0
    endloop
  endfacet
  facet normal 0.956943 0.290276 0
    outer loop
      vertex 63.9039 41.4755 10
      vertex 63.6194 42.4134 0
      vertex 63.6194 42.4134 10
    endloop
  endfacet
  facet normal 0.956943 0.290276 0
    outer loop
      vertex 63.6194 42.4134 0
      vertex 63.9039 41.4755 10
      vertex 63.9039 41.4755 0
    endloop
  endfacet
  facet normal 0.881915 0.471409 0
    outer loop
      vertex 63.6194 42.4134 10
      vertex 63.1573 43.2779 0
      vertex 63.1573 43.2779 10
    endloop
  endfacet
  facet normal 0.881915 0.471409 0
    outer loop
      vertex 63.1573 43.2779 0
      vertex 63.6194 42.4134 10
      vertex 63.6194 42.4134 0
    endloop
  endfacet
  facet normal 0.772984 0.634426 0
    outer loop
      vertex 63.1573 43.2779 10
      vertex 62.5355 44.0355 0
      vertex 62.5355 44.0355 10
    endloop
  endfacet
  facet normal 0.772984 0.634426 0
    outer loop
      vertex 62.5355 44.0355 0
      vertex 63.1573 43.2779 10
      vertex 63.1573 43.2779 0
    endloop
  endfacet
  facet normal 0.707107 0.707107 0
    outer loop
      vertex 62.5355 44.0355 10
      vertex 61 45.571 0
      vertex 61 45.571 10
    endloop
  endfacet
  facet normal 0.707107 0.707107 0
    outer loop
      vertex 61 45.571 0
      vertex 62.5355 44.0355 10
      vertex 62.5355 44.0355 0
    endloop
  endfacet
  facet normal -0.7071 0.707114 0
    outer loop
      vertex 1.46447 44.0355 0
      vertex 3 45.571 10
      vertex 3 45.571 0
    endloop
  endfacet
  facet normal -0.7071 0.707114 0
    outer loop
      vertex 3 45.571 10
      vertex 1.46447 44.0355 0
      vertex 1.46447 44.0355 10
    endloop
  endfacet
  facet normal -0.772974 0.634438 0
    outer loop
      vertex 0.842651 43.2779 0
      vertex 1.46447 44.0355 10
      vertex 1.46447 44.0355 0
    endloop
  endfacet
  facet normal -0.772974 0.634438 0
    outer loop
      vertex 1.46447 44.0355 10
      vertex 0.842651 43.2779 0
      vertex 0.842651 43.2779 10
    endloop
  endfacet
  facet normal -0.881936 0.471368 0
    outer loop
      vertex 0.380602 42.4134 0
      vertex 0.842651 43.2779 10
      vertex 0.842651 43.2779 0
    endloop
  endfacet
  facet normal -0.881936 0.471368 0
    outer loop
      vertex 0.842651 43.2779 10
      vertex 0.380602 42.4134 0
      vertex 0.380602 42.4134 10
    endloop
  endfacet
  facet normal -0.956935 0.290303 0
    outer loop
      vertex 0.0960732 41.4755 0
      vertex 0.380602 42.4134 10
      vertex 0.380602 42.4134 0
    endloop
  endfacet
  facet normal -0.956935 0.290303 0
    outer loop
      vertex 0.380602 42.4134 10
      vertex 0.0960732 41.4755 0
      vertex 0.0960732 41.4755 10
    endloop
  endfacet
  facet normal 0 -1 0
    outer loop
      vertex 11 46.5 10
      vertex 14.2519 46.5 9.55076
      vertex 13.7351 46.5 10
    endloop
  endfacet
  facet normal 0 -1 0
    outer loop
      vertex 11 46.5 10
      vertex 15.0115 46.5 8.9357
      vertex 14.2519 46.5 9.55076
    endloop
  endfacet
  facet normal 0 -1 0
    outer loop
      vertex 11 46.5 1.5
      vertex 15.0115 46.5 8.9357
      vertex 11 46.5 10
    endloop
  endfacet
  facet normal 0 -1 -0
    outer loop
      vertex 15.0115 46.5 8.9357
      vertex 11 46.5 1.5
      vertex 15.792 46.5 8.34752
    endloop
  endfacet
  facet normal 0 -1 -0
    outer loop
      vertex 15.792 46.5 8.34752
      vertex 11 46.5 1.5
      vertex 16.5926 46.5 7.78695
    endloop
  endfacet
  facet normal 0 -1 -0
    outer loop
      vertex 16.5926 46.5 7.78695
      vertex 11 46.5 1.5
      vertex 17.4123 46.5 7.25465
    endloop
  endfacet
  facet normal 0 -1 -0
    outer loop
      vertex 17.4123 46.5 7.25465
      vertex 11 46.5 1.5
      vertex 18.25 46.5 6.75129
    endloop
  endfacet
  facet normal 0 -1 -0
    outer loop
      vertex 18.25 46.5 6.75129
      vertex 11 46.5 1.5
      vertex 19.1048 46.5 6.27747
    endloop
  endfacet
  facet normal 0 -1 -0
    outer loop
      vertex 19.1048 46.5 6.27747
      vertex 11 46.5 1.5
      vertex 19.9756 46.5 5.83377
    endloop
  endfacet
  facet normal 0 -1 -0
    outer loop
      vertex 31.2728 46.5 3.01706
      vertex 11 46.5 1.5
      vertex 32.25 46.5 3
    endloop
  endfacet
  facet normal 0 -1 -0
    outer loop
      vertex 30.2968 46.5 3.06821
      vertex 11 46.5 1.5
      vertex 31.2728 46.5 3.01706
    endloop
  endfacet
  facet normal 0 -1 -0
    outer loop
      vertex 29.3232 46.5 3.15339
      vertex 11 46.5 1.5
      vertex 30.2968 46.5 3.06821
    endloop
  endfacet
  facet normal 0 -1 -0
    outer loop
      vertex 28.3532 46.5 3.27249
      vertex 11 46.5 1.5
      vertex 29.3232 46.5 3.15339
    endloop
  endfacet
  facet normal 0 -1 -0
    outer loop
      vertex 27.3879 46.5 3.42538
      vertex 11 46.5 1.5
      vertex 28.3532 46.5 3.27249
    endloop
  endfacet
  facet normal 0 -1 -0
    outer loop
      vertex 26.4285 46.5 3.61187
      vertex 11 46.5 1.5
      vertex 27.3879 46.5 3.42538
    endloop
  endfacet
  facet normal 0 -1 -0
    outer loop
      vertex 25.4762 46.5 3.83172
      vertex 11 46.5 1.5
      vertex 26.4285 46.5 3.61187
    endloop
  endfacet
  facet normal 0 -1 -0
    outer loop
      vertex 24.5322 46.5 4.08467
      vertex 11 46.5 1.5
      vertex 25.4762 46.5 3.83172
    endloop
  endfacet
  facet normal 0 -1 -0
    outer loop
      vertex 23.5975 46.5 4.37042
      vertex 11 46.5 1.5
      vertex 24.5322 46.5 4.08467
    endloop
  endfacet
  facet normal 0 -1 -0
    outer loop
      vertex 22.6734 46.5 4.68861
      vertex 11 46.5 1.5
      vertex 23.5975 46.5 4.37042
    endloop
  endfacet
  facet normal 0 -1 -0
    outer loop
      vertex 21.761 46.5 5.03885
      vertex 11 46.5 1.5
      vertex 22.6734 46.5 4.68861
    endloop
  endfacet
  facet normal 0 -1 -0
    outer loop
      vertex 20.8614 46.5 5.42073
      vertex 11 46.5 1.5
      vertex 21.761 46.5 5.03885
    endloop
  endfacet
  facet normal 0 -1 -0
    outer loop
      vertex 19.9756 46.5 5.83377
      vertex 11 46.5 1.5
      vertex 20.8614 46.5 5.42073
    endloop
  endfacet
  facet normal 0 -1 0
    outer loop
      vertex 50.2481 46.5 9.55076
      vertex 53 46.5 10
      vertex 50.7649 46.5 10
    endloop
  endfacet
  facet normal 0 -1 0
    outer loop
      vertex 49.4885 46.5 8.9357
      vertex 53 46.5 10
      vertex 50.2481 46.5 9.55076
    endloop
  endfacet
  facet normal 0 -1 0
    outer loop
      vertex 53 46.5 1.5
      vertex 49.4885 46.5 8.9357
      vertex 48.708 46.5 8.34752
    endloop
  endfacet
  facet normal 0 -1 0
    outer loop
      vertex 53 46.5 1.5
      vertex 48.708 46.5 8.34752
      vertex 47.9074 46.5 7.78695
    endloop
  endfacet
  facet normal 0 -1 0
    outer loop
      vertex 53 46.5 1.5
      vertex 47.9074 46.5 7.78695
      vertex 47.0877 46.5 7.25465
    endloop
  endfacet
  facet normal 0 -1 0
    outer loop
      vertex 53 46.5 1.5
      vertex 47.0877 46.5 7.25465
      vertex 46.25 46.5 6.75129
    endloop
  endfacet
  facet normal 0 -1 0
    outer loop
      vertex 53 46.5 1.5
      vertex 46.25 46.5 6.75129
      vertex 45.3952 46.5 6.27747
    endloop
  endfacet
  facet normal 0 -1 0
    outer loop
      vertex 53 46.5 1.5
      vertex 45.3952 46.5 6.27747
      vertex 44.5244 46.5 5.83377
    endloop
  endfacet
  facet normal 0 -1 0
    outer loop
      vertex 53 46.5 1.5
      vertex 32.25 46.5 3
      vertex 11 46.5 1.5
    endloop
  endfacet
  facet normal 0 -1 0
    outer loop
      vertex 32.25 46.5 3
      vertex 53 46.5 1.5
      vertex 33.2272 46.5 3.01706
    endloop
  endfacet
  facet normal 0 -1 0
    outer loop
      vertex 49.4885 46.5 8.9357
      vertex 53 46.5 1.5
      vertex 53 46.5 10
    endloop
  endfacet
  facet normal 0 -1 0
    outer loop
      vertex 43.6386 46.5 5.42073
      vertex 53 46.5 1.5
      vertex 44.5244 46.5 5.83377
    endloop
  endfacet
  facet normal 0 -1 0
    outer loop
      vertex 42.739 46.5 5.03885
      vertex 53 46.5 1.5
      vertex 43.6386 46.5 5.42073
    endloop
  endfacet
  facet normal 0 -1 0
    outer loop
      vertex 41.8266 46.5 4.68861
      vertex 53 46.5 1.5
      vertex 42.739 46.5 5.03885
    endloop
  endfacet
  facet normal 0 -1 0
    outer loop
      vertex 40.9025 46.5 4.37042
      vertex 53 46.5 1.5
      vertex 41.8266 46.5 4.68861
    endloop
  endfacet
  facet normal 0 -1 0
    outer loop
      vertex 39.9678 46.5 4.08467
      vertex 53 46.5 1.5
      vertex 40.9025 46.5 4.37042
    endloop
  endfacet
  facet normal 0 -1 0
    outer loop
      vertex 39.0238 46.5 3.83172
      vertex 53 46.5 1.5
      vertex 39.9678 46.5 4.08467
    endloop
  endfacet
  facet normal 0 -1 0
    outer loop
      vertex 38.0715 46.5 3.61187
      vertex 53 46.5 1.5
      vertex 39.0238 46.5 3.83172
    endloop
  endfacet
  facet normal 0 -1 0
    outer loop
      vertex 37.1121 46.5 3.42538
      vertex 53 46.5 1.5
      vertex 38.0715 46.5 3.61187
    endloop
  endfacet
  facet normal 0 -1 0
    outer loop
      vertex 36.1468 46.5 3.27249
      vertex 53 46.5 1.5
      vertex 37.1121 46.5 3.42538
    endloop
  endfacet
  facet normal 0 -1 0
    outer loop
      vertex 35.1768 46.5 3.15339
      vertex 53 46.5 1.5
      vertex 36.1468 46.5 3.27249
    endloop
  endfacet
  facet normal 0 -1 0
    outer loop
      vertex 34.2032 46.5 3.06821
      vertex 53 46.5 1.5
      vertex 35.1768 46.5 3.15339
    endloop
  endfacet
  facet normal 0 -1 0
    outer loop
      vertex 33.2272 46.5 3.01706
      vertex 53 46.5 1.5
      vertex 34.2032 46.5 3.06821
    endloop
  endfacet
  facet normal 0.88191 -0.471419 0
    outer loop
      vertex 3.6903 40.8567 10
      vertex 3.7669 41 1.5
      vertex 3.7669 41 10
    endloop
  endfacet
  facet normal 0.88191 -0.471419 0
    outer loop
      vertex 3.7669 41 1.5
      vertex 3.6903 40.8567 10
      vertex 3.6903 40.8567 1.5
    endloop
  endfacet
  facet normal 0.956946 -0.290267 0
    outer loop
      vertex 3.54804 40.3877 10
      vertex 3.6903 40.8567 1.5
      vertex 3.6903 40.8567 10
    endloop
  endfacet
  facet normal 0.956946 -0.290267 0
    outer loop
      vertex 3.6903 40.8567 1.5
      vertex 3.54804 40.3877 10
      vertex 3.54804 40.3877 1.5
    endloop
  endfacet
  facet normal 0.995184 -0.0980287 0
    outer loop
      vertex 3.5 39.9 10
      vertex 3.54804 40.3877 1.5
      vertex 3.54804 40.3877 10
    endloop
  endfacet
  facet normal 0.995184 -0.0980287 0
    outer loop
      vertex 3.54804 40.3877 1.5
      vertex 3.5 39.9 10
      vertex 3.5 39.9 1.5
    endloop
  endfacet
  facet normal 0 0 1
    outer loop
      vertex 53 46.5 1.5
      vertex 11 46.5 1.5
      vertex 53 41 1.5
    endloop
  endfacet
  facet normal 0 0 1
    outer loop
      vertex 60.2331 41 1.5
      vertex 60.5 39.9 1.5
      vertex 60.452 40.3877 1.5
    endloop
  endfacet
  facet normal 0 0 1
    outer loop
      vertex 60.2331 41 1.5
      vertex 60.452 40.3877 1.5
      vertex 60.3097 40.8567 1.5
    endloop
  endfacet
  facet normal 0 0 1
    outer loop
      vertex 60.5 39.9 1.5
      vertex 60.2331 41 1.5
      vertex 53 41 1.5
    endloop
  endfacet
  facet normal 0 0 1
    outer loop
      vertex 60.5 39.9 1.5
      vertex 53 41 1.5
      vertex 60.5 37.5 1.5
    endloop
  endfacet
  facet normal 0 0 1
    outer loop
      vertex 11 41 1.5
      vertex 53 41 1.5
      vertex 11 46.5 1.5
    endloop
  endfacet
  facet normal 0 0 1
    outer loop
      vertex 53 41 1.5
      vertex 11 41 1.5
      vertex 60.5 37.5 1.5
    endloop
  endfacet
  facet normal 0 0 1
    outer loop
      vertex 3.5 39.9 1.5
      vertex 11 41 1.5
      vertex 3.7669 41 1.5
    endloop
  endfacet
  facet normal 0 0 1
    outer loop
      vertex 3.54804 40.3877 1.5
      vertex 3.7669 41 1.5
      vertex 3.6903 40.8567 1.5
    endloop
  endfacet
  facet normal 0 0 1
    outer loop
      vertex 3.7669 41 1.5
      vertex 3.54804 40.3877 1.5
      vertex 3.5 39.9 1.5
    endloop
  endfacet
  facet normal 0 0 1
    outer loop
      vertex 11 41 1.5
      vertex 3.5 39.9 1.5
      vertex 3.5 37.5 1.5
    endloop
  endfacet
  facet normal 0 0 1
    outer loop
      vertex 11 41 1.5
      vertex 3.5 37.5 1.5
      vertex 60.5 37.5 1.5
    endloop
  endfacet
  facet normal 0 0 1
    outer loop
      vertex 64 15 5
      vertex 62 4.5 5
      vertex 64 0 5
    endloop
  endfacet
  facet normal -0 0 1
    outer loop
      vertex 60.5 15 5
      vertex 62 4.5 5
      vertex 64 15 5
    endloop
  endfacet
  facet normal 0 0 1
    outer loop
      vertex 62 4.5 5
      vertex 60.5 15 5
      vertex 60.5 4.5 5
    endloop
  endfacet
  facet normal -0 0 1
    outer loop
      vertex 62 2 5
      vertex 64 0 5
      vertex 62 4.5 5
    endloop
  endfacet
  facet normal 0 0 1
    outer loop
      vertex 60.5 0 5
      vertex 62 2 5
      vertex 60.5 2 5
    endloop
  endfacet
  facet normal 0 0 1
    outer loop
      vertex 62 2 5
      vertex 60.5 0 5
      vertex 64 0 5
    endloop
  endfacet
  facet normal -0.995192 -0.0979479 0
    outer loop
      vertex 60.5 39.9 1.5
      vertex 60.452 40.3877 10
      vertex 60.452 40.3877 1.5
    endloop
  endfacet
  facet normal -0.995192 -0.0979479 0
    outer loop
      vertex 60.452 40.3877 10
      vertex 60.5 39.9 1.5
      vertex 60.5 39.9 10
    endloop
  endfacet
  facet normal 0 -0.88194 0.471362
    outer loop
      vertex 60.5 23.3147 9.4443
      vertex 64 23.6117 10
      vertex 60.5 23.6117 10
    endloop
  endfacet
  facet normal 0 -0.88194 0.471362
    outer loop
      vertex 64 23.6117 10
      vertex 60.5 23.3147 9.4443
      vertex 64 23.3147 9.4443
    endloop
  endfacet
  facet normal 0 -0.773018 0.634384
    outer loop
      vertex 60.5 22.0711 7.92893
      vertex 64 23.3147 9.4443
      vertex 60.5 23.3147 9.4443
    endloop
  endfacet
  facet normal 0 -0.773018 0.634384
    outer loop
      vertex 64 23.3147 9.4443
      vertex 60.5 22.0711 7.92893
      vertex 64 22.0711 7.92893
    endloop
  endfacet
  facet normal 0 -0.634385 0.773017
    outer loop
      vertex 60.5 22.0711 7.92893
      vertex 64 20.5557 6.6853
      vertex 64 22.0711 7.92893
    endloop
  endfacet
  facet normal 0 -0.634385 0.773017
    outer loop
      vertex 64 20.5557 6.6853
      vertex 60.5 22.0711 7.92893
      vertex 60.5 20.5557 6.6853
    endloop
  endfacet
  facet normal 0 -0.471386 0.881927
    outer loop
      vertex 60.5 20.5557 6.6853
      vertex 64 18.8268 5.76121
      vertex 64 20.5557 6.6853
    endloop
  endfacet
  facet normal 0 -0.471386 0.881927
    outer loop
      vertex 64 18.8268 5.76121
      vertex 60.5 20.5557 6.6853
      vertex 60.5 18.8268 5.76121
    endloop
  endfacet
  facet normal 0 -0.29029 0.956939
    outer loop
      vertex 60.5 18.8268 5.76121
      vertex 64 16.9509 5.19215
      vertex 64 18.8268 5.76121
    endloop
  endfacet
  facet normal 0 -0.29029 0.956939
    outer loop
      vertex 64 16.9509 5.19215
      vertex 60.5 18.8268 5.76121
      vertex 60.5 16.9509 5.19215
    endloop
  endfacet
  facet normal 0 -0.0980187 0.995185
    outer loop
      vertex 60.5 16.9509 5.19215
      vertex 64 15 5
      vertex 64 16.9509 5.19215
    endloop
  endfacet
  facet normal 0 -0.0980187 0.995185
    outer loop
      vertex 64 15 5
      vertex 60.5 16.9509 5.19215
      vertex 60.5 15 5
    endloop
  endfacet
  facet normal -0.88191 -0.471419 0
    outer loop
      vertex 60.3097 40.8567 1.5
      vertex 60.2331 41 10
      vertex 60.2331 41 1.5
    endloop
  endfacet
  facet normal -0.88191 -0.471419 0
    outer loop
      vertex 60.2331 41 10
      vertex 60.3097 40.8567 1.5
      vertex 60.3097 40.8567 10
    endloop
  endfacet
  facet normal -0.956923 -0.290341 0
    outer loop
      vertex 60.452 40.3877 1.5
      vertex 60.3097 40.8567 10
      vertex 60.3097 40.8567 1.5
    endloop
  endfacet
  facet normal -0.956923 -0.290341 0
    outer loop
      vertex 60.3097 40.8567 10
      vertex 60.452 40.3877 1.5
      vertex 60.452 40.3877 10
    endloop
  endfacet
  facet normal -0.484807 0 0.874621
    outer loop
      vertex 45.3952 50 6.27747
      vertex 46.25 46.5 6.75129
      vertex 46.25 50 6.75129
    endloop
  endfacet
  facet normal -0.484807 0 0.874621
    outer loop
      vertex 46.25 46.5 6.75129
      vertex 45.3952 50 6.27747
      vertex 45.3952 46.5 6.27747
    endloop
  endfacet
  facet normal -0.453995 0 0.891004
    outer loop
      vertex 44.5244 50 5.83377
      vertex 45.3952 46.5 6.27747
      vertex 45.3952 50 6.27747
    endloop
  endfacet
  facet normal -0.453995 0 0.891004
    outer loop
      vertex 45.3952 46.5 6.27747
      vertex 44.5244 50 5.83377
      vertex 44.5244 46.5 5.83377
    endloop
  endfacet
  facet normal -0.422605 0 0.906314
    outer loop
      vertex 43.6386 50 5.42073
      vertex 44.5244 46.5 5.83377
      vertex 44.5244 50 5.83377
    endloop
  endfacet
  facet normal -0.422605 0 0.906314
    outer loop
      vertex 44.5244 46.5 5.83377
      vertex 43.6386 50 5.42073
      vertex 43.6386 46.5 5.42073
    endloop
  endfacet
  facet normal -0.0174554 0 0.999848
    outer loop
      vertex 32.25 50 3
      vertex 33.2272 46.5 3.01706
      vertex 33.2272 50 3.01706
    endloop
  endfacet
  facet normal -0.0174554 0 0.999848
    outer loop
      vertex 33.2272 46.5 3.01706
      vertex 32.25 50 3
      vertex 32.25 46.5 3
    endloop
  endfacet
  facet normal -0.544625 0 0.83868
    outer loop
      vertex 47.0877 50 7.25465
      vertex 47.9074 46.5 7.78695
      vertex 47.9074 50 7.78695
    endloop
  endfacet
  facet normal -0.544625 0 0.83868
    outer loop
      vertex 47.9074 46.5 7.78695
      vertex 47.0877 50 7.25465
      vertex 47.0877 46.5 7.25465
    endloop
  endfacet
  facet normal -0.35837 0 0.93358
    outer loop
      vertex 41.8266 50 4.68861
      vertex 42.739 46.5 5.03885
      vertex 42.739 50 5.03885
    endloop
  endfacet
  facet normal -0.35837 0 0.93358
    outer loop
      vertex 42.739 46.5 5.03885
      vertex 41.8266 50 4.68861
      vertex 41.8266 46.5 4.68861
    endloop
  endfacet
  facet normal -0.325565 0 0.94552
    outer loop
      vertex 40.9025 50 4.37042
      vertex 41.8266 46.5 4.68861
      vertex 41.8266 50 4.68861
    endloop
  endfacet
  facet normal -0.325565 0 0.94552
    outer loop
      vertex 41.8266 46.5 4.68861
      vertex 40.9025 50 4.37042
      vertex 40.9025 46.5 4.37042
    endloop
  endfacet
  facet normal -0.121868 0 0.992546
    outer loop
      vertex 35.1768 50 3.15339
      vertex 36.1468 46.5 3.27249
      vertex 36.1468 50 3.27249
    endloop
  endfacet
  facet normal -0.121868 0 0.992546
    outer loop
      vertex 36.1468 46.5 3.27249
      vertex 35.1768 50 3.15339
      vertex 35.1768 46.5 3.15339
    endloop
  endfacet
  facet normal -0.052336 0 0.99863
    outer loop
      vertex 33.2272 50 3.01706
      vertex 34.2032 46.5 3.06821
      vertex 34.2032 50 3.06821
    endloop
  endfacet
  facet normal -0.052336 0 0.99863
    outer loop
      vertex 34.2032 46.5 3.06821
      vertex 33.2272 50 3.01706
      vertex 33.2272 46.5 3.01706
    endloop
  endfacet
  facet normal -0.224945 0 0.974371
    outer loop
      vertex 38.0715 50 3.61187
      vertex 39.0238 46.5 3.83172
      vertex 39.0238 50 3.83172
    endloop
  endfacet
  facet normal -0.224945 0 0.974371
    outer loop
      vertex 39.0238 46.5 3.83172
      vertex 38.0715 50 3.61187
      vertex 38.0715 46.5 3.61187
    endloop
  endfacet
  facet normal -0.190811 0 0.981627
    outer loop
      vertex 37.1121 50 3.42538
      vertex 38.0715 46.5 3.61187
      vertex 38.0715 50 3.61187
    endloop
  endfacet
  facet normal -0.190811 0 0.981627
    outer loop
      vertex 38.0715 46.5 3.61187
      vertex 37.1121 50 3.42538
      vertex 37.1121 46.5 3.42538
    endloop
  endfacet
  facet normal -0.0871568 0 0.996195
    outer loop
      vertex 34.2032 50 3.06821
      vertex 35.1768 46.5 3.15339
      vertex 35.1768 50 3.15339
    endloop
  endfacet
  facet normal -0.0871568 0 0.996195
    outer loop
      vertex 35.1768 46.5 3.15339
      vertex 34.2032 50 3.06821
      vertex 34.2032 46.5 3.06821
    endloop
  endfacet
  facet normal 0.0871568 0 0.996195
    outer loop
      vertex 29.3232 50 3.15339
      vertex 30.2968 46.5 3.06821
      vertex 30.2968 50 3.06821
    endloop
  endfacet
  facet normal 0.0871568 0 0.996195
    outer loop
      vertex 30.2968 46.5 3.06821
      vertex 29.3232 50 3.15339
      vertex 29.3232 46.5 3.15339
    endloop
  endfacet
  facet normal 0.156436 0 0.987688
    outer loop
      vertex 27.3879 50 3.42538
      vertex 28.3532 46.5 3.27249
      vertex 28.3532 50 3.27249
    endloop
  endfacet
  facet normal 0.156436 0 0.987688
    outer loop
      vertex 28.3532 46.5 3.27249
      vertex 27.3879 50 3.42538
      vertex 27.3879 46.5 3.42538
    endloop
  endfacet
  facet normal 0.453995 0 0.891004
    outer loop
      vertex 19.1048 50 6.27747
      vertex 19.9756 46.5 5.83377
      vertex 19.9756 50 5.83377
    endloop
  endfacet
  facet normal 0.453995 0 0.891004
    outer loop
      vertex 19.9756 46.5 5.83377
      vertex 19.1048 50 6.27747
      vertex 19.1048 46.5 6.27747
    endloop
  endfacet
  facet normal 0.35837 0 0.93358
    outer loop
      vertex 21.761 50 5.03885
      vertex 22.6734 46.5 4.68861
      vertex 22.6734 50 4.68861
    endloop
  endfacet
  facet normal 0.35837 0 0.93358
    outer loop
      vertex 22.6734 46.5 4.68861
      vertex 21.761 50 5.03885
      vertex 21.761 46.5 5.03885
    endloop
  endfacet
  facet normal 0.325565 0 0.94552
    outer loop
      vertex 22.6734 50 4.68861
      vertex 23.5975 46.5 4.37042
      vertex 23.5975 50 4.37042
    endloop
  endfacet
  facet normal 0.325565 0 0.94552
    outer loop
      vertex 23.5975 46.5 4.37042
      vertex 22.6734 50 4.68861
      vertex 22.6734 46.5 4.68861
    endloop
  endfacet
  facet normal 0.224945 0 0.974371
    outer loop
      vertex 25.4762 50 3.83172
      vertex 26.4285 46.5 3.61187
      vertex 26.4285 50 3.61187
    endloop
  endfacet
  facet normal 0.224945 0 0.974371
    outer loop
      vertex 26.4285 46.5 3.61187
      vertex 25.4762 50 3.83172
      vertex 25.4762 46.5 3.83172
    endloop
  endfacet
  facet normal -0.515052 0 0.857159
    outer loop
      vertex 46.25 50 6.75129
      vertex 47.0877 46.5 7.25465
      vertex 47.0877 50 7.25465
    endloop
  endfacet
  facet normal -0.515052 0 0.857159
    outer loop
      vertex 47.0877 46.5 7.25465
      vertex 46.25 50 6.75129
      vertex 46.25 46.5 6.75129
    endloop
  endfacet
  facet normal -0.629288 0 0.777172
    outer loop
      vertex 49.4885 50 8.9357
      vertex 50.2481 46.5 9.55076
      vertex 50.2481 50 9.55076
    endloop
  endfacet
  facet normal -0.629288 0 0.777172
    outer loop
      vertex 50.2481 46.5 9.55076
      vertex 49.4885 50 8.9357
      vertex 49.4885 46.5 8.9357
    endloop
  endfacet
  facet normal -0.390751 0 0.920497
    outer loop
      vertex 42.739 50 5.03885
      vertex 43.6386 46.5 5.42073
      vertex 43.6386 50 5.42073
    endloop
  endfacet
  facet normal -0.390751 0 0.920497
    outer loop
      vertex 43.6386 46.5 5.42073
      vertex 42.739 50 5.03885
      vertex 42.739 46.5 5.03885
    endloop
  endfacet
  facet normal -0.258825 0 0.965924
    outer loop
      vertex 39.0238 50 3.83172
      vertex 39.9678 46.5 4.08467
      vertex 39.9678 50 4.08467
    endloop
  endfacet
  facet normal -0.258825 0 0.965924
    outer loop
      vertex 39.9678 46.5 4.08467
      vertex 39.0238 50 3.83172
      vertex 39.0238 46.5 3.83172
    endloop
  endfacet
  facet normal -0.292356 0 0.956309
    outer loop
      vertex 39.9678 50 4.08467
      vertex 40.9025 46.5 4.37042
      vertex 40.9025 50 4.37042
    endloop
  endfacet
  facet normal -0.292356 0 0.956309
    outer loop
      vertex 40.9025 46.5 4.37042
      vertex 39.9678 50 4.08467
      vertex 39.9678 46.5 4.08467
    endloop
  endfacet
  facet normal -0.156436 0 0.987688
    outer loop
      vertex 36.1468 50 3.27249
      vertex 37.1121 46.5 3.42538
      vertex 37.1121 50 3.42538
    endloop
  endfacet
  facet normal -0.156436 0 0.987688
    outer loop
      vertex 37.1121 46.5 3.42538
      vertex 36.1468 50 3.27249
      vertex 36.1468 46.5 3.27249
    endloop
  endfacet
  facet normal 0.052336 0 0.99863
    outer loop
      vertex 30.2968 50 3.06821
      vertex 31.2728 46.5 3.01706
      vertex 31.2728 50 3.01706
    endloop
  endfacet
  facet normal 0.052336 0 0.99863
    outer loop
      vertex 31.2728 46.5 3.01706
      vertex 30.2968 50 3.06821
      vertex 30.2968 46.5 3.06821
    endloop
  endfacet
  facet normal 0.121868 0 0.992546
    outer loop
      vertex 28.3532 50 3.27249
      vertex 29.3232 46.5 3.15339
      vertex 29.3232 50 3.15339
    endloop
  endfacet
  facet normal 0.121868 0 0.992546
    outer loop
      vertex 29.3232 46.5 3.15339
      vertex 28.3532 50 3.27249
      vertex 28.3532 46.5 3.27249
    endloop
  endfacet
  facet normal 0.292356 0 0.956309
    outer loop
      vertex 23.5975 50 4.37042
      vertex 24.5322 46.5 4.08467
      vertex 24.5322 50 4.08467
    endloop
  endfacet
  facet normal 0.292356 0 0.956309
    outer loop
      vertex 24.5322 46.5 4.08467
      vertex 23.5975 50 4.37042
      vertex 23.5975 46.5 4.37042
    endloop
  endfacet
  facet normal 0.258825 0 0.965924
    outer loop
      vertex 24.5322 50 4.08467
      vertex 25.4762 46.5 3.83172
      vertex 25.4762 50 3.83172
    endloop
  endfacet
  facet normal 0.258825 0 0.965924
    outer loop
      vertex 25.4762 46.5 3.83172
      vertex 24.5322 50 4.08467
      vertex 24.5322 46.5 4.08467
    endloop
  endfacet
  facet normal 0.190811 0 0.981627
    outer loop
      vertex 26.4285 50 3.61187
      vertex 27.3879 46.5 3.42538
      vertex 27.3879 50 3.42538
    endloop
  endfacet
  facet normal 0.190811 0 0.981627
    outer loop
      vertex 27.3879 46.5 3.42538
      vertex 26.4285 50 3.61187
      vertex 26.4285 46.5 3.61187
    endloop
  endfacet
  facet normal -0.573565 0 0.81916
    outer loop
      vertex 47.9074 50 7.78695
      vertex 48.708 46.5 8.34752
      vertex 48.708 50 8.34752
    endloop
  endfacet
  facet normal -0.573565 0 0.81916
    outer loop
      vertex 48.708 46.5 8.34752
      vertex 47.9074 50 7.78695
      vertex 47.9074 46.5 7.78695
    endloop
  endfacet
  facet normal -0.601835 0 0.79862
    outer loop
      vertex 48.708 50 8.34752
      vertex 49.4885 46.5 8.9357
      vertex 49.4885 50 8.9357
    endloop
  endfacet
  facet normal -0.601835 0 0.79862
    outer loop
      vertex 49.4885 46.5 8.9357
      vertex 48.708 50 8.34752
      vertex 48.708 46.5 8.34752
    endloop
  endfacet
  facet normal -0.656053 0 0.754715
    outer loop
      vertex 50.2481 50 9.55076
      vertex 50.7649 46.5 10
      vertex 50.7649 50 10
    endloop
  endfacet
  facet normal -0.656053 0 0.754715
    outer loop
      vertex 50.7649 46.5 10
      vertex 50.2481 50 9.55076
      vertex 50.2481 46.5 9.55076
    endloop
  endfacet
  facet normal 0.0174554 0 0.999848
    outer loop
      vertex 31.2728 50 3.01706
      vertex 32.25 46.5 3
      vertex 32.25 50 3
    endloop
  endfacet
  facet normal 0.0174554 0 0.999848
    outer loop
      vertex 32.25 46.5 3
      vertex 31.2728 50 3.01706
      vertex 31.2728 46.5 3.01706
    endloop
  endfacet
  facet normal 0.656053 0 0.754715
    outer loop
      vertex 13.7351 50 10
      vertex 14.2519 46.5 9.55076
      vertex 14.2519 50 9.55076
    endloop
  endfacet
  facet normal 0.656053 0 0.754715
    outer loop
      vertex 14.2519 46.5 9.55076
      vertex 13.7351 50 10
      vertex 13.7351 46.5 10
    endloop
  endfacet
  facet normal 0.601835 0 0.79862
    outer loop
      vertex 15.0115 50 8.9357
      vertex 15.792 46.5 8.34752
      vertex 15.792 50 8.34752
    endloop
  endfacet
  facet normal 0.601835 0 0.79862
    outer loop
      vertex 15.792 46.5 8.34752
      vertex 15.0115 50 8.9357
      vertex 15.0115 46.5 8.9357
    endloop
  endfacet
  facet normal 0.573565 0 0.81916
    outer loop
      vertex 15.792 50 8.34752
      vertex 16.5926 46.5 7.78695
      vertex 16.5926 50 7.78695
    endloop
  endfacet
  facet normal 0.573565 0 0.81916
    outer loop
      vertex 16.5926 46.5 7.78695
      vertex 15.792 50 8.34752
      vertex 15.792 46.5 8.34752
    endloop
  endfacet
  facet normal 0.484807 0 0.874621
    outer loop
      vertex 18.25 50 6.75129
      vertex 19.1048 46.5 6.27747
      vertex 19.1048 50 6.27747
    endloop
  endfacet
  facet normal 0.484807 0 0.874621
    outer loop
      vertex 19.1048 46.5 6.27747
      vertex 18.25 50 6.75129
      vertex 18.25 46.5 6.75129
    endloop
  endfacet
  facet normal 0.515052 0 0.857159
    outer loop
      vertex 17.4123 50 7.25465
      vertex 18.25 46.5 6.75129
      vertex 18.25 50 6.75129
    endloop
  endfacet
  facet normal 0.515052 0 0.857159
    outer loop
      vertex 18.25 46.5 6.75129
      vertex 17.4123 50 7.25465
      vertex 17.4123 46.5 7.25465
    endloop
  endfacet
  facet normal 0.422605 0 0.906314
    outer loop
      vertex 19.9756 50 5.83377
      vertex 20.8614 46.5 5.42073
      vertex 20.8614 50 5.42073
    endloop
  endfacet
  facet normal 0.422605 0 0.906314
    outer loop
      vertex 20.8614 46.5 5.42073
      vertex 19.9756 50 5.83377
      vertex 19.9756 46.5 5.83377
    endloop
  endfacet
  facet normal 0.629288 0 0.777172
    outer loop
      vertex 14.2519 50 9.55076
      vertex 15.0115 46.5 8.9357
      vertex 15.0115 50 8.9357
    endloop
  endfacet
  facet normal 0.629288 0 0.777172
    outer loop
      vertex 15.0115 46.5 8.9357
      vertex 14.2519 50 9.55076
      vertex 14.2519 46.5 9.55076
    endloop
  endfacet
  facet normal 0.544625 0 0.83868
    outer loop
      vertex 16.5926 50 7.78695
      vertex 17.4123 46.5 7.25465
      vertex 17.4123 50 7.25465
    endloop
  endfacet
  facet normal 0.544625 0 0.83868
    outer loop
      vertex 17.4123 46.5 7.25465
      vertex 16.5926 50 7.78695
      vertex 16.5926 46.5 7.78695
    endloop
  endfacet
  facet normal 0.390751 0 0.920497
    outer loop
      vertex 20.8614 50 5.42073
      vertex 21.761 46.5 5.03885
      vertex 21.761 50 5.03885
    endloop
  endfacet
  facet normal 0.390751 0 0.920497
    outer loop
      vertex 21.761 46.5 5.03885
      vertex 20.8614 50 5.42073
      vertex 20.8614 46.5 5.42073
    endloop
  endfacet
  facet normal -0.994522 0 -0.104531
    outer loop
      vertex 8.7 41 6
      vertex 8.66285 50 6.35345
      vertex 8.7 50 6
    endloop
  endfacet
  facet normal -0.994522 -0 -0.104531
    outer loop
      vertex 8.66285 50 6.35345
      vertex 8.7 41 6
      vertex 8.66285 41 6.35345
    endloop
  endfacet
  facet normal -0.994522 0 0.104531
    outer loop
      vertex 8.66285 41 5.64655
      vertex 8.7 50 6
      vertex 8.66285 50 5.64655
    endloop
  endfacet
  facet normal -0.994522 0 0.104531
    outer loop
      vertex 8.7 50 6
      vertex 8.66285 41 5.64655
      vertex 8.7 41 6
    endloop
  endfacet
  facet normal -0.587775 0 -0.809024
    outer loop
      vertex 7.85 41 7.47224
      vertex 8.13752 50 7.26335
      vertex 8.13752 41 7.26335
    endloop
  endfacet
  facet normal -0.587775 0 -0.809024
    outer loop
      vertex 8.13752 50 7.26335
      vertex 7.85 41 7.47224
      vertex 7.85 50 7.47224
    endloop
  endfacet
  facet normal 0.406754 0 -0.913538
    outer loop
      vertex 6.15 41 7.47224
      vertex 6.47467 50 7.6168
      vertex 6.47467 41 7.6168
    endloop
  endfacet
  facet normal 0.406754 0 -0.913538
    outer loop
      vertex 6.47467 50 7.6168
      vertex 6.15 41 7.47224
      vertex 6.15 50 7.47224
    endloop
  endfacet
  facet normal 0.951059 0 -0.30901
    outer loop
      vertex 5.44697 41 6.69145
      vertex 5.33715 50 6.35345
      vertex 5.44697 50 6.69145
    endloop
  endfacet
  facet normal 0.951059 0 -0.30901
    outer loop
      vertex 5.33715 50 6.35345
      vertex 5.44697 41 6.69145
      vertex 5.33715 41 6.35345
    endloop
  endfacet
  facet normal -0.951059 0 -0.30901
    outer loop
      vertex 8.66285 41 6.35345
      vertex 8.55303 50 6.69145
      vertex 8.66285 50 6.35345
    endloop
  endfacet
  facet normal -0.951059 -0 -0.30901
    outer loop
      vertex 8.55303 50 6.69145
      vertex 8.66285 41 6.35345
      vertex 8.55303 41 6.69145
    endloop
  endfacet
  facet normal -0.743151 0 -0.669123
    outer loop
      vertex 8.37533 41 6.99923
      vertex 8.13752 50 7.26335
      vertex 8.37533 50 6.99923
    endloop
  endfacet
  facet normal -0.743151 -0 -0.669123
    outer loop
      vertex 8.13752 50 7.26335
      vertex 8.37533 41 6.99923
      vertex 8.13752 41 7.26335
    endloop
  endfacet
  facet normal -0.406754 0 -0.913538
    outer loop
      vertex 7.52533 41 7.6168
      vertex 7.85 50 7.47224
      vertex 7.85 41 7.47224
    endloop
  endfacet
  facet normal -0.406754 0 -0.913538
    outer loop
      vertex 7.85 50 7.47224
      vertex 7.52533 41 7.6168
      vertex 7.52533 50 7.6168
    endloop
  endfacet
  facet normal 0 0 -1
    outer loop
      vertex 6.8223 41 7.69069
      vertex 7.1777 50 7.69069
      vertex 7.1777 41 7.69069
    endloop
  endfacet
  facet normal -0 0 -1
    outer loop
      vertex 7.1777 50 7.69069
      vertex 6.8223 41 7.69069
      vertex 6.8223 50 7.69069
    endloop
  endfacet
  facet normal 0.994522 -0 0.104531
    outer loop
      vertex 5.3 41 6
      vertex 5.33715 50 5.64655
      vertex 5.3 50 6
    endloop
  endfacet
  facet normal 0.994522 0 0.104531
    outer loop
      vertex 5.33715 50 5.64655
      vertex 5.3 41 6
      vertex 5.33715 41 5.64655
    endloop
  endfacet
  facet normal 0.866022 0 -0.500007
    outer loop
      vertex 5.62467 41 6.99923
      vertex 5.44697 50 6.69145
      vertex 5.62467 50 6.99923
    endloop
  endfacet
  facet normal 0.866022 0 -0.500007
    outer loop
      vertex 5.44697 50 6.69145
      vertex 5.62467 41 6.99923
      vertex 5.44697 41 6.69145
    endloop
  endfacet
  facet normal 0.743151 0 -0.669123
    outer loop
      vertex 5.86248 41 7.26335
      vertex 5.62467 50 6.99923
      vertex 5.86248 50 7.26335
    endloop
  endfacet
  facet normal 0.743151 0 -0.669123
    outer loop
      vertex 5.62467 50 6.99923
      vertex 5.86248 41 7.26335
      vertex 5.62467 41 6.99923
    endloop
  endfacet
  facet normal -0.207909 0 0.978148
    outer loop
      vertex 7.1777 50 4.30931
      vertex 7.52533 41 4.3832
      vertex 7.52533 50 4.3832
    endloop
  endfacet
  facet normal -0.207909 0 0.978148
    outer loop
      vertex 7.52533 41 4.3832
      vertex 7.1777 50 4.30931
      vertex 7.1777 41 4.30931
    endloop
  endfacet
  facet normal -0.866029 0 0.499994
    outer loop
      vertex 8.37533 41 5.00076
      vertex 8.55303 50 5.30855
      vertex 8.37533 50 5.00076
    endloop
  endfacet
  facet normal -0.866029 0 0.499994
    outer loop
      vertex 8.55303 50 5.30855
      vertex 8.37533 41 5.00076
      vertex 8.55303 41 5.30855
    endloop
  endfacet
  facet normal -0.406754 0 0.913538
    outer loop
      vertex 7.52533 50 4.3832
      vertex 7.85 41 4.52776
      vertex 7.85 50 4.52776
    endloop
  endfacet
  facet normal -0.406754 0 0.913538
    outer loop
      vertex 7.85 41 4.52776
      vertex 7.52533 50 4.3832
      vertex 7.52533 41 4.3832
    endloop
  endfacet
  facet normal -0 0 1
    outer loop
      vertex 6.8223 50 4.30931
      vertex 7.1777 41 4.30931
      vertex 7.1777 50 4.30931
    endloop
  endfacet
  facet normal 0 0 1
    outer loop
      vertex 7.1777 41 4.30931
      vertex 6.8223 50 4.30931
      vertex 6.8223 41 4.30931
    endloop
  endfacet
  facet normal 0.587775 0 0.809024
    outer loop
      vertex 5.86248 50 4.73665
      vertex 6.15 41 4.52776
      vertex 6.15 50 4.52776
    endloop
  endfacet
  facet normal 0.587775 0 0.809024
    outer loop
      vertex 6.15 41 4.52776
      vertex 5.86248 50 4.73665
      vertex 5.86248 41 4.73665
    endloop
  endfacet
  facet normal 0.951059 -0 0.30901
    outer loop
      vertex 5.33715 41 5.64655
      vertex 5.44697 50 5.30855
      vertex 5.33715 50 5.64655
    endloop
  endfacet
  facet normal 0.951059 0 0.30901
    outer loop
      vertex 5.44697 50 5.30855
      vertex 5.33715 41 5.64655
      vertex 5.44697 41 5.30855
    endloop
  endfacet
  facet normal -0.866022 0 -0.500007
    outer loop
      vertex 8.55303 41 6.69145
      vertex 8.37533 50 6.99923
      vertex 8.55303 50 6.69145
    endloop
  endfacet
  facet normal -0.866022 -0 -0.500007
    outer loop
      vertex 8.37533 50 6.99923
      vertex 8.55303 41 6.69145
      vertex 8.37533 41 6.99923
    endloop
  endfacet
  facet normal -0.207909 0 -0.978148
    outer loop
      vertex 7.1777 41 7.69069
      vertex 7.52533 50 7.6168
      vertex 7.52533 41 7.6168
    endloop
  endfacet
  facet normal -0.207909 0 -0.978148
    outer loop
      vertex 7.52533 50 7.6168
      vertex 7.1777 41 7.69069
      vertex 7.1777 50 7.69069
    endloop
  endfacet
  facet normal 0.994522 0 -0.104531
    outer loop
      vertex 5.33715 41 6.35345
      vertex 5.3 50 6
      vertex 5.33715 50 6.35345
    endloop
  endfacet
  facet normal 0.994522 0 -0.104531
    outer loop
      vertex 5.3 50 6
      vertex 5.33715 41 6.35345
      vertex 5.3 41 6
    endloop
  endfacet
  facet normal 0.207909 0 -0.978148
    outer loop
      vertex 6.47467 41 7.6168
      vertex 6.8223 50 7.69069
      vertex 6.8223 41 7.69069
    endloop
  endfacet
  facet normal 0.207909 0 -0.978148
    outer loop
      vertex 6.8223 50 7.69069
      vertex 6.47467 41 7.6168
      vertex 6.47467 50 7.6168
    endloop
  endfacet
  facet normal 0.587775 0 -0.809024
    outer loop
      vertex 5.86248 41 7.26335
      vertex 6.15 50 7.47224
      vertex 6.15 41 7.47224
    endloop
  endfacet
  facet normal 0.587775 0 -0.809024
    outer loop
      vertex 6.15 50 7.47224
      vertex 5.86248 41 7.26335
      vertex 5.86248 50 7.26335
    endloop
  endfacet
  facet normal -0.951059 0 0.30901
    outer loop
      vertex 8.55303 41 5.30855
      vertex 8.66285 50 5.64655
      vertex 8.55303 50 5.30855
    endloop
  endfacet
  facet normal -0.951059 0 0.30901
    outer loop
      vertex 8.66285 50 5.64655
      vertex 8.55303 41 5.30855
      vertex 8.66285 41 5.64655
    endloop
  endfacet
  facet normal -0.587775 0 0.809024
    outer loop
      vertex 7.85 50 4.52776
      vertex 8.13752 41 4.73665
      vertex 8.13752 50 4.73665
    endloop
  endfacet
  facet normal -0.587775 0 0.809024
    outer loop
      vertex 8.13752 41 4.73665
      vertex 7.85 50 4.52776
      vertex 7.85 41 4.52776
    endloop
  endfacet
  facet normal -0.743139 0 0.669137
    outer loop
      vertex 8.13752 41 4.73665
      vertex 8.37533 50 5.00076
      vertex 8.13752 50 4.73665
    endloop
  endfacet
  facet normal -0.743139 0 0.669137
    outer loop
      vertex 8.37533 50 5.00076
      vertex 8.13752 41 4.73665
      vertex 8.37533 41 5.00076
    endloop
  endfacet
  facet normal 0.207909 0 0.978148
    outer loop
      vertex 6.47467 50 4.3832
      vertex 6.8223 41 4.30931
      vertex 6.8223 50 4.30931
    endloop
  endfacet
  facet normal 0.207909 0 0.978148
    outer loop
      vertex 6.8223 41 4.30931
      vertex 6.47467 50 4.3832
      vertex 6.47467 41 4.3832
    endloop
  endfacet
  facet normal 0.406754 0 0.913538
    outer loop
      vertex 6.15 50 4.52776
      vertex 6.47467 41 4.3832
      vertex 6.47467 50 4.3832
    endloop
  endfacet
  facet normal 0.406754 0 0.913538
    outer loop
      vertex 6.47467 41 4.3832
      vertex 6.15 50 4.52776
      vertex 6.15 41 4.52776
    endloop
  endfacet
  facet normal 0.866029 -0 0.499994
    outer loop
      vertex 5.44697 41 5.30855
      vertex 5.62467 50 5.00076
      vertex 5.44697 50 5.30855
    endloop
  endfacet
  facet normal 0.866029 0 0.499994
    outer loop
      vertex 5.62467 50 5.00076
      vertex 5.44697 41 5.30855
      vertex 5.62467 41 5.00076
    endloop
  endfacet
  facet normal 0.743139 -0 0.669137
    outer loop
      vertex 5.62467 41 5.00076
      vertex 5.86248 50 4.73665
      vertex 5.62467 50 5.00076
    endloop
  endfacet
  facet normal 0.743139 0 0.669137
    outer loop
      vertex 5.86248 50 4.73665
      vertex 5.62467 41 5.00076
      vertex 5.86248 41 4.73665
    endloop
  endfacet
  facet normal -0.994507 0 -0.10467
    outer loop
      vertex 58.7 41 6
      vertex 58.6628 50 6.35345
      vertex 58.7 50 6
    endloop
  endfacet
  facet normal -0.994507 -0 -0.10467
    outer loop
      vertex 58.6628 50 6.35345
      vertex 58.7 41 6
      vertex 58.6628 41 6.35345
    endloop
  endfacet
  facet normal -0.951075 0 -0.308959
    outer loop
      vertex 58.6628 41 6.35345
      vertex 58.553 50 6.69145
      vertex 58.6628 50 6.35345
    endloop
  endfacet
  facet normal -0.951075 -0 -0.308959
    outer loop
      vertex 58.553 50 6.69145
      vertex 58.6628 41 6.35345
      vertex 58.553 41 6.69145
    endloop
  endfacet
  facet normal 0 0 -1
    outer loop
      vertex 56.8223 41 7.69069
      vertex 57.1777 50 7.69069
      vertex 57.1777 41 7.69069
    endloop
  endfacet
  facet normal -0 0 -1
    outer loop
      vertex 57.1777 50 7.69069
      vertex 56.8223 41 7.69069
      vertex 56.8223 50 7.69069
    endloop
  endfacet
  facet normal -0.743165 0 -0.669108
    outer loop
      vertex 58.3753 41 6.99923
      vertex 58.1375 50 7.26335
      vertex 58.3753 50 6.99923
    endloop
  endfacet
  facet normal -0.743165 -0 -0.669108
    outer loop
      vertex 58.1375 50 7.26335
      vertex 58.3753 41 6.99923
      vertex 58.1375 41 7.26335
    endloop
  endfacet
  facet normal 0.743165 0 -0.669108
    outer loop
      vertex 55.8625 41 7.26335
      vertex 55.6247 50 6.99923
      vertex 55.8625 50 7.26335
    endloop
  endfacet
  facet normal 0.743165 0 -0.669108
    outer loop
      vertex 55.6247 50 6.99923
      vertex 55.8625 41 7.26335
      vertex 55.6247 41 6.99923
    endloop
  endfacet
  facet normal 0.406723 0 -0.913551
    outer loop
      vertex 56.15 41 7.47224
      vertex 56.4747 50 7.6168
      vertex 56.4747 41 7.6168
    endloop
  endfacet
  facet normal 0.406723 0 -0.913551
    outer loop
      vertex 56.4747 50 7.6168
      vertex 56.15 41 7.47224
      vertex 56.15 50 7.47224
    endloop
  endfacet
  facet normal -0.207926 0 0.978145
    outer loop
      vertex 57.1777 50 4.30931
      vertex 57.5253 41 4.3832
      vertex 57.5253 50 4.3832
    endloop
  endfacet
  facet normal -0.207926 0 0.978145
    outer loop
      vertex 57.5253 41 4.3832
      vertex 57.1777 50 4.30931
      vertex 57.1777 41 4.30931
    endloop
  endfacet
  facet normal 0.951075 -0 0.308959
    outer loop
      vertex 55.3372 41 5.64655
      vertex 55.447 50 5.30855
      vertex 55.3372 50 5.64655
    endloop
  endfacet
  facet normal 0.951075 0 0.308959
    outer loop
      vertex 55.447 50 5.30855
      vertex 55.3372 41 5.64655
      vertex 55.447 41 5.30855
    endloop
  endfacet
  facet normal -0.406723 0 -0.913551
    outer loop
      vertex 57.5253 41 7.6168
      vertex 57.85 50 7.47224
      vertex 57.85 41 7.47224
    endloop
  endfacet
  facet normal -0.406723 0 -0.913551
    outer loop
      vertex 57.85 50 7.47224
      vertex 57.5253 41 7.6168
      vertex 57.5253 50 7.6168
    endloop
  endfacet
  facet normal -0.587802 0 -0.809005
    outer loop
      vertex 57.85 41 7.47224
      vertex 58.1375 50 7.26335
      vertex 58.1375 41 7.26335
    endloop
  endfacet
  facet normal -0.587802 0 -0.809005
    outer loop
      vertex 58.1375 50 7.26335
      vertex 57.85 41 7.47224
      vertex 57.85 50 7.47224
    endloop
  endfacet
  facet normal 0.951075 0 -0.308959
    outer loop
      vertex 55.447 41 6.69145
      vertex 55.3372 50 6.35345
      vertex 55.447 50 6.69145
    endloop
  endfacet
  facet normal 0.951075 0 -0.308959
    outer loop
      vertex 55.3372 50 6.35345
      vertex 55.447 41 6.69145
      vertex 55.3372 41 6.35345
    endloop
  endfacet
  facet normal 0.866022 0 -0.500007
    outer loop
      vertex 55.6247 41 6.99923
      vertex 55.447 50 6.69145
      vertex 55.6247 50 6.99923
    endloop
  endfacet
  facet normal 0.866022 0 -0.500007
    outer loop
      vertex 55.447 50 6.69145
      vertex 55.6247 41 6.99923
      vertex 55.447 41 6.69145
    endloop
  endfacet
  facet normal 0.207926 0 -0.978145
    outer loop
      vertex 56.4747 41 7.6168
      vertex 56.8223 50 7.69069
      vertex 56.8223 41 7.69069
    endloop
  endfacet
  facet normal 0.207926 0 -0.978145
    outer loop
      vertex 56.8223 50 7.69069
      vertex 56.4747 41 7.6168
      vertex 56.4747 50 7.6168
    endloop
  endfacet
  facet normal -0.866029 0 0.499994
    outer loop
      vertex 58.3753 41 5.00076
      vertex 58.553 50 5.30855
      vertex 58.3753 50 5.00076
    endloop
  endfacet
  facet normal -0.866029 0 0.499994
    outer loop
      vertex 58.553 50 5.30855
      vertex 58.3753 41 5.00076
      vertex 58.553 41 5.30855
    endloop
  endfacet
  facet normal 0.587802 0 0.809005
    outer loop
      vertex 55.8625 50 4.73665
      vertex 56.15 41 4.52776
      vertex 56.15 50 4.52776
    endloop
  endfacet
  facet normal 0.587802 0 0.809005
    outer loop
      vertex 56.15 41 4.52776
      vertex 55.8625 50 4.73665
      vertex 55.8625 41 4.73665
    endloop
  endfacet
  facet normal 0.743153 -0 0.669122
    outer loop
      vertex 55.6247 41 5.00076
      vertex 55.8625 50 4.73665
      vertex 55.6247 50 5.00076
    endloop
  endfacet
  facet normal 0.743153 0 0.669122
    outer loop
      vertex 55.8625 50 4.73665
      vertex 55.6247 41 5.00076
      vertex 55.8625 41 4.73665
    endloop
  endfacet
  facet normal -0.866022 0 -0.500007
    outer loop
      vertex 58.553 41 6.69145
      vertex 58.3753 50 6.99923
      vertex 58.553 50 6.69145
    endloop
  endfacet
  facet normal -0.866022 -0 -0.500007
    outer loop
      vertex 58.3753 50 6.99923
      vertex 58.553 41 6.69145
      vertex 58.3753 41 6.99923
    endloop
  endfacet
  facet normal -0.207926 0 -0.978145
    outer loop
      vertex 57.1777 41 7.69069
      vertex 57.5253 50 7.6168
      vertex 57.5253 41 7.6168
    endloop
  endfacet
  facet normal -0.207926 0 -0.978145
    outer loop
      vertex 57.5253 50 7.6168
      vertex 57.1777 41 7.69069
      vertex 57.1777 50 7.69069
    endloop
  endfacet
  facet normal 0.994507 0 -0.10467
    outer loop
      vertex 55.3372 41 6.35345
      vertex 55.3 50 6
      vertex 55.3372 50 6.35345
    endloop
  endfacet
  facet normal 0.994507 0 -0.10467
    outer loop
      vertex 55.3 50 6
      vertex 55.3372 41 6.35345
      vertex 55.3 41 6
    endloop
  endfacet
  facet normal 0.994507 -0 0.10467
    outer loop
      vertex 55.3 41 6
      vertex 55.3372 50 5.64655
      vertex 55.3 50 6
    endloop
  endfacet
  facet normal 0.994507 0 0.10467
    outer loop
      vertex 55.3372 50 5.64655
      vertex 55.3 41 6
      vertex 55.3372 41 5.64655
    endloop
  endfacet
  facet normal 0.587802 0 -0.809005
    outer loop
      vertex 55.8625 41 7.26335
      vertex 56.15 50 7.47224
      vertex 56.15 41 7.47224
    endloop
  endfacet
  facet normal 0.587802 0 -0.809005
    outer loop
      vertex 56.15 50 7.47224
      vertex 55.8625 41 7.26335
      vertex 55.8625 50 7.26335
    endloop
  endfacet
  facet normal -0.406723 0 0.913551
    outer loop
      vertex 57.5253 50 4.3832
      vertex 57.85 41 4.52776
      vertex 57.85 50 4.52776
    endloop
  endfacet
  facet normal -0.406723 0 0.913551
    outer loop
      vertex 57.85 41 4.52776
      vertex 57.5253 50 4.3832
      vertex 57.5253 41 4.3832
    endloop
  endfacet
  facet normal -0.587802 0 0.809005
    outer loop
      vertex 57.85 50 4.52776
      vertex 58.1375 41 4.73665
      vertex 58.1375 50 4.73665
    endloop
  endfacet
  facet normal -0.587802 0 0.809005
    outer loop
      vertex 58.1375 41 4.73665
      vertex 57.85 50 4.52776
      vertex 57.85 41 4.52776
    endloop
  endfacet
  facet normal -0.743153 0 0.669122
    outer loop
      vertex 58.1375 41 4.73665
      vertex 58.3753 50 5.00076
      vertex 58.1375 50 4.73665
    endloop
  endfacet
  facet normal -0.743153 0 0.669122
    outer loop
      vertex 58.3753 50 5.00076
      vertex 58.1375 41 4.73665
      vertex 58.3753 41 5.00076
    endloop
  endfacet
  facet normal 0.406723 0 0.913551
    outer loop
      vertex 56.15 50 4.52776
      vertex 56.4747 41 4.3832
      vertex 56.4747 50 4.3832
    endloop
  endfacet
  facet normal 0.406723 0 0.913551
    outer loop
      vertex 56.4747 41 4.3832
      vertex 56.15 50 4.52776
      vertex 56.15 41 4.52776
    endloop
  endfacet
  facet normal 0.207926 0 0.978145
    outer loop
      vertex 56.4747 50 4.3832
      vertex 56.8223 41 4.30931
      vertex 56.8223 50 4.30931
    endloop
  endfacet
  facet normal 0.207926 0 0.978145
    outer loop
      vertex 56.8223 41 4.30931
      vertex 56.4747 50 4.3832
      vertex 56.4747 41 4.3832
    endloop
  endfacet
  facet normal -0 0 1
    outer loop
      vertex 56.8223 50 4.30931
      vertex 57.1777 41 4.30931
      vertex 57.1777 50 4.30931
    endloop
  endfacet
  facet normal 0 0 1
    outer loop
      vertex 57.1777 41 4.30931
      vertex 56.8223 50 4.30931
      vertex 56.8223 41 4.30931
    endloop
  endfacet
  facet normal 0.866029 -0 0.499994
    outer loop
      vertex 55.447 41 5.30855
      vertex 55.6247 50 5.00076
      vertex 55.447 50 5.30855
    endloop
  endfacet
  facet normal 0.866029 0 0.499994
    outer loop
      vertex 55.6247 50 5.00076
      vertex 55.447 41 5.30855
      vertex 55.6247 41 5.00076
    endloop
  endfacet
  facet normal -0.951075 0 0.308959
    outer loop
      vertex 58.553 41 5.30855
      vertex 58.6628 50 5.64655
      vertex 58.553 50 5.30855
    endloop
  endfacet
  facet normal -0.951075 0 0.308959
    outer loop
      vertex 58.6628 50 5.64655
      vertex 58.553 41 5.30855
      vertex 58.6628 41 5.64655
    endloop
  endfacet
  facet normal -0.994507 0 0.10467
    outer loop
      vertex 58.6628 41 5.64655
      vertex 58.7 50 6
      vertex 58.6628 50 5.64655
    endloop
  endfacet
  facet normal -0.994507 0 0.10467
    outer loop
      vertex 58.7 50 6
      vertex 58.6628 41 5.64655
      vertex 58.7 41 6
    endloop
  endfacet
endsolid OpenSCAD_Model
