solid OpenSCAD_Model
  facet normal 0 0 -1
    outer loop
      vertex 38.4704 2.02464 0
      vertex 38.5253 4.88319 0
      vertex 39.3906 2.22025 0
    endloop
  endfacet
  facet normal 0 0 -1
    outer loop
      vertex 38.85 5.02776 0
      vertex 39.1375 5.23665 0
      vertex 40.25 2.60287 0
    endloop
  endfacet
  facet normal 0 0 -1
    outer loop
      vertex 6.67769 8.19067 0
      vertex 6.3223 8.19067 0
      vertex 6.5 10.9753 0
    endloop
  endfacet
  facet normal 0 -0 -1
    outer loop
      vertex 39.3753 5.50076 0
      vertex 41.6406 3.85497 0
      vertex 39.1375 5.23665 0
    endloop
  endfacet
  facet normal 0 0 -1
    outer loop
      vertex 39.553 5.80853 0
      vertex 42.1109 4.66968 0
      vertex 41.6406 3.85497 0
    endloop
  endfacet
  facet normal -0 0 -1
    outer loop
      vertex 42.5 6.5 0
      vertex 42.4017 5.56439 0
      vertex 39.7 6.5 0
    endloop
  endfacet
  facet normal 0 0 -1
    outer loop
      vertex 42.4017 7.43559 0
      vertex 39.6628 6.85344 0
      vertex 39.553 7.19145 0
    endloop
  endfacet
  facet normal 0 0 -1
    outer loop
      vertex 38.85 7.97223 0
      vertex 40.25 10.3971 0
      vertex 39.1375 7.76334 0
    endloop
  endfacet
  facet normal 0 0 -1
    outer loop
      vertex 38.5253 8.11679 0
      vertex 39.3906 10.7797 0
      vertex 38.85 7.97223 0
    endloop
  endfacet
  facet normal 0 0 -1
    outer loop
      vertex 38.1777 8.19067 0
      vertex 38.4704 10.9753 0
      vertex 38.5253 8.11679 0
    endloop
  endfacet
  facet normal 0 0 -1
    outer loop
      vertex 37.8223 8.19067 0
      vertex 38 10.9753 0
      vertex 38.1777 8.19067 0
    endloop
  endfacet
  facet normal -0 0 -1
    outer loop
      vertex 37.4747 8.11679 0
      vertex 37.15 7.97223 0
      vertex 38 10.9753 0
    endloop
  endfacet
  facet normal 0 0 -1
    outer loop
      vertex 38 10.9753 0
      vertex 36.8625 7.76334 0
      vertex 36.6247 7.49922 0
    endloop
  endfacet
  facet normal 0 -0 -1
    outer loop
      vertex 38 11 0
      vertex 38 10.9753 0
      vertex 36.6247 7.49922 0
    endloop
  endfacet
  facet normal 0 0 -1
    outer loop
      vertex 38.4704 2.02464 0
      vertex 38 2.02464 0
      vertex 38.1777 4.80931 0
    endloop
  endfacet
  facet normal 0 0 -1
    outer loop
      vertex 7.02531 8.11679 0
      vertex 6.5 10.9753 0
      vertex 7.34999 7.97223 0
    endloop
  endfacet
  facet normal 0 0 -1
    outer loop
      vertex 7.34999 7.97223 0
      vertex 6.5 10.9753 0
      vertex 7.63751 7.76334 0
    endloop
  endfacet
  facet normal 0 -0 -1
    outer loop
      vertex 6.3223 4.80931 0
      vertex 6.5 2.02464 0
      vertex 6.02962 2.02464 0
    endloop
  endfacet
  facet normal 0 0 -1
    outer loop
      vertex 5.12466 7.49922 0
      vertex 2.85942 9.14502 0
      vertex 5.36247 7.76334 0
    endloop
  endfacet
  facet normal 0 0 -1
    outer loop
      vertex 4.94696 7.19145 0
      vertex 2.38904 8.33031 0
      vertex 2.85942 9.14502 0
    endloop
  endfacet
  facet normal 0 0 -1
    outer loop
      vertex 4.83714 6.85344 0
      vertex 2.09833 7.43559 0
      vertex 4.94696 7.19145 0
    endloop
  endfacet
  facet normal 0 0 -1
    outer loop
      vertex 4.79999 6.5 0
      vertex 2 6.5 0
      vertex 2.09833 7.43559 0
    endloop
  endfacet
  facet normal -0 0 -1
    outer loop
      vertex 4.83714 6.14655 0
      vertex 2.09833 5.56439 0
      vertex 4.79999 6.5 0
    endloop
  endfacet
  facet normal 0 0 -1
    outer loop
      vertex 4.94696 5.80853 0
      vertex 2.38904 4.66968 0
      vertex 2.09833 5.56439 0
    endloop
  endfacet
  facet normal -0 0 -1
    outer loop
      vertex 5.12466 5.50076 0
      vertex 2.85942 3.85497 0
      vertex 4.94696 5.80853 0
    endloop
  endfacet
  facet normal 0 0 -1
    outer loop
      vertex 4.24998 2.60287 0
      vertex 3.48891 3.15584 0
      vertex 5.36247 5.23665 0
    endloop
  endfacet
  facet normal 0 0 -1
    outer loop
      vertex 5.10942 2.22025 0
      vertex 4.24998 2.60287 0
      vertex 5.64999 5.02776 0
    endloop
  endfacet
  facet normal -0 0 -1
    outer loop
      vertex 5.97467 4.88319 0
      vertex 5.10942 2.22025 0
      vertex 5.64999 5.02776 0
    endloop
  endfacet
  facet normal 0 -0 -1
    outer loop
      vertex 5.97467 4.88319 0
      vertex 6.02962 2.02464 0
      vertex 5.10942 2.22025 0
    endloop
  endfacet
  facet normal 0 0 -1
    outer loop
      vertex 5.97467 4.88319 0
      vertex 6.3223 4.80931 0
      vertex 6.02962 2.02464 0
    endloop
  endfacet
  facet normal 0 0 -1
    outer loop
      vertex 6.3223 4.80931 0
      vertex 6.67769 4.80931 0
      vertex 6.5 2.02464 0
    endloop
  endfacet
  facet normal 0 0 -1
    outer loop
      vertex 8.16284 6.14655 0
      vertex 36.3 6.5 0
      vertex 36.3371 6.14655 0
    endloop
  endfacet
  facet normal 0 0 -1
    outer loop
      vertex 6.5 11 0
      vertex 38 11 0
      vertex 36.447 7.19145 0
    endloop
  endfacet
  facet normal 0 0 -1
    outer loop
      vertex 6.5 2 0
      vertex 7.87532 5.50076 0
      vertex 8.05302 5.80853 0
    endloop
  endfacet
  facet normal -0 0 -1
    outer loop
      vertex 5.36247 5.23665 0
      vertex 2.85942 3.85497 0
      vertex 5.12466 5.50076 0
    endloop
  endfacet
  facet normal 0 0 -1
    outer loop
      vertex 7.87532 7.49922 0
      vertex 7.63751 7.76334 0
      vertex 6.5 10.9753 0
    endloop
  endfacet
  facet normal 0 0 -1
    outer loop
      vertex 5.36247 7.76334 0
      vertex 3.48891 9.84415 0
      vertex 4.25 10.3971 0
    endloop
  endfacet
  facet normal 0 0 -1
    outer loop
      vertex 4.24998 2.60287 0
      vertex 5.36247 5.23665 0
      vertex 5.64999 5.02776 0
    endloop
  endfacet
  facet normal 0 0 -1
    outer loop
      vertex 5.64999 7.97223 0
      vertex 4.25 10.3971 0
      vertex 5.97467 8.11679 0
    endloop
  endfacet
  facet normal 0 0 -1
    outer loop
      vertex 3.48891 3.15584 0
      vertex 2.85942 3.85497 0
      vertex 5.36247 5.23665 0
    endloop
  endfacet
  facet normal 0 0 -1
    outer loop
      vertex 4.94696 5.80853 0
      vertex 2.85942 3.85497 0
      vertex 2.38904 4.66968 0
    endloop
  endfacet
  facet normal 0 -0 -1
    outer loop
      vertex 4.83714 6.14655 0
      vertex 4.94696 5.80853 0
      vertex 2.09833 5.56439 0
    endloop
  endfacet
  facet normal -0 0 -1
    outer loop
      vertex 4.79999 6.5 0
      vertex 2.09833 5.56439 0
      vertex 2 6.5 0
    endloop
  endfacet
  facet normal -0 0 -1
    outer loop
      vertex 4.83714 6.85344 0
      vertex 4.79999 6.5 0
      vertex 2.09833 7.43559 0
    endloop
  endfacet
  facet normal 0 0 -1
    outer loop
      vertex 4.94696 7.19145 0
      vertex 2.09833 7.43559 0
      vertex 2.38904 8.33031 0
    endloop
  endfacet
  facet normal -0 0 -1
    outer loop
      vertex 5.12466 7.49922 0
      vertex 4.94696 7.19145 0
      vertex 2.85942 9.14502 0
    endloop
  endfacet
  facet normal 0 0 -1
    outer loop
      vertex 5.36247 7.76334 0
      vertex 2.85942 9.14502 0
      vertex 3.48891 9.84415 0
    endloop
  endfacet
  facet normal -0 0 -1
    outer loop
      vertex 5.64999 7.97223 0
      vertex 5.36247 7.76334 0
      vertex 4.25 10.3971 0
    endloop
  endfacet
  facet normal 0 0 -1
    outer loop
      vertex 5.97467 8.11679 0
      vertex 4.25 10.3971 0
      vertex 5.10942 10.7797 0
    endloop
  endfacet
  facet normal 0 0 -1
    outer loop
      vertex 6.02962 10.9753 0
      vertex 5.97467 8.11679 0
      vertex 5.10942 10.7797 0
    endloop
  endfacet
  facet normal 0 -0 -1
    outer loop
      vertex 6.02962 10.9753 0
      vertex 6.3223 8.19067 0
      vertex 5.97467 8.11679 0
    endloop
  endfacet
  facet normal 0 0 -1
    outer loop
      vertex 6.02962 10.9753 0
      vertex 6.5 10.9753 0
      vertex 6.3223 8.19067 0
    endloop
  endfacet
  facet normal 0 0 -1
    outer loop
      vertex 6.5 10.9753 0
      vertex 7.02531 8.11679 0
      vertex 6.67769 8.19067 0
    endloop
  endfacet
  facet normal 0 0 -1
    outer loop
      vertex 6.5 10.9753 0
      vertex 6.5 11 0
      vertex 7.87532 7.49922 0
    endloop
  endfacet
  facet normal 0 0 -1
    outer loop
      vertex 7.87532 7.49922 0
      vertex 6.5 11 0
      vertex 8.05302 7.19145 0
    endloop
  endfacet
  facet normal 0 0 -1
    outer loop
      vertex 8.05302 7.19145 0
      vertex 6.5 11 0
      vertex 36.447 7.19145 0
    endloop
  endfacet
  facet normal 0 0 -1
    outer loop
      vertex 6.5 2 0
      vertex 6.5 2.02464 0
      vertex 7.87532 5.50076 0
    endloop
  endfacet
  facet normal 0 0 -1
    outer loop
      vertex 38 2 0
      vertex 36.6247 5.50076 0
      vertex 38 2.02464 0
    endloop
  endfacet
  facet normal 0 0 -1
    outer loop
      vertex 38 2.02464 0
      vertex 36.6247 5.50076 0
      vertex 36.8625 5.23665 0
    endloop
  endfacet
  facet normal 0 0 -1
    outer loop
      vertex 38 2.02464 0
      vertex 37.4747 4.88319 0
      vertex 37.8223 4.80931 0
    endloop
  endfacet
  facet normal 0 0 -1
    outer loop
      vertex 38 2.02464 0
      vertex 37.15 5.02776 0
      vertex 37.4747 4.88319 0
    endloop
  endfacet
  facet normal 0 0 -1
    outer loop
      vertex 38 2.02464 0
      vertex 36.8625 5.23665 0
      vertex 37.15 5.02776 0
    endloop
  endfacet
  facet normal 0 -0 -1
    outer loop
      vertex 36.447 5.80853 0
      vertex 38 2 0
      vertex 6.5 2 0
    endloop
  endfacet
  facet normal 0 0 -1
    outer loop
      vertex 7.87532 5.50076 0
      vertex 6.5 2.02464 0
      vertex 7.63751 5.23665 0
    endloop
  endfacet
  facet normal 0 0 -1
    outer loop
      vertex 7.63751 5.23665 0
      vertex 6.5 2.02464 0
      vertex 7.34999 5.02776 0
    endloop
  endfacet
  facet normal 0 0 -1
    outer loop
      vertex 7.34999 5.02776 0
      vertex 6.5 2.02464 0
      vertex 7.02531 4.88319 0
    endloop
  endfacet
  facet normal 0 0 -1
    outer loop
      vertex 7.02531 4.88319 0
      vertex 6.5 2.02464 0
      vertex 6.67769 4.80931 0
    endloop
  endfacet
  facet normal 0 0 -1
    outer loop
      vertex 38 2 0
      vertex 36.447 5.80853 0
      vertex 36.6247 5.50076 0
    endloop
  endfacet
  facet normal 0 0 -1
    outer loop
      vertex 38 2.02464 0
      vertex 37.8223 4.80931 0
      vertex 38.1777 4.80931 0
    endloop
  endfacet
  facet normal 0 0 -1
    outer loop
      vertex 39.553 7.19145 0
      vertex 42.1109 8.33031 0
      vertex 42.4017 7.43559 0
    endloop
  endfacet
  facet normal 0 0 -1
    outer loop
      vertex 6.5 2 0
      vertex 8.05302 5.80853 0
      vertex 36.447 5.80853 0
    endloop
  endfacet
  facet normal 0 0 -1
    outer loop
      vertex 36.447 5.80853 0
      vertex 8.05302 5.80853 0
      vertex 36.3371 6.14655 0
    endloop
  endfacet
  facet normal 0 0 -1
    outer loop
      vertex 36.447 7.19145 0
      vertex 38 11 0
      vertex 36.6247 7.49922 0
    endloop
  endfacet
  facet normal 0 0 -1
    outer loop
      vertex 8.05302 5.80853 0
      vertex 8.16284 6.14655 0
      vertex 36.3371 6.14655 0
    endloop
  endfacet
  facet normal 0 0 -1
    outer loop
      vertex 8.16284 6.14655 0
      vertex 8.2 6.5 0
      vertex 36.3 6.5 0
    endloop
  endfacet
  facet normal 0 0 -1
    outer loop
      vertex 36.3 6.5 0
      vertex 8.2 6.5 0
      vertex 8.16284 6.85344 0
    endloop
  endfacet
  facet normal -0 0 -1
    outer loop
      vertex 36.3371 6.85344 0
      vertex 36.3 6.5 0
      vertex 8.16284 6.85344 0
    endloop
  endfacet
  facet normal 0 0 -1
    outer loop
      vertex 8.05302 7.19145 0
      vertex 36.3371 6.85344 0
      vertex 8.16284 6.85344 0
    endloop
  endfacet
  facet normal 0 0 -1
    outer loop
      vertex 8.05302 7.19145 0
      vertex 36.447 7.19145 0
      vertex 36.3371 6.85344 0
    endloop
  endfacet
  facet normal 0 0 -1
    outer loop
      vertex 38 10.9753 0
      vertex 37.15 7.97223 0
      vertex 36.8625 7.76334 0
    endloop
  endfacet
  facet normal -0 0 -1
    outer loop
      vertex 37.8223 8.19067 0
      vertex 37.4747 8.11679 0
      vertex 38 10.9753 0
    endloop
  endfacet
  facet normal 0 0 -1
    outer loop
      vertex 38.1777 8.19067 0
      vertex 38 10.9753 0
      vertex 38.4704 10.9753 0
    endloop
  endfacet
  facet normal 0 0 -1
    outer loop
      vertex 38.5253 8.11679 0
      vertex 38.4704 10.9753 0
      vertex 39.3906 10.7797 0
    endloop
  endfacet
  facet normal 0 0 -1
    outer loop
      vertex 38.85 7.97223 0
      vertex 39.3906 10.7797 0
      vertex 40.25 10.3971 0
    endloop
  endfacet
  facet normal 0 0 -1
    outer loop
      vertex 39.1375 7.76334 0
      vertex 40.25 10.3971 0
      vertex 41.0111 9.84415 0
    endloop
  endfacet
  facet normal 0 0 -1
    outer loop
      vertex 41.6406 9.14502 0
      vertex 39.3753 7.49922 0
      vertex 39.1375 7.76334 0
    endloop
  endfacet
  facet normal -0 0 -1
    outer loop
      vertex 41.6406 9.14502 0
      vertex 39.1375 7.76334 0
      vertex 41.0111 9.84415 0
    endloop
  endfacet
  facet normal -0 0 -1
    outer loop
      vertex 42.1109 8.33031 0
      vertex 39.553 7.19145 0
      vertex 41.6406 9.14502 0
    endloop
  endfacet
  facet normal 0 0 -1
    outer loop
      vertex 39.553 7.19145 0
      vertex 39.3753 7.49922 0
      vertex 41.6406 9.14502 0
    endloop
  endfacet
  facet normal 0 0 -1
    outer loop
      vertex 39.6628 6.85344 0
      vertex 42.4017 7.43559 0
      vertex 39.7 6.5 0
    endloop
  endfacet
  facet normal 0 0 -1
    outer loop
      vertex 39.7 6.5 0
      vertex 42.4017 7.43559 0
      vertex 42.5 6.5 0
    endloop
  endfacet
  facet normal 0 0 -1
    outer loop
      vertex 39.6628 6.14655 0
      vertex 39.7 6.5 0
      vertex 42.4017 5.56439 0
    endloop
  endfacet
  facet normal 0 0 -1
    outer loop
      vertex 39.553 5.80853 0
      vertex 39.6628 6.14655 0
      vertex 42.4017 5.56439 0
    endloop
  endfacet
  facet normal 0 0 -1
    outer loop
      vertex 42.1109 4.66968 0
      vertex 39.553 5.80853 0
      vertex 42.4017 5.56439 0
    endloop
  endfacet
  facet normal 0 0 -1
    outer loop
      vertex 41.6406 3.85497 0
      vertex 39.3753 5.50076 0
      vertex 39.553 5.80853 0
    endloop
  endfacet
  facet normal 0 0 -1
    outer loop
      vertex 41.0111 3.15584 0
      vertex 39.1375 5.23665 0
      vertex 41.6406 3.85497 0
    endloop
  endfacet
  facet normal -0 0 -1
    outer loop
      vertex 41.0111 3.15584 0
      vertex 40.25 2.60287 0
      vertex 39.1375 5.23665 0
    endloop
  endfacet
  facet normal -0 0 -1
    outer loop
      vertex 40.25 2.60287 0
      vertex 39.3906 2.22025 0
      vertex 38.85 5.02776 0
    endloop
  endfacet
  facet normal 0 -0 -1
    outer loop
      vertex 38.85 5.02776 0
      vertex 39.3906 2.22025 0
      vertex 38.5253 4.88319 0
    endloop
  endfacet
  facet normal 0 0 -1
    outer loop
      vertex 38.5253 4.88319 0
      vertex 38.4704 2.02464 0
      vertex 38.1777 4.80931 0
    endloop
  endfacet
  facet normal 0 0 1
    outer loop
      vertex 39.3906 2.22025 3
      vertex 38.5253 4.88319 3
      vertex 38.4704 2.02464 3
    endloop
  endfacet
  facet normal 0 0 1
    outer loop
      vertex 40.25 2.60287 3
      vertex 39.1375 5.23665 3
      vertex 38.85 5.02776 3
    endloop
  endfacet
  facet normal 0 0 1
    outer loop
      vertex 6.5 10.9753 3
      vertex 6.3223 8.19067 3
      vertex 6.67769 8.19067 3
    endloop
  endfacet
  facet normal -0 0 1
    outer loop
      vertex 39.1375 5.23665 3
      vertex 41.6406 3.85497 3
      vertex 39.3753 5.50076 3
    endloop
  endfacet
  facet normal 0 -0 1
    outer loop
      vertex 41.6406 3.85497 3
      vertex 42.1109 4.66968 3
      vertex 39.553 5.80853 3
    endloop
  endfacet
  facet normal -0 0 1
    outer loop
      vertex 39.7 6.5 3
      vertex 42.4017 5.56439 3
      vertex 42.5 6.5 3
    endloop
  endfacet
  facet normal -0 0 1
    outer loop
      vertex 39.553 7.19145 3
      vertex 39.6628 6.85344 3
      vertex 42.4017 7.43559 3
    endloop
  endfacet
  facet normal 0 -0 1
    outer loop
      vertex 39.1375 7.76334 3
      vertex 40.25 10.3971 3
      vertex 38.85 7.97223 3
    endloop
  endfacet
  facet normal 0 -0 1
    outer loop
      vertex 38.85 7.97223 3
      vertex 39.3906 10.7797 3
      vertex 38.5253 8.11679 3
    endloop
  endfacet
  facet normal 0 0 1
    outer loop
      vertex 38.5253 8.11679 3
      vertex 38.4704 10.9753 3
      vertex 38.1777 8.19067 3
    endloop
  endfacet
  facet normal 0 0 1
    outer loop
      vertex 38.1777 8.19067 3
      vertex 38 10.9753 3
      vertex 37.8223 8.19067 3
    endloop
  endfacet
  facet normal 0 0 1
    outer loop
      vertex 38 10.9753 3
      vertex 37.15 7.97223 3
      vertex 37.4747 8.11679 3
    endloop
  endfacet
  facet normal 0 0 1
    outer loop
      vertex 36.6247 7.49922 3
      vertex 36.8625 7.76334 3
      vertex 38 10.9753 3
    endloop
  endfacet
  facet normal 0 0 1
    outer loop
      vertex 36.6247 7.49922 3
      vertex 38 10.9753 3
      vertex 38 11 3
    endloop
  endfacet
  facet normal 0 0 1
    outer loop
      vertex 38.1777 4.80931 3
      vertex 38 2.02464 3
      vertex 38.4704 2.02464 3
    endloop
  endfacet
  facet normal 0 0 1
    outer loop
      vertex 7.34999 7.97223 3
      vertex 6.5 10.9753 3
      vertex 7.02531 8.11679 3
    endloop
  endfacet
  facet normal 0 0 1
    outer loop
      vertex 7.63751 7.76334 3
      vertex 6.5 10.9753 3
      vertex 7.34999 7.97223 3
    endloop
  endfacet
  facet normal 0 0 1
    outer loop
      vertex 6.02962 2.02464 3
      vertex 6.5 2.02464 3
      vertex 6.3223 4.80931 3
    endloop
  endfacet
  facet normal 0 0 1
    outer loop
      vertex 5.36247 7.76334 3
      vertex 2.85942 9.14502 3
      vertex 5.12466 7.49922 3
    endloop
  endfacet
  facet normal 0 0 1
    outer loop
      vertex 2.85942 9.14502 3
      vertex 2.38904 8.33031 3
      vertex 4.94696 7.19145 3
    endloop
  endfacet
  facet normal 0 0 1
    outer loop
      vertex 4.94696 7.19145 3
      vertex 2.09833 7.43559 3
      vertex 4.83714 6.85344 3
    endloop
  endfacet
  facet normal 0 0 1
    outer loop
      vertex 2.09833 7.43559 3
      vertex 2 6.5 3
      vertex 4.79999 6.5 3
    endloop
  endfacet
  facet normal 0 0 1
    outer loop
      vertex 4.79999 6.5 3
      vertex 2.09833 5.56439 3
      vertex 4.83714 6.14655 3
    endloop
  endfacet
  facet normal -0 0 1
    outer loop
      vertex 2.09833 5.56439 3
      vertex 2.38904 4.66968 3
      vertex 4.94696 5.80853 3
    endloop
  endfacet
  facet normal 0 0 1
    outer loop
      vertex 4.94696 5.80853 3
      vertex 2.85942 3.85497 3
      vertex 5.12466 5.50076 3
    endloop
  endfacet
  facet normal 0 0 1
    outer loop
      vertex 5.36247 5.23665 3
      vertex 3.48891 3.15584 3
      vertex 4.24998 2.60287 3
    endloop
  endfacet
  facet normal 0 0 1
    outer loop
      vertex 5.64999 5.02776 3
      vertex 4.24998 2.60287 3
      vertex 5.10942 2.22025 3
    endloop
  endfacet
  facet normal 0 0 1
    outer loop
      vertex 5.64999 5.02776 3
      vertex 5.10942 2.22025 3
      vertex 5.97467 4.88319 3
    endloop
  endfacet
  facet normal -0 0 1
    outer loop
      vertex 5.10942 2.22025 3
      vertex 6.02962 2.02464 3
      vertex 5.97467 4.88319 3
    endloop
  endfacet
  facet normal 0 -0 1
    outer loop
      vertex 6.02962 2.02464 3
      vertex 6.3223 4.80931 3
      vertex 5.97467 4.88319 3
    endloop
  endfacet
  facet normal 0 -0 1
    outer loop
      vertex 6.5 2.02464 3
      vertex 6.67769 4.80931 3
      vertex 6.3223 4.80931 3
    endloop
  endfacet
  facet normal 0 0 1
    outer loop
      vertex 36.3371 6.14655 3
      vertex 36.3 6.5 3
      vertex 8.16284 6.14655 3
    endloop
  endfacet
  facet normal 0 -0 1
    outer loop
      vertex 36.447 7.19145 3
      vertex 38 11 3
      vertex 6.5 11 3
    endloop
  endfacet
  facet normal 0 0 1
    outer loop
      vertex 8.05302 5.80853 3
      vertex 7.87532 5.50076 3
      vertex 6.5 2 3
    endloop
  endfacet
  facet normal 0 0 1
    outer loop
      vertex 5.12466 5.50076 3
      vertex 2.85942 3.85497 3
      vertex 5.36247 5.23665 3
    endloop
  endfacet
  facet normal 0 0 1
    outer loop
      vertex 6.5 10.9753 3
      vertex 7.63751 7.76334 3
      vertex 7.87532 7.49922 3
    endloop
  endfacet
  facet normal 0 0 1
    outer loop
      vertex 4.25 10.3971 3
      vertex 3.48891 9.84415 3
      vertex 5.36247 7.76334 3
    endloop
  endfacet
  facet normal 0 0 1
    outer loop
      vertex 5.64999 5.02776 3
      vertex 5.36247 5.23665 3
      vertex 4.24998 2.60287 3
    endloop
  endfacet
  facet normal 0 0 1
    outer loop
      vertex 5.97467 8.11679 3
      vertex 4.25 10.3971 3
      vertex 5.64999 7.97223 3
    endloop
  endfacet
  facet normal 0 0 1
    outer loop
      vertex 5.36247 5.23665 3
      vertex 2.85942 3.85497 3
      vertex 3.48891 3.15584 3
    endloop
  endfacet
  facet normal -0 0 1
    outer loop
      vertex 2.38904 4.66968 3
      vertex 2.85942 3.85497 3
      vertex 4.94696 5.80853 3
    endloop
  endfacet
  facet normal 0 0 1
    outer loop
      vertex 2.09833 5.56439 3
      vertex 4.94696 5.80853 3
      vertex 4.83714 6.14655 3
    endloop
  endfacet
  facet normal -0 0 1
    outer loop
      vertex 2 6.5 3
      vertex 2.09833 5.56439 3
      vertex 4.79999 6.5 3
    endloop
  endfacet
  facet normal 0 0 1
    outer loop
      vertex 2.09833 7.43559 3
      vertex 4.79999 6.5 3
      vertex 4.83714 6.85344 3
    endloop
  endfacet
  facet normal 0 0 1
    outer loop
      vertex 2.38904 8.33031 3
      vertex 2.09833 7.43559 3
      vertex 4.94696 7.19145 3
    endloop
  endfacet
  facet normal 0 0 1
    outer loop
      vertex 2.85942 9.14502 3
      vertex 4.94696 7.19145 3
      vertex 5.12466 7.49922 3
    endloop
  endfacet
  facet normal 0 0 1
    outer loop
      vertex 3.48891 9.84415 3
      vertex 2.85942 9.14502 3
      vertex 5.36247 7.76334 3
    endloop
  endfacet
  facet normal 0 0 1
    outer loop
      vertex 4.25 10.3971 3
      vertex 5.36247 7.76334 3
      vertex 5.64999 7.97223 3
    endloop
  endfacet
  facet normal 0 0 1
    outer loop
      vertex 5.10942 10.7797 3
      vertex 4.25 10.3971 3
      vertex 5.97467 8.11679 3
    endloop
  endfacet
  facet normal -0 0 1
    outer loop
      vertex 5.10942 10.7797 3
      vertex 5.97467 8.11679 3
      vertex 6.02962 10.9753 3
    endloop
  endfacet
  facet normal 0 0 1
    outer loop
      vertex 5.97467 8.11679 3
      vertex 6.3223 8.19067 3
      vertex 6.02962 10.9753 3
    endloop
  endfacet
  facet normal 0 -0 1
    outer loop
      vertex 6.3223 8.19067 3
      vertex 6.5 10.9753 3
      vertex 6.02962 10.9753 3
    endloop
  endfacet
  facet normal -0 -0 1
    outer loop
      vertex 6.67769 8.19067 3
      vertex 7.02531 8.11679 3
      vertex 6.5 10.9753 3
    endloop
  endfacet
  facet normal 0 0 1
    outer loop
      vertex 7.87532 7.49922 3
      vertex 6.5 11 3
      vertex 6.5 10.9753 3
    endloop
  endfacet
  facet normal 0 0 1
    outer loop
      vertex 8.05302 7.19145 3
      vertex 6.5 11 3
      vertex 7.87532 7.49922 3
    endloop
  endfacet
  facet normal 0 0 1
    outer loop
      vertex 36.447 7.19145 3
      vertex 6.5 11 3
      vertex 8.05302 7.19145 3
    endloop
  endfacet
  facet normal 0 0 1
    outer loop
      vertex 7.87532 5.50076 3
      vertex 6.5 2.02464 3
      vertex 6.5 2 3
    endloop
  endfacet
  facet normal 0 0 1
    outer loop
      vertex 38 2.02464 3
      vertex 36.6247 5.50076 3
      vertex 38 2 3
    endloop
  endfacet
  facet normal 0 0 1
    outer loop
      vertex 36.8625 5.23665 3
      vertex 36.6247 5.50076 3
      vertex 38 2.02464 3
    endloop
  endfacet
  facet normal 0 0 1
    outer loop
      vertex 37.8223 4.80931 3
      vertex 37.4747 4.88319 3
      vertex 38 2.02464 3
    endloop
  endfacet
  facet normal 0 0 1
    outer loop
      vertex 37.4747 4.88319 3
      vertex 37.15 5.02776 3
      vertex 38 2.02464 3
    endloop
  endfacet
  facet normal 0 0 1
    outer loop
      vertex 37.15 5.02776 3
      vertex 36.8625 5.23665 3
      vertex 38 2.02464 3
    endloop
  endfacet
  facet normal 0 0 1
    outer loop
      vertex 6.5 2 3
      vertex 38 2 3
      vertex 36.447 5.80853 3
    endloop
  endfacet
  facet normal -0 0 1
    outer loop
      vertex 7.63751 5.23665 3
      vertex 6.5 2.02464 3
      vertex 7.87532 5.50076 3
    endloop
  endfacet
  facet normal -0 0 1
    outer loop
      vertex 7.34999 5.02776 3
      vertex 6.5 2.02464 3
      vertex 7.63751 5.23665 3
    endloop
  endfacet
  facet normal -0 0 1
    outer loop
      vertex 7.02531 4.88319 3
      vertex 6.5 2.02464 3
      vertex 7.34999 5.02776 3
    endloop
  endfacet
  facet normal -0 0 1
    outer loop
      vertex 6.67769 4.80931 3
      vertex 6.5 2.02464 3
      vertex 7.02531 4.88319 3
    endloop
  endfacet
  facet normal 0 0 1
    outer loop
      vertex 36.6247 5.50076 3
      vertex 36.447 5.80853 3
      vertex 38 2 3
    endloop
  endfacet
  facet normal 0 0 1
    outer loop
      vertex 38.1777 4.80931 3
      vertex 37.8223 4.80931 3
      vertex 38 2.02464 3
    endloop
  endfacet
  facet normal 0 0 1
    outer loop
      vertex 42.4017 7.43559 3
      vertex 42.1109 8.33031 3
      vertex 39.553 7.19145 3
    endloop
  endfacet
  facet normal 0 0 1
    outer loop
      vertex 36.447 5.80853 3
      vertex 8.05302 5.80853 3
      vertex 6.5 2 3
    endloop
  endfacet
  facet normal 0 0 1
    outer loop
      vertex 36.3371 6.14655 3
      vertex 8.05302 5.80853 3
      vertex 36.447 5.80853 3
    endloop
  endfacet
  facet normal 0 -0 1
    outer loop
      vertex 36.6247 7.49922 3
      vertex 38 11 3
      vertex 36.447 7.19145 3
    endloop
  endfacet
  facet normal 0 0 1
    outer loop
      vertex 36.3371 6.14655 3
      vertex 8.16284 6.14655 3
      vertex 8.05302 5.80853 3
    endloop
  endfacet
  facet normal 0 0 1
    outer loop
      vertex 36.3 6.5 3
      vertex 8.2 6.5 3
      vertex 8.16284 6.14655 3
    endloop
  endfacet
  facet normal 0 0 1
    outer loop
      vertex 8.16284 6.85344 3
      vertex 8.2 6.5 3
      vertex 36.3 6.5 3
    endloop
  endfacet
  facet normal -0 0 1
    outer loop
      vertex 8.16284 6.85344 3
      vertex 36.3 6.5 3
      vertex 36.3371 6.85344 3
    endloop
  endfacet
  facet normal 0 -0 1
    outer loop
      vertex 8.16284 6.85344 3
      vertex 36.3371 6.85344 3
      vertex 8.05302 7.19145 3
    endloop
  endfacet
  facet normal 0 -0 1
    outer loop
      vertex 36.3371 6.85344 3
      vertex 36.447 7.19145 3
      vertex 8.05302 7.19145 3
    endloop
  endfacet
  facet normal 0 0 1
    outer loop
      vertex 36.8625 7.76334 3
      vertex 37.15 7.97223 3
      vertex 38 10.9753 3
    endloop
  endfacet
  facet normal 0 0 1
    outer loop
      vertex 38 10.9753 3
      vertex 37.4747 8.11679 3
      vertex 37.8223 8.19067 3
    endloop
  endfacet
  facet normal 0 0 1
    outer loop
      vertex 38.4704 10.9753 3
      vertex 38 10.9753 3
      vertex 38.1777 8.19067 3
    endloop
  endfacet
  facet normal 0 0 1
    outer loop
      vertex 39.3906 10.7797 3
      vertex 38.4704 10.9753 3
      vertex 38.5253 8.11679 3
    endloop
  endfacet
  facet normal 0 0 1
    outer loop
      vertex 40.25 10.3971 3
      vertex 39.3906 10.7797 3
      vertex 38.85 7.97223 3
    endloop
  endfacet
  facet normal 0 0 1
    outer loop
      vertex 41.0111 9.84415 3
      vertex 40.25 10.3971 3
      vertex 39.1375 7.76334 3
    endloop
  endfacet
  facet normal -0 0 1
    outer loop
      vertex 39.1375 7.76334 3
      vertex 39.3753 7.49922 3
      vertex 41.6406 9.14502 3
    endloop
  endfacet
  facet normal 0 0 1
    outer loop
      vertex 41.0111 9.84415 3
      vertex 39.1375 7.76334 3
      vertex 41.6406 9.14502 3
    endloop
  endfacet
  facet normal 0 0 1
    outer loop
      vertex 41.6406 9.14502 3
      vertex 39.553 7.19145 3
      vertex 42.1109 8.33031 3
    endloop
  endfacet
  facet normal 0 0 1
    outer loop
      vertex 41.6406 9.14502 3
      vertex 39.3753 7.49922 3
      vertex 39.553 7.19145 3
    endloop
  endfacet
  facet normal 0 -0 1
    outer loop
      vertex 39.7 6.5 3
      vertex 42.4017 7.43559 3
      vertex 39.6628 6.85344 3
    endloop
  endfacet
  facet normal 0 0 1
    outer loop
      vertex 42.5 6.5 3
      vertex 42.4017 7.43559 3
      vertex 39.7 6.5 3
    endloop
  endfacet
  facet normal 0 0 1
    outer loop
      vertex 42.4017 5.56439 3
      vertex 39.7 6.5 3
      vertex 39.6628 6.14655 3
    endloop
  endfacet
  facet normal 0 0 1
    outer loop
      vertex 42.4017 5.56439 3
      vertex 39.6628 6.14655 3
      vertex 39.553 5.80853 3
    endloop
  endfacet
  facet normal 0 0 1
    outer loop
      vertex 42.4017 5.56439 3
      vertex 39.553 5.80853 3
      vertex 42.1109 4.66968 3
    endloop
  endfacet
  facet normal 0 0 1
    outer loop
      vertex 39.553 5.80853 3
      vertex 39.3753 5.50076 3
      vertex 41.6406 3.85497 3
    endloop
  endfacet
  facet normal 0 0 1
    outer loop
      vertex 41.6406 3.85497 3
      vertex 39.1375 5.23665 3
      vertex 41.0111 3.15584 3
    endloop
  endfacet
  facet normal 0 0 1
    outer loop
      vertex 39.1375 5.23665 3
      vertex 40.25 2.60287 3
      vertex 41.0111 3.15584 3
    endloop
  endfacet
  facet normal 0 0 1
    outer loop
      vertex 38.85 5.02776 3
      vertex 39.3906 2.22025 3
      vertex 40.25 2.60287 3
    endloop
  endfacet
  facet normal -0 0 1
    outer loop
      vertex 38.5253 4.88319 3
      vertex 39.3906 2.22025 3
      vertex 38.85 5.02776 3
    endloop
  endfacet
  facet normal -0 0 1
    outer loop
      vertex 38.1777 4.80931 3
      vertex 38.4704 2.02464 3
      vertex 38.5253 4.88319 3
    endloop
  endfacet
  facet normal 0 -1 0
    outer loop
      vertex 38.4704 2.02464 0
      vertex 38 2.02464 3
      vertex 38 2.02464 0
    endloop
  endfacet
  facet normal 0 -1 0
    outer loop
      vertex 38.4704 2.02464 0
      vertex 38.4704 2.02464 3
      vertex 38 2.02464 3
    endloop
  endfacet
  facet normal 0.20792 -0.978146 0
    outer loop
      vertex 39.3906 2.22025 0
      vertex 38.4704 2.02464 3
      vertex 38.4704 2.02464 0
    endloop
  endfacet
  facet normal 0.20792 -0.978146 0
    outer loop
      vertex 39.3906 2.22025 0
      vertex 39.3906 2.22025 3
      vertex 38.4704 2.02464 3
    endloop
  endfacet
  facet normal 0.406722 -0.913552 0
    outer loop
      vertex 40.25 2.60287 0
      vertex 39.3906 2.22025 3
      vertex 39.3906 2.22025 0
    endloop
  endfacet
  facet normal 0.406722 -0.913552 0
    outer loop
      vertex 40.25 2.60287 0
      vertex 40.25 2.60287 3
      vertex 39.3906 2.22025 3
    endloop
  endfacet
  facet normal 0.587791 -0.809013 0
    outer loop
      vertex 41.0111 3.15584 0
      vertex 40.25 2.60287 3
      vertex 40.25 2.60287 0
    endloop
  endfacet
  facet normal 0.587791 -0.809013 0
    outer loop
      vertex 41.0111 3.15584 0
      vertex 41.0111 3.15584 3
      vertex 40.25 2.60287 3
    endloop
  endfacet
  facet normal 0.743151 -0.669124 0
    outer loop
      vertex 41.6406 3.85497 0
      vertex 41.0111 3.15584 3
      vertex 41.0111 3.15584 0
    endloop
  endfacet
  facet normal 0.743151 -0.669124 0
    outer loop
      vertex 41.6406 3.85497 0
      vertex 41.6406 3.85497 3
      vertex 41.0111 3.15584 3
    endloop
  endfacet
  facet normal 0.866022 -0.500007 0
    outer loop
      vertex 42.1109 4.66968 0
      vertex 41.6406 3.85497 3
      vertex 41.6406 3.85497 0
    endloop
  endfacet
  facet normal 0.866022 -0.500007 0
    outer loop
      vertex 42.1109 4.66968 0
      vertex 42.1109 4.66968 3
      vertex 41.6406 3.85497 3
    endloop
  endfacet
  facet normal 0.951056 -0.309017 0
    outer loop
      vertex 42.4017 5.56439 0
      vertex 42.1109 4.66968 3
      vertex 42.1109 4.66968 0
    endloop
  endfacet
  facet normal 0.951056 -0.309017 0
    outer loop
      vertex 42.4017 5.56439 0
      vertex 42.4017 5.56439 3
      vertex 42.1109 4.66968 3
    endloop
  endfacet
  facet normal 0.994521 -0.104535 0
    outer loop
      vertex 42.5 6.5 0
      vertex 42.4017 5.56439 3
      vertex 42.4017 5.56439 0
    endloop
  endfacet
  facet normal 0.994521 -0.104535 0
    outer loop
      vertex 42.5 6.5 0
      vertex 42.5 6.5 3
      vertex 42.4017 5.56439 3
    endloop
  endfacet
  facet normal 0.994521 0.104537 0
    outer loop
      vertex 42.4017 7.43559 0
      vertex 42.5 6.5 3
      vertex 42.5 6.5 0
    endloop
  endfacet
  facet normal 0.994521 0.104537 -0
    outer loop
      vertex 42.4017 7.43559 0
      vertex 42.4017 7.43559 3
      vertex 42.5 6.5 3
    endloop
  endfacet
  facet normal 0.951056 0.309017 0
    outer loop
      vertex 42.1109 8.33031 0
      vertex 42.4017 7.43559 3
      vertex 42.4017 7.43559 0
    endloop
  endfacet
  facet normal 0.951056 0.309017 -0
    outer loop
      vertex 42.1109 8.33031 0
      vertex 42.1109 8.33031 3
      vertex 42.4017 7.43559 3
    endloop
  endfacet
  facet normal 0.866022 0.500007 0
    outer loop
      vertex 41.6406 9.14502 0
      vertex 42.1109 8.33031 3
      vertex 42.1109 8.33031 0
    endloop
  endfacet
  facet normal 0.866022 0.500007 -0
    outer loop
      vertex 41.6406 9.14502 0
      vertex 41.6406 9.14502 3
      vertex 42.1109 8.33031 3
    endloop
  endfacet
  facet normal 0.743151 0.669124 0
    outer loop
      vertex 41.0111 9.84415 0
      vertex 41.6406 9.14502 3
      vertex 41.6406 9.14502 0
    endloop
  endfacet
  facet normal 0.743151 0.669124 -0
    outer loop
      vertex 41.0111 9.84415 0
      vertex 41.0111 9.84415 3
      vertex 41.6406 9.14502 3
    endloop
  endfacet
  facet normal 0.587791 0.809013 0
    outer loop
      vertex 40.25 10.3971 0
      vertex 41.0111 9.84415 3
      vertex 41.0111 9.84415 0
    endloop
  endfacet
  facet normal 0.587791 0.809013 -0
    outer loop
      vertex 40.25 10.3971 0
      vertex 40.25 10.3971 3
      vertex 41.0111 9.84415 3
    endloop
  endfacet
  facet normal 0.406722 0.913552 0
    outer loop
      vertex 39.3906 10.7797 0
      vertex 40.25 10.3971 3
      vertex 40.25 10.3971 0
    endloop
  endfacet
  facet normal 0.406722 0.913552 -0
    outer loop
      vertex 39.3906 10.7797 0
      vertex 39.3906 10.7797 3
      vertex 40.25 10.3971 3
    endloop
  endfacet
  facet normal 0.20792 0.978146 0
    outer loop
      vertex 38.4704 10.9753 0
      vertex 39.3906 10.7797 3
      vertex 39.3906 10.7797 0
    endloop
  endfacet
  facet normal 0.20792 0.978146 -0
    outer loop
      vertex 38.4704 10.9753 0
      vertex 38.4704 10.9753 3
      vertex 39.3906 10.7797 3
    endloop
  endfacet
  facet normal 0 1 0
    outer loop
      vertex 38 10.9753 0
      vertex 38.4704 10.9753 3
      vertex 38.4704 10.9753 0
    endloop
  endfacet
  facet normal 0 1 0
    outer loop
      vertex 38 10.9753 0
      vertex 38 10.9753 3
      vertex 38.4704 10.9753 3
    endloop
  endfacet
  facet normal 1 0 0
    outer loop
      vertex 38 11 0
      vertex 38 10.9753 3
      vertex 38 10.9753 0
    endloop
  endfacet
  facet normal 1 0 -0
    outer loop
      vertex 38 11 0
      vertex 38 11 3
      vertex 38 10.9753 3
    endloop
  endfacet
  facet normal 0 1 0
    outer loop
      vertex 6.5 11 0
      vertex 38 11 3
      vertex 38 11 0
    endloop
  endfacet
  facet normal 0 1 0
    outer loop
      vertex 6.5 11 0
      vertex 6.5 11 3
      vertex 38 11 3
    endloop
  endfacet
  facet normal -1 0 0
    outer loop
      vertex 6.5 10.9753 0
      vertex 6.5 11 3
      vertex 6.5 11 0
    endloop
  endfacet
  facet normal -1 0 0
    outer loop
      vertex 6.5 10.9753 0
      vertex 6.5 10.9753 3
      vertex 6.5 11 3
    endloop
  endfacet
  facet normal 0 1 0
    outer loop
      vertex 6.02962 10.9753 0
      vertex 6.5 10.9753 3
      vertex 6.5 10.9753 0
    endloop
  endfacet
  facet normal 0 1 0
    outer loop
      vertex 6.02962 10.9753 0
      vertex 6.02962 10.9753 3
      vertex 6.5 10.9753 3
    endloop
  endfacet
  facet normal -0.20792 0.978146 0
    outer loop
      vertex 5.10942 10.7797 0
      vertex 6.02962 10.9753 3
      vertex 6.02962 10.9753 0
    endloop
  endfacet
  facet normal -0.20792 0.978146 0
    outer loop
      vertex 5.10942 10.7797 0
      vertex 5.10942 10.7797 3
      vertex 6.02962 10.9753 3
    endloop
  endfacet
  facet normal -0.406728 0.913549 0
    outer loop
      vertex 4.25 10.3971 0
      vertex 5.10942 10.7797 3
      vertex 5.10942 10.7797 0
    endloop
  endfacet
  facet normal -0.406728 0.913549 0
    outer loop
      vertex 4.25 10.3971 0
      vertex 4.25 10.3971 3
      vertex 5.10942 10.7797 3
    endloop
  endfacet
  facet normal -0.587783 0.809019 0
    outer loop
      vertex 3.48891 9.84415 0
      vertex 4.25 10.3971 3
      vertex 4.25 10.3971 0
    endloop
  endfacet
  facet normal -0.587783 0.809019 0
    outer loop
      vertex 3.48891 9.84415 0
      vertex 3.48891 9.84415 3
      vertex 4.25 10.3971 3
    endloop
  endfacet
  facet normal -0.743151 0.669124 0
    outer loop
      vertex 2.85942 9.14502 0
      vertex 3.48891 9.84415 3
      vertex 3.48891 9.84415 0
    endloop
  endfacet
  facet normal -0.743151 0.669124 0
    outer loop
      vertex 2.85942 9.14502 0
      vertex 2.85942 9.14502 3
      vertex 3.48891 9.84415 3
    endloop
  endfacet
  facet normal -0.866022 0.500007 0
    outer loop
      vertex 2.38904 8.33031 0
      vertex 2.85942 9.14502 3
      vertex 2.85942 9.14502 0
    endloop
  endfacet
  facet normal -0.866022 0.500007 0
    outer loop
      vertex 2.38904 8.33031 0
      vertex 2.38904 8.33031 3
      vertex 2.85942 9.14502 3
    endloop
  endfacet
  facet normal -0.951056 0.309017 0
    outer loop
      vertex 2.09833 7.43559 0
      vertex 2.38904 8.33031 3
      vertex 2.38904 8.33031 0
    endloop
  endfacet
  facet normal -0.951056 0.309017 0
    outer loop
      vertex 2.09833 7.43559 0
      vertex 2.09833 7.43559 3
      vertex 2.38904 8.33031 3
    endloop
  endfacet
  facet normal -0.994523 0.104521 0
    outer loop
      vertex 2 6.5 0
      vertex 2.09833 7.43559 3
      vertex 2.09833 7.43559 0
    endloop
  endfacet
  facet normal -0.994523 0.104521 0
    outer loop
      vertex 2 6.5 0
      vertex 2 6.5 3
      vertex 2.09833 7.43559 3
    endloop
  endfacet
  facet normal -0.994523 -0.104519 0
    outer loop
      vertex 2.09833 5.56439 0
      vertex 2 6.5 3
      vertex 2 6.5 0
    endloop
  endfacet
  facet normal -0.994523 -0.104519 0
    outer loop
      vertex 2.09833 5.56439 0
      vertex 2.09833 5.56439 3
      vertex 2 6.5 3
    endloop
  endfacet
  facet normal -0.951056 -0.309017 0
    outer loop
      vertex 2.38904 4.66968 0
      vertex 2.09833 5.56439 3
      vertex 2.09833 5.56439 0
    endloop
  endfacet
  facet normal -0.951056 -0.309017 0
    outer loop
      vertex 2.38904 4.66968 0
      vertex 2.38904 4.66968 3
      vertex 2.09833 5.56439 3
    endloop
  endfacet
  facet normal -0.866022 -0.500007 0
    outer loop
      vertex 2.85942 3.85497 0
      vertex 2.38904 4.66968 3
      vertex 2.38904 4.66968 0
    endloop
  endfacet
  facet normal -0.866022 -0.500007 0
    outer loop
      vertex 2.85942 3.85497 0
      vertex 2.85942 3.85497 3
      vertex 2.38904 4.66968 3
    endloop
  endfacet
  facet normal -0.743151 -0.669124 0
    outer loop
      vertex 3.48891 3.15584 0
      vertex 2.85942 3.85497 3
      vertex 2.85942 3.85497 0
    endloop
  endfacet
  facet normal -0.743151 -0.669124 0
    outer loop
      vertex 3.48891 3.15584 0
      vertex 3.48891 3.15584 3
      vertex 2.85942 3.85497 3
    endloop
  endfacet
  facet normal -0.587791 -0.809013 0
    outer loop
      vertex 4.24998 2.60287 0
      vertex 3.48891 3.15584 3
      vertex 3.48891 3.15584 0
    endloop
  endfacet
  facet normal -0.587791 -0.809013 0
    outer loop
      vertex 4.24998 2.60287 0
      vertex 4.24998 2.60287 3
      vertex 3.48891 3.15584 3
    endloop
  endfacet
  facet normal -0.406722 -0.913552 0
    outer loop
      vertex 5.10942 2.22025 0
      vertex 4.24998 2.60287 3
      vertex 4.24998 2.60287 0
    endloop
  endfacet
  facet normal -0.406722 -0.913552 0
    outer loop
      vertex 5.10942 2.22025 0
      vertex 5.10942 2.22025 3
      vertex 4.24998 2.60287 3
    endloop
  endfacet
  facet normal -0.20792 -0.978146 0
    outer loop
      vertex 6.02962 2.02464 0
      vertex 5.10942 2.22025 3
      vertex 5.10942 2.22025 0
    endloop
  endfacet
  facet normal -0.20792 -0.978146 0
    outer loop
      vertex 6.02962 2.02464 0
      vertex 6.02962 2.02464 3
      vertex 5.10942 2.22025 3
    endloop
  endfacet
  facet normal 0 -1 0
    outer loop
      vertex 6.5 2.02464 0
      vertex 6.02962 2.02464 3
      vertex 6.02962 2.02464 0
    endloop
  endfacet
  facet normal 0 -1 0
    outer loop
      vertex 6.5 2.02464 0
      vertex 6.5 2.02464 3
      vertex 6.02962 2.02464 3
    endloop
  endfacet
  facet normal -1 0 0
    outer loop
      vertex 6.5 2 0
      vertex 6.5 2.02464 3
      vertex 6.5 2.02464 0
    endloop
  endfacet
  facet normal -1 0 0
    outer loop
      vertex 6.5 2 0
      vertex 6.5 2 3
      vertex 6.5 2.02464 3
    endloop
  endfacet
  facet normal 0 -1 0
    outer loop
      vertex 38 2 0
      vertex 6.5 2 3
      vertex 6.5 2 0
    endloop
  endfacet
  facet normal 0 -1 0
    outer loop
      vertex 38 2 0
      vertex 38 2 3
      vertex 6.5 2 3
    endloop
  endfacet
  facet normal 1 0 0
    outer loop
      vertex 38 2.02464 0
      vertex 38 2 3
      vertex 38 2 0
    endloop
  endfacet
  facet normal 1 0 -0
    outer loop
      vertex 38 2.02464 0
      vertex 38 2.02464 3
      vertex 38 2 3
    endloop
  endfacet
  facet normal 0.207893 0.978152 -0
    outer loop
      vertex 5.97467 4.88319 0
      vertex 5.97467 4.88319 3
      vertex 6.3223 4.80931 0
    endloop
  endfacet
  facet normal 0.207893 0.978152 0
    outer loop
      vertex 6.3223 4.80931 3
      vertex 6.3223 4.80931 0
      vertex 5.97467 4.88319 3
    endloop
  endfacet
  facet normal 0.406752 0.913539 -0
    outer loop
      vertex 5.64999 5.02776 0
      vertex 5.64999 5.02776 3
      vertex 5.97467 4.88319 0
    endloop
  endfacet
  facet normal 0.406752 0.913539 0
    outer loop
      vertex 5.97467 4.88319 3
      vertex 5.97467 4.88319 0
      vertex 5.64999 5.02776 3
    endloop
  endfacet
  facet normal 0.587778 0.809022 -0
    outer loop
      vertex 5.36247 5.23665 0
      vertex 5.36247 5.23665 3
      vertex 5.64999 5.02776 0
    endloop
  endfacet
  facet normal 0.587778 0.809022 0
    outer loop
      vertex 5.64999 5.02776 3
      vertex 5.64999 5.02776 0
      vertex 5.36247 5.23665 3
    endloop
  endfacet
  facet normal 0.743147 0.669128 -0
    outer loop
      vertex 5.12466 5.50076 0
      vertex 5.12466 5.50076 3
      vertex 5.36247 5.23665 0
    endloop
  endfacet
  facet normal 0.743147 0.669128 0
    outer loop
      vertex 5.36247 5.23665 3
      vertex 5.36247 5.23665 0
      vertex 5.12466 5.50076 3
    endloop
  endfacet
  facet normal 0.86601 0.500027 -0
    outer loop
      vertex 4.94696 5.80853 0
      vertex 4.94696 5.80853 3
      vertex 5.12466 5.50076 0
    endloop
  endfacet
  facet normal 0.86601 0.500027 0
    outer loop
      vertex 5.12466 5.50076 3
      vertex 5.12466 5.50076 0
      vertex 4.94696 5.80853 3
    endloop
  endfacet
  facet normal 0.951064 0.308993 -0
    outer loop
      vertex 4.83714 6.14655 0
      vertex 4.83714 6.14655 3
      vertex 4.94696 5.80853 0
    endloop
  endfacet
  facet normal 0.951064 0.308993 0
    outer loop
      vertex 4.94696 5.80853 3
      vertex 4.94696 5.80853 0
      vertex 4.83714 6.14655 3
    endloop
  endfacet
  facet normal 0.99452 0.104544 -0
    outer loop
      vertex 4.79999 6.5 0
      vertex 4.79999 6.5 3
      vertex 4.83714 6.14655 0
    endloop
  endfacet
  facet normal 0.99452 0.104544 0
    outer loop
      vertex 4.83714 6.14655 3
      vertex 4.83714 6.14655 0
      vertex 4.79999 6.5 3
    endloop
  endfacet
  facet normal 0.99452 -0.104548 0
    outer loop
      vertex 4.83714 6.85344 0
      vertex 4.83714 6.85344 3
      vertex 4.79999 6.5 0
    endloop
  endfacet
  facet normal 0.99452 -0.104548 0
    outer loop
      vertex 4.79999 6.5 3
      vertex 4.79999 6.5 0
      vertex 4.83714 6.85344 3
    endloop
  endfacet
  facet normal 0.951064 -0.308993 0
    outer loop
      vertex 4.94696 7.19145 0
      vertex 4.94696 7.19145 3
      vertex 4.83714 6.85344 0
    endloop
  endfacet
  facet normal 0.951064 -0.308993 0
    outer loop
      vertex 4.83714 6.85344 3
      vertex 4.83714 6.85344 0
      vertex 4.94696 7.19145 3
    endloop
  endfacet
  facet normal 0.86601 -0.500027 0
    outer loop
      vertex 5.12466 7.49922 0
      vertex 5.12466 7.49922 3
      vertex 4.94696 7.19145 0
    endloop
  endfacet
  facet normal 0.86601 -0.500027 0
    outer loop
      vertex 4.94696 7.19145 3
      vertex 4.94696 7.19145 0
      vertex 5.12466 7.49922 3
    endloop
  endfacet
  facet normal 0.743147 -0.669128 0
    outer loop
      vertex 5.36247 7.76334 0
      vertex 5.36247 7.76334 3
      vertex 5.12466 7.49922 0
    endloop
  endfacet
  facet normal 0.743147 -0.669128 0
    outer loop
      vertex 5.12466 7.49922 3
      vertex 5.12466 7.49922 0
      vertex 5.36247 7.76334 3
    endloop
  endfacet
  facet normal 0.587778 -0.809022 0
    outer loop
      vertex 5.64999 7.97223 0
      vertex 5.64999 7.97223 3
      vertex 5.36247 7.76334 0
    endloop
  endfacet
  facet normal 0.587778 -0.809022 0
    outer loop
      vertex 5.36247 7.76334 3
      vertex 5.36247 7.76334 0
      vertex 5.64999 7.97223 3
    endloop
  endfacet
  facet normal 0.406752 -0.913539 0
    outer loop
      vertex 5.97467 8.11679 0
      vertex 5.97467 8.11679 3
      vertex 5.64999 7.97223 0
    endloop
  endfacet
  facet normal 0.406752 -0.913539 0
    outer loop
      vertex 5.64999 7.97223 3
      vertex 5.64999 7.97223 0
      vertex 5.97467 8.11679 3
    endloop
  endfacet
  facet normal 0.207893 -0.978152 0
    outer loop
      vertex 6.3223 8.19067 0
      vertex 6.3223 8.19067 3
      vertex 5.97467 8.11679 0
    endloop
  endfacet
  facet normal 0.207893 -0.978152 0
    outer loop
      vertex 5.97467 8.11679 3
      vertex 5.97467 8.11679 0
      vertex 6.3223 8.19067 3
    endloop
  endfacet
  facet normal 0 -1 0
    outer loop
      vertex 6.67769 8.19067 0
      vertex 6.67769 8.19067 3
      vertex 6.3223 8.19067 0
    endloop
  endfacet
  facet normal 0 -1 0
    outer loop
      vertex 6.3223 8.19067 3
      vertex 6.3223 8.19067 0
      vertex 6.67769 8.19067 3
    endloop
  endfacet
  facet normal -0.207893 -0.978152 0
    outer loop
      vertex 7.02531 8.11679 0
      vertex 7.02531 8.11679 3
      vertex 6.67769 8.19067 0
    endloop
  endfacet
  facet normal -0.207893 -0.978152 -0
    outer loop
      vertex 6.67769 8.19067 3
      vertex 6.67769 8.19067 0
      vertex 7.02531 8.11679 3
    endloop
  endfacet
  facet normal -0.406752 -0.913539 0
    outer loop
      vertex 7.34999 7.97223 0
      vertex 7.34999 7.97223 3
      vertex 7.02531 8.11679 0
    endloop
  endfacet
  facet normal -0.406752 -0.913539 -0
    outer loop
      vertex 7.02531 8.11679 3
      vertex 7.02531 8.11679 0
      vertex 7.34999 7.97223 3
    endloop
  endfacet
  facet normal -0.587778 -0.809022 0
    outer loop
      vertex 7.63751 7.76334 0
      vertex 7.63751 7.76334 3
      vertex 7.34999 7.97223 0
    endloop
  endfacet
  facet normal -0.587778 -0.809022 -0
    outer loop
      vertex 7.34999 7.97223 3
      vertex 7.34999 7.97223 0
      vertex 7.63751 7.76334 3
    endloop
  endfacet
  facet normal -0.743147 -0.669128 0
    outer loop
      vertex 7.87532 7.49922 0
      vertex 7.87532 7.49922 3
      vertex 7.63751 7.76334 0
    endloop
  endfacet
  facet normal -0.743147 -0.669128 -0
    outer loop
      vertex 7.63751 7.76334 3
      vertex 7.63751 7.76334 0
      vertex 7.87532 7.49922 3
    endloop
  endfacet
  facet normal -0.86601 -0.500027 0
    outer loop
      vertex 8.05302 7.19145 0
      vertex 8.05302 7.19145 3
      vertex 7.87532 7.49922 0
    endloop
  endfacet
  facet normal -0.86601 -0.500027 -0
    outer loop
      vertex 7.87532 7.49922 3
      vertex 7.87532 7.49922 0
      vertex 8.05302 7.19145 3
    endloop
  endfacet
  facet normal -0.951064 -0.308993 0
    outer loop
      vertex 8.16284 6.85344 0
      vertex 8.16284 6.85344 3
      vertex 8.05302 7.19145 0
    endloop
  endfacet
  facet normal -0.951064 -0.308993 -0
    outer loop
      vertex 8.05302 7.19145 3
      vertex 8.05302 7.19145 0
      vertex 8.16284 6.85344 3
    endloop
  endfacet
  facet normal -0.99452 -0.104548 0
    outer loop
      vertex 8.2 6.5 0
      vertex 8.2 6.5 3
      vertex 8.16284 6.85344 0
    endloop
  endfacet
  facet normal -0.99452 -0.104548 -0
    outer loop
      vertex 8.16284 6.85344 3
      vertex 8.16284 6.85344 0
      vertex 8.2 6.5 3
    endloop
  endfacet
  facet normal -0.99452 0.104544 0
    outer loop
      vertex 8.16284 6.14655 0
      vertex 8.16284 6.14655 3
      vertex 8.2 6.5 0
    endloop
  endfacet
  facet normal -0.99452 0.104544 0
    outer loop
      vertex 8.2 6.5 3
      vertex 8.2 6.5 0
      vertex 8.16284 6.14655 3
    endloop
  endfacet
  facet normal -0.951064 0.308993 0
    outer loop
      vertex 8.05302 5.80853 0
      vertex 8.05302 5.80853 3
      vertex 8.16284 6.14655 0
    endloop
  endfacet
  facet normal -0.951064 0.308993 0
    outer loop
      vertex 8.16284 6.14655 3
      vertex 8.16284 6.14655 0
      vertex 8.05302 5.80853 3
    endloop
  endfacet
  facet normal -0.86601 0.500027 0
    outer loop
      vertex 7.87532 5.50076 0
      vertex 7.87532 5.50076 3
      vertex 8.05302 5.80853 0
    endloop
  endfacet
  facet normal -0.86601 0.500027 0
    outer loop
      vertex 8.05302 5.80853 3
      vertex 8.05302 5.80853 0
      vertex 7.87532 5.50076 3
    endloop
  endfacet
  facet normal -0.743147 0.669128 0
    outer loop
      vertex 7.63751 5.23665 0
      vertex 7.63751 5.23665 3
      vertex 7.87532 5.50076 0
    endloop
  endfacet
  facet normal -0.743147 0.669128 0
    outer loop
      vertex 7.87532 5.50076 3
      vertex 7.87532 5.50076 0
      vertex 7.63751 5.23665 3
    endloop
  endfacet
  facet normal -0.587778 0.809022 0
    outer loop
      vertex 7.34999 5.02776 0
      vertex 7.34999 5.02776 3
      vertex 7.63751 5.23665 0
    endloop
  endfacet
  facet normal -0.587778 0.809022 0
    outer loop
      vertex 7.63751 5.23665 3
      vertex 7.63751 5.23665 0
      vertex 7.34999 5.02776 3
    endloop
  endfacet
  facet normal -0.406752 0.913539 0
    outer loop
      vertex 7.02531 4.88319 0
      vertex 7.02531 4.88319 3
      vertex 7.34999 5.02776 0
    endloop
  endfacet
  facet normal -0.406752 0.913539 0
    outer loop
      vertex 7.34999 5.02776 3
      vertex 7.34999 5.02776 0
      vertex 7.02531 4.88319 3
    endloop
  endfacet
  facet normal -0.207893 0.978152 0
    outer loop
      vertex 6.67769 4.80931 0
      vertex 6.67769 4.80931 3
      vertex 7.02531 4.88319 0
    endloop
  endfacet
  facet normal -0.207893 0.978152 0
    outer loop
      vertex 7.02531 4.88319 3
      vertex 7.02531 4.88319 0
      vertex 6.67769 4.80931 3
    endloop
  endfacet
  facet normal 0 1 0
    outer loop
      vertex 6.3223 4.80931 0
      vertex 6.3223 4.80931 3
      vertex 6.67769 4.80931 0
    endloop
  endfacet
  facet normal 0 1 0
    outer loop
      vertex 6.67769 4.80931 3
      vertex 6.67769 4.80931 0
      vertex 6.3223 4.80931 3
    endloop
  endfacet
  facet normal 0.207893 0.978152 -0
    outer loop
      vertex 37.4747 4.88319 0
      vertex 37.4747 4.88319 3
      vertex 37.8223 4.80931 0
    endloop
  endfacet
  facet normal 0.207893 0.978152 0
    outer loop
      vertex 37.8223 4.80931 3
      vertex 37.8223 4.80931 0
      vertex 37.4747 4.88319 3
    endloop
  endfacet
  facet normal 0.406752 0.913539 -0
    outer loop
      vertex 37.15 5.02776 0
      vertex 37.15 5.02776 3
      vertex 37.4747 4.88319 0
    endloop
  endfacet
  facet normal 0.406752 0.913539 0
    outer loop
      vertex 37.4747 4.88319 3
      vertex 37.4747 4.88319 0
      vertex 37.15 5.02776 3
    endloop
  endfacet
  facet normal 0.587778 0.809022 -0
    outer loop
      vertex 36.8625 5.23665 0
      vertex 36.8625 5.23665 3
      vertex 37.15 5.02776 0
    endloop
  endfacet
  facet normal 0.587778 0.809022 0
    outer loop
      vertex 37.15 5.02776 3
      vertex 37.15 5.02776 0
      vertex 36.8625 5.23665 3
    endloop
  endfacet
  facet normal 0.743147 0.669128 -0
    outer loop
      vertex 36.6247 5.50076 0
      vertex 36.6247 5.50076 3
      vertex 36.8625 5.23665 0
    endloop
  endfacet
  facet normal 0.743147 0.669128 0
    outer loop
      vertex 36.8625 5.23665 3
      vertex 36.8625 5.23665 0
      vertex 36.6247 5.50076 3
    endloop
  endfacet
  facet normal 0.86601 0.500027 -0
    outer loop
      vertex 36.447 5.80853 0
      vertex 36.447 5.80853 3
      vertex 36.6247 5.50076 0
    endloop
  endfacet
  facet normal 0.86601 0.500027 0
    outer loop
      vertex 36.6247 5.50076 3
      vertex 36.6247 5.50076 0
      vertex 36.447 5.80853 3
    endloop
  endfacet
  facet normal 0.951064 0.308993 -0
    outer loop
      vertex 36.3371 6.14655 0
      vertex 36.3371 6.14655 3
      vertex 36.447 5.80853 0
    endloop
  endfacet
  facet normal 0.951064 0.308993 0
    outer loop
      vertex 36.447 5.80853 3
      vertex 36.447 5.80853 0
      vertex 36.3371 6.14655 3
    endloop
  endfacet
  facet normal 0.99452 0.104544 -0
    outer loop
      vertex 36.3 6.5 0
      vertex 36.3 6.5 3
      vertex 36.3371 6.14655 0
    endloop
  endfacet
  facet normal 0.99452 0.104544 0
    outer loop
      vertex 36.3371 6.14655 3
      vertex 36.3371 6.14655 0
      vertex 36.3 6.5 3
    endloop
  endfacet
  facet normal 0.99452 -0.104548 0
    outer loop
      vertex 36.3371 6.85344 0
      vertex 36.3371 6.85344 3
      vertex 36.3 6.5 0
    endloop
  endfacet
  facet normal 0.99452 -0.104548 0
    outer loop
      vertex 36.3 6.5 3
      vertex 36.3 6.5 0
      vertex 36.3371 6.85344 3
    endloop
  endfacet
  facet normal 0.951064 -0.308993 0
    outer loop
      vertex 36.447 7.19145 0
      vertex 36.447 7.19145 3
      vertex 36.3371 6.85344 0
    endloop
  endfacet
  facet normal 0.951064 -0.308993 0
    outer loop
      vertex 36.3371 6.85344 3
      vertex 36.3371 6.85344 0
      vertex 36.447 7.19145 3
    endloop
  endfacet
  facet normal 0.86601 -0.500027 0
    outer loop
      vertex 36.6247 7.49922 0
      vertex 36.6247 7.49922 3
      vertex 36.447 7.19145 0
    endloop
  endfacet
  facet normal 0.86601 -0.500027 0
    outer loop
      vertex 36.447 7.19145 3
      vertex 36.447 7.19145 0
      vertex 36.6247 7.49922 3
    endloop
  endfacet
  facet normal 0.743147 -0.669128 0
    outer loop
      vertex 36.8625 7.76334 0
      vertex 36.8625 7.76334 3
      vertex 36.6247 7.49922 0
    endloop
  endfacet
  facet normal 0.743147 -0.669128 0
    outer loop
      vertex 36.6247 7.49922 3
      vertex 36.6247 7.49922 0
      vertex 36.8625 7.76334 3
    endloop
  endfacet
  facet normal 0.587778 -0.809022 0
    outer loop
      vertex 37.15 7.97223 0
      vertex 37.15 7.97223 3
      vertex 36.8625 7.76334 0
    endloop
  endfacet
  facet normal 0.587778 -0.809022 0
    outer loop
      vertex 36.8625 7.76334 3
      vertex 36.8625 7.76334 0
      vertex 37.15 7.97223 3
    endloop
  endfacet
  facet normal 0.406752 -0.913539 0
    outer loop
      vertex 37.4747 8.11679 0
      vertex 37.4747 8.11679 3
      vertex 37.15 7.97223 0
    endloop
  endfacet
  facet normal 0.406752 -0.913539 0
    outer loop
      vertex 37.15 7.97223 3
      vertex 37.15 7.97223 0
      vertex 37.4747 8.11679 3
    endloop
  endfacet
  facet normal 0.207893 -0.978152 0
    outer loop
      vertex 37.8223 8.19067 0
      vertex 37.8223 8.19067 3
      vertex 37.4747 8.11679 0
    endloop
  endfacet
  facet normal 0.207893 -0.978152 0
    outer loop
      vertex 37.4747 8.11679 3
      vertex 37.4747 8.11679 0
      vertex 37.8223 8.19067 3
    endloop
  endfacet
  facet normal 0 -1 0
    outer loop
      vertex 38.1777 8.19067 0
      vertex 38.1777 8.19067 3
      vertex 37.8223 8.19067 0
    endloop
  endfacet
  facet normal 0 -1 0
    outer loop
      vertex 37.8223 8.19067 3
      vertex 37.8223 8.19067 0
      vertex 38.1777 8.19067 3
    endloop
  endfacet
  facet normal -0.207893 -0.978152 0
    outer loop
      vertex 38.5253 8.11679 0
      vertex 38.5253 8.11679 3
      vertex 38.1777 8.19067 0
    endloop
  endfacet
  facet normal -0.207893 -0.978152 -0
    outer loop
      vertex 38.1777 8.19067 3
      vertex 38.1777 8.19067 0
      vertex 38.5253 8.11679 3
    endloop
  endfacet
  facet normal -0.406752 -0.913539 0
    outer loop
      vertex 38.85 7.97223 0
      vertex 38.85 7.97223 3
      vertex 38.5253 8.11679 0
    endloop
  endfacet
  facet normal -0.406752 -0.913539 -0
    outer loop
      vertex 38.5253 8.11679 3
      vertex 38.5253 8.11679 0
      vertex 38.85 7.97223 3
    endloop
  endfacet
  facet normal -0.587778 -0.809022 0
    outer loop
      vertex 39.1375 7.76334 0
      vertex 39.1375 7.76334 3
      vertex 38.85 7.97223 0
    endloop
  endfacet
  facet normal -0.587778 -0.809022 -0
    outer loop
      vertex 38.85 7.97223 3
      vertex 38.85 7.97223 0
      vertex 39.1375 7.76334 3
    endloop
  endfacet
  facet normal -0.743147 -0.669128 0
    outer loop
      vertex 39.3753 7.49922 0
      vertex 39.3753 7.49922 3
      vertex 39.1375 7.76334 0
    endloop
  endfacet
  facet normal -0.743147 -0.669128 -0
    outer loop
      vertex 39.1375 7.76334 3
      vertex 39.1375 7.76334 0
      vertex 39.3753 7.49922 3
    endloop
  endfacet
  facet normal -0.86601 -0.500027 0
    outer loop
      vertex 39.553 7.19145 0
      vertex 39.553 7.19145 3
      vertex 39.3753 7.49922 0
    endloop
  endfacet
  facet normal -0.86601 -0.500027 -0
    outer loop
      vertex 39.3753 7.49922 3
      vertex 39.3753 7.49922 0
      vertex 39.553 7.19145 3
    endloop
  endfacet
  facet normal -0.951064 -0.308993 0
    outer loop
      vertex 39.6628 6.85344 0
      vertex 39.6628 6.85344 3
      vertex 39.553 7.19145 0
    endloop
  endfacet
  facet normal -0.951064 -0.308993 -0
    outer loop
      vertex 39.553 7.19145 3
      vertex 39.553 7.19145 0
      vertex 39.6628 6.85344 3
    endloop
  endfacet
  facet normal -0.99452 -0.104548 0
    outer loop
      vertex 39.7 6.5 0
      vertex 39.7 6.5 3
      vertex 39.6628 6.85344 0
    endloop
  endfacet
  facet normal -0.99452 -0.104548 -0
    outer loop
      vertex 39.6628 6.85344 3
      vertex 39.6628 6.85344 0
      vertex 39.7 6.5 3
    endloop
  endfacet
  facet normal -0.99452 0.104544 0
    outer loop
      vertex 39.6628 6.14655 0
      vertex 39.6628 6.14655 3
      vertex 39.7 6.5 0
    endloop
  endfacet
  facet normal -0.99452 0.104544 0
    outer loop
      vertex 39.7 6.5 3
      vertex 39.7 6.5 0
      vertex 39.6628 6.14655 3
    endloop
  endfacet
  facet normal -0.951064 0.308993 0
    outer loop
      vertex 39.553 5.80853 0
      vertex 39.553 5.80853 3
      vertex 39.6628 6.14655 0
    endloop
  endfacet
  facet normal -0.951064 0.308993 0
    outer loop
      vertex 39.6628 6.14655 3
      vertex 39.6628 6.14655 0
      vertex 39.553 5.80853 3
    endloop
  endfacet
  facet normal -0.86601 0.500027 0
    outer loop
      vertex 39.3753 5.50076 0
      vertex 39.3753 5.50076 3
      vertex 39.553 5.80853 0
    endloop
  endfacet
  facet normal -0.86601 0.500027 0
    outer loop
      vertex 39.553 5.80853 3
      vertex 39.553 5.80853 0
      vertex 39.3753 5.50076 3
    endloop
  endfacet
  facet normal -0.743147 0.669128 0
    outer loop
      vertex 39.1375 5.23665 0
      vertex 39.1375 5.23665 3
      vertex 39.3753 5.50076 0
    endloop
  endfacet
  facet normal -0.743147 0.669128 0
    outer loop
      vertex 39.3753 5.50076 3
      vertex 39.3753 5.50076 0
      vertex 39.1375 5.23665 3
    endloop
  endfacet
  facet normal -0.587778 0.809022 0
    outer loop
      vertex 38.85 5.02776 0
      vertex 38.85 5.02776 3
      vertex 39.1375 5.23665 0
    endloop
  endfacet
  facet normal -0.587778 0.809022 0
    outer loop
      vertex 39.1375 5.23665 3
      vertex 39.1375 5.23665 0
      vertex 38.85 5.02776 3
    endloop
  endfacet
  facet normal -0.406752 0.913539 0
    outer loop
      vertex 38.5253 4.88319 0
      vertex 38.5253 4.88319 3
      vertex 38.85 5.02776 0
    endloop
  endfacet
  facet normal -0.406752 0.913539 0
    outer loop
      vertex 38.85 5.02776 3
      vertex 38.85 5.02776 0
      vertex 38.5253 4.88319 3
    endloop
  endfacet
  facet normal -0.207893 0.978152 0
    outer loop
      vertex 38.1777 4.80931 0
      vertex 38.1777 4.80931 3
      vertex 38.5253 4.88319 0
    endloop
  endfacet
  facet normal -0.207893 0.978152 0
    outer loop
      vertex 38.5253 4.88319 3
      vertex 38.5253 4.88319 0
      vertex 38.1777 4.80931 3
    endloop
  endfacet
  facet normal 0 1 0
    outer loop
      vertex 37.8223 4.80931 0
      vertex 37.8223 4.80931 3
      vertex 38.1777 4.80931 0
    endloop
  endfacet
  facet normal 0 1 0
    outer loop
      vertex 38.1777 4.80931 3
      vertex 38.1777 4.80931 0
      vertex 37.8223 4.80931 3
    endloop
  endfacet
endsolid OpenSCAD_Model
