ISO-10303-21;
HEADER;
/* Generated by software containing ST-Developer
 * from STEP Tools, Inc. (www.steptools.com) 
 */

FILE_DESCRIPTION(
/* description */ (''),
/* implementation_level */ '2;1');

FILE_NAME(
/* name */ 
'C:\\Users\\bruno\\Dropbox\\RepRap\\BFPTouch\\Step\\BFPTouch_Flag.stp',

/* time_stamp */ '2018-07-03T22:39:36-03:00',
/* author */ ('bruno'),
/* organization */ (''),
/* preprocessor_version */ 'ST-DEVELOPER v17',
/* originating_system */ 'Autodesk Inventor 2018',
/* authorisation */ '');

FILE_SCHEMA (('AUTOMOTIVE_DESIGN { 1 0 10303 214 3 1 1 }'));
ENDSEC;

DATA;
#10=MECHANICAL_DESIGN_GEOMETRIC_PRESENTATION_REPRESENTATION('',(#13),#731);
#11=SHAPE_REPRESENTATION_RELATIONSHIP('SRR','None',#738,#12);
#12=ADVANCED_BREP_SHAPE_REPRESENTATION('',(#14),#730);
#13=STYLED_ITEM('',(#747),#14);
#14=MANIFOLD_SOLID_BREP('S\X\F3lido1',#445);
#15=FACE_BOUND('',#57,.T.);
#16=CIRCLE('',#473,1.25);
#17=CIRCLE('',#474,1.25);
#18=CIRCLE('',#475,1.25);
#19=CIRCLE('',#476,1.25);
#20=CYLINDRICAL_SURFACE('',#472,1.25);
#21=FACE_OUTER_BOUND('',#44,.T.);
#22=FACE_OUTER_BOUND('',#45,.T.);
#23=FACE_OUTER_BOUND('',#46,.T.);
#24=FACE_OUTER_BOUND('',#47,.T.);
#25=FACE_OUTER_BOUND('',#48,.T.);
#26=FACE_OUTER_BOUND('',#49,.T.);
#27=FACE_OUTER_BOUND('',#50,.T.);
#28=FACE_OUTER_BOUND('',#51,.T.);
#29=FACE_OUTER_BOUND('',#52,.T.);
#30=FACE_OUTER_BOUND('',#53,.T.);
#31=FACE_OUTER_BOUND('',#54,.T.);
#32=FACE_OUTER_BOUND('',#55,.T.);
#33=FACE_OUTER_BOUND('',#56,.T.);
#34=FACE_OUTER_BOUND('',#58,.T.);
#35=FACE_OUTER_BOUND('',#59,.T.);
#36=FACE_OUTER_BOUND('',#60,.T.);
#37=FACE_OUTER_BOUND('',#61,.T.);
#38=FACE_OUTER_BOUND('',#62,.T.);
#39=FACE_OUTER_BOUND('',#63,.T.);
#40=FACE_OUTER_BOUND('',#64,.T.);
#41=FACE_OUTER_BOUND('',#65,.T.);
#42=FACE_OUTER_BOUND('',#66,.T.);
#43=FACE_OUTER_BOUND('',#67,.T.);
#44=EDGE_LOOP('',(#280,#281,#282,#283));
#45=EDGE_LOOP('',(#284,#285,#286,#287,#288,#289,#290,#291));
#46=EDGE_LOOP('',(#292,#293,#294,#295,#296,#297,#298,#299));
#47=EDGE_LOOP('',(#300,#301,#302,#303));
#48=EDGE_LOOP('',(#304,#305,#306,#307));
#49=EDGE_LOOP('',(#308,#309,#310,#311));
#50=EDGE_LOOP('',(#312,#313,#314,#315));
#51=EDGE_LOOP('',(#316,#317,#318,#319,#320,#321));
#52=EDGE_LOOP('',(#322,#323));
#53=EDGE_LOOP('',(#324,#325,#326,#327));
#54=EDGE_LOOP('',(#328,#329,#330,#331,#332));
#55=EDGE_LOOP('',(#333,#334,#335,#336,#337));
#56=EDGE_LOOP('',(#338,#339,#340,#341,#342,#343,#344,#345,#346,#347,#348));
#57=EDGE_LOOP('',(#349,#350));
#58=EDGE_LOOP('',(#351,#352,#353,#354,#355));
#59=EDGE_LOOP('',(#356,#357,#358,#359,#360));
#60=EDGE_LOOP('',(#361,#362,#363,#364));
#61=EDGE_LOOP('',(#365,#366,#367,#368,#369,#370));
#62=EDGE_LOOP('',(#371,#372,#373,#374,#375));
#63=EDGE_LOOP('',(#376,#377,#378,#379,#380));
#64=EDGE_LOOP('',(#381,#382,#383,#384,#385,#386,#387));
#65=EDGE_LOOP('',(#388,#389,#390,#391));
#66=EDGE_LOOP('',(#392,#393,#394,#395));
#67=EDGE_LOOP('',(#396,#397,#398,#399));
#68=LINE('',#608,#124);
#69=LINE('',#610,#125);
#70=LINE('',#612,#126);
#71=LINE('',#613,#127);
#72=LINE('',#616,#128);
#73=LINE('',#618,#129);
#74=LINE('',#620,#130);
#75=LINE('',#622,#131);
#76=LINE('',#624,#132);
#77=LINE('',#626,#133);
#78=LINE('',#627,#134);
#79=LINE('',#630,#135);
#80=LINE('',#632,#136);
#81=LINE('',#634,#137);
#82=LINE('',#636,#138);
#83=LINE('',#638,#139);
#84=LINE('',#639,#140);
#85=LINE('',#642,#141);
#86=LINE('',#644,#142);
#87=LINE('',#645,#143);
#88=LINE('',#648,#144);
#89=LINE('',#649,#145);
#90=LINE('',#652,#146);
#91=LINE('',#653,#147);
#92=LINE('',#656,#148);
#93=LINE('',#657,#149);
#94=LINE('',#664,#150);
#95=LINE('',#671,#151);
#96=LINE('',#673,#152);
#97=LINE('',#674,#153);
#98=LINE('',#677,#154);
#99=LINE('',#679,#155);
#100=LINE('',#680,#156);
#101=LINE('',#683,#157);
#102=LINE('',#684,#158);
#103=LINE('',#687,#159);
#104=LINE('',#689,#160);
#105=LINE('',#691,#161);
#106=LINE('',#693,#162);
#107=LINE('',#695,#163);
#108=LINE('',#697,#164);
#109=LINE('',#698,#165);
#110=LINE('',#701,#166);
#111=LINE('',#702,#167);
#112=LINE('',#703,#168);
#113=LINE('',#706,#169);
#114=LINE('',#708,#170);
#115=LINE('',#709,#171);
#116=LINE('',#712,#172);
#117=LINE('',#713,#173);
#118=LINE('',#716,#174);
#119=LINE('',#717,#175);
#120=LINE('',#719,#176);
#121=LINE('',#720,#177);
#122=LINE('',#723,#178);
#123=LINE('',#726,#179);
#124=VECTOR('',#496,10.);
#125=VECTOR('',#497,10.);
#126=VECTOR('',#498,10.);
#127=VECTOR('',#499,10.);
#128=VECTOR('',#502,10.);
#129=VECTOR('',#503,10.);
#130=VECTOR('',#504,10.);
#131=VECTOR('',#505,10.);
#132=VECTOR('',#506,10.);
#133=VECTOR('',#507,10.);
#134=VECTOR('',#508,10.);
#135=VECTOR('',#511,10.);
#136=VECTOR('',#512,10.);
#137=VECTOR('',#513,10.);
#138=VECTOR('',#514,10.);
#139=VECTOR('',#515,10.);
#140=VECTOR('',#516,10.);
#141=VECTOR('',#519,10.);
#142=VECTOR('',#520,10.);
#143=VECTOR('',#521,10.);
#144=VECTOR('',#524,10.);
#145=VECTOR('',#525,10.);
#146=VECTOR('',#528,10.);
#147=VECTOR('',#529,10.);
#148=VECTOR('',#532,10.);
#149=VECTOR('',#533,10.);
#150=VECTOR('',#540,1.25);
#151=VECTOR('',#549,10.);
#152=VECTOR('',#550,10.);
#153=VECTOR('',#551,10.);
#154=VECTOR('',#554,10.);
#155=VECTOR('',#555,10.);
#156=VECTOR('',#556,10.);
#157=VECTOR('',#559,10.);
#158=VECTOR('',#560,10.);
#159=VECTOR('',#563,10.);
#160=VECTOR('',#564,10.);
#161=VECTOR('',#565,10.);
#162=VECTOR('',#566,10.);
#163=VECTOR('',#567,10.);
#164=VECTOR('',#568,10.);
#165=VECTOR('',#569,10.);
#166=VECTOR('',#572,10.);
#167=VECTOR('',#573,10.);
#168=VECTOR('',#574,10.);
#169=VECTOR('',#577,10.);
#170=VECTOR('',#578,10.);
#171=VECTOR('',#579,10.);
#172=VECTOR('',#582,10.);
#173=VECTOR('',#583,10.);
#174=VECTOR('',#586,10.);
#175=VECTOR('',#587,10.);
#176=VECTOR('',#590,10.);
#177=VECTOR('',#591,10.);
#178=VECTOR('',#596,10.);
#179=VECTOR('',#601,10.);
#180=VERTEX_POINT('',#606);
#181=VERTEX_POINT('',#607);
#182=VERTEX_POINT('',#609);
#183=VERTEX_POINT('',#611);
#184=VERTEX_POINT('',#615);
#185=VERTEX_POINT('',#617);
#186=VERTEX_POINT('',#619);
#187=VERTEX_POINT('',#621);
#188=VERTEX_POINT('',#623);
#189=VERTEX_POINT('',#625);
#190=VERTEX_POINT('',#629);
#191=VERTEX_POINT('',#631);
#192=VERTEX_POINT('',#633);
#193=VERTEX_POINT('',#635);
#194=VERTEX_POINT('',#637);
#195=VERTEX_POINT('',#641);
#196=VERTEX_POINT('',#643);
#197=VERTEX_POINT('',#647);
#198=VERTEX_POINT('',#651);
#199=VERTEX_POINT('',#655);
#200=VERTEX_POINT('',#659);
#201=VERTEX_POINT('',#660);
#202=VERTEX_POINT('',#663);
#203=VERTEX_POINT('',#665);
#204=VERTEX_POINT('',#670);
#205=VERTEX_POINT('',#672);
#206=VERTEX_POINT('',#676);
#207=VERTEX_POINT('',#678);
#208=VERTEX_POINT('',#682);
#209=VERTEX_POINT('',#686);
#210=VERTEX_POINT('',#688);
#211=VERTEX_POINT('',#690);
#212=VERTEX_POINT('',#692);
#213=VERTEX_POINT('',#694);
#214=VERTEX_POINT('',#696);
#215=VERTEX_POINT('',#700);
#216=VERTEX_POINT('',#705);
#217=VERTEX_POINT('',#707);
#218=VERTEX_POINT('',#711);
#219=VERTEX_POINT('',#715);
#220=EDGE_CURVE('',#180,#181,#68,.T.);
#221=EDGE_CURVE('',#181,#182,#69,.T.);
#222=EDGE_CURVE('',#182,#183,#70,.F.);
#223=EDGE_CURVE('',#183,#180,#71,.T.);
#224=EDGE_CURVE('',#182,#184,#72,.T.);
#225=EDGE_CURVE('',#185,#181,#73,.T.);
#226=EDGE_CURVE('',#186,#185,#74,.T.);
#227=EDGE_CURVE('',#187,#186,#75,.T.);
#228=EDGE_CURVE('',#188,#187,#76,.T.);
#229=EDGE_CURVE('',#189,#188,#77,.T.);
#230=EDGE_CURVE('',#184,#189,#78,.T.);
#231=EDGE_CURVE('',#180,#190,#79,.T.);
#232=EDGE_CURVE('',#191,#190,#80,.T.);
#233=EDGE_CURVE('',#191,#192,#81,.T.);
#234=EDGE_CURVE('',#193,#192,#82,.T.);
#235=EDGE_CURVE('',#193,#194,#83,.T.);
#236=EDGE_CURVE('',#185,#194,#84,.T.);
#237=EDGE_CURVE('',#190,#195,#85,.T.);
#238=EDGE_CURVE('',#195,#196,#86,.F.);
#239=EDGE_CURVE('',#196,#191,#87,.T.);
#240=EDGE_CURVE('',#197,#196,#88,.T.);
#241=EDGE_CURVE('',#192,#197,#89,.T.);
#242=EDGE_CURVE('',#197,#198,#90,.F.);
#243=EDGE_CURVE('',#198,#193,#91,.T.);
#244=EDGE_CURVE('',#194,#199,#92,.T.);
#245=EDGE_CURVE('',#199,#186,#93,.T.);
#246=EDGE_CURVE('',#200,#201,#16,.T.);
#247=EDGE_CURVE('',#201,#200,#17,.T.);
#248=EDGE_CURVE('',#201,#202,#94,.T.);
#249=EDGE_CURVE('',#203,#202,#18,.T.);
#250=EDGE_CURVE('',#202,#203,#19,.T.);
#251=EDGE_CURVE('',#204,#188,#95,.T.);
#252=EDGE_CURVE('',#204,#205,#96,.T.);
#253=EDGE_CURVE('',#189,#205,#97,.T.);
#254=EDGE_CURVE('',#187,#206,#98,.T.);
#255=EDGE_CURVE('',#206,#207,#99,.T.);
#256=EDGE_CURVE('',#207,#204,#100,.T.);
#257=EDGE_CURVE('',#208,#199,#101,.T.);
#258=EDGE_CURVE('',#208,#206,#102,.T.);
#259=EDGE_CURVE('',#198,#209,#103,.T.);
#260=EDGE_CURVE('',#209,#210,#104,.T.);
#261=EDGE_CURVE('',#210,#211,#105,.T.);
#262=EDGE_CURVE('',#211,#212,#106,.T.);
#263=EDGE_CURVE('',#212,#213,#107,.T.);
#264=EDGE_CURVE('',#213,#214,#108,.T.);
#265=EDGE_CURVE('',#214,#208,#109,.T.);
#266=EDGE_CURVE('',#215,#212,#110,.T.);
#267=EDGE_CURVE('',#215,#205,#111,.T.);
#268=EDGE_CURVE('',#213,#204,#112,.T.);
#269=EDGE_CURVE('',#216,#211,#113,.T.);
#270=EDGE_CURVE('',#216,#217,#114,.T.);
#271=EDGE_CURVE('',#217,#215,#115,.T.);
#272=EDGE_CURVE('',#210,#218,#116,.T.);
#273=EDGE_CURVE('',#216,#218,#117,.T.);
#274=EDGE_CURVE('',#219,#195,#118,.T.);
#275=EDGE_CURVE('',#209,#219,#119,.T.);
#276=EDGE_CURVE('',#217,#184,#120,.T.);
#277=EDGE_CURVE('',#183,#216,#121,.T.);
#278=EDGE_CURVE('',#218,#219,#122,.T.);
#279=EDGE_CURVE('',#214,#207,#123,.T.);
#280=ORIENTED_EDGE('',*,*,#220,.T.);
#281=ORIENTED_EDGE('',*,*,#221,.T.);
#282=ORIENTED_EDGE('',*,*,#222,.T.);
#283=ORIENTED_EDGE('',*,*,#223,.T.);
#284=ORIENTED_EDGE('',*,*,#224,.F.);
#285=ORIENTED_EDGE('',*,*,#221,.F.);
#286=ORIENTED_EDGE('',*,*,#225,.F.);
#287=ORIENTED_EDGE('',*,*,#226,.F.);
#288=ORIENTED_EDGE('',*,*,#227,.F.);
#289=ORIENTED_EDGE('',*,*,#228,.F.);
#290=ORIENTED_EDGE('',*,*,#229,.F.);
#291=ORIENTED_EDGE('',*,*,#230,.F.);
#292=ORIENTED_EDGE('',*,*,#220,.F.);
#293=ORIENTED_EDGE('',*,*,#231,.T.);
#294=ORIENTED_EDGE('',*,*,#232,.F.);
#295=ORIENTED_EDGE('',*,*,#233,.T.);
#296=ORIENTED_EDGE('',*,*,#234,.F.);
#297=ORIENTED_EDGE('',*,*,#235,.T.);
#298=ORIENTED_EDGE('',*,*,#236,.F.);
#299=ORIENTED_EDGE('',*,*,#225,.T.);
#300=ORIENTED_EDGE('',*,*,#232,.T.);
#301=ORIENTED_EDGE('',*,*,#237,.T.);
#302=ORIENTED_EDGE('',*,*,#238,.T.);
#303=ORIENTED_EDGE('',*,*,#239,.T.);
#304=ORIENTED_EDGE('',*,*,#239,.F.);
#305=ORIENTED_EDGE('',*,*,#240,.F.);
#306=ORIENTED_EDGE('',*,*,#241,.F.);
#307=ORIENTED_EDGE('',*,*,#233,.F.);
#308=ORIENTED_EDGE('',*,*,#234,.T.);
#309=ORIENTED_EDGE('',*,*,#241,.T.);
#310=ORIENTED_EDGE('',*,*,#242,.T.);
#311=ORIENTED_EDGE('',*,*,#243,.T.);
#312=ORIENTED_EDGE('',*,*,#236,.T.);
#313=ORIENTED_EDGE('',*,*,#244,.T.);
#314=ORIENTED_EDGE('',*,*,#245,.T.);
#315=ORIENTED_EDGE('',*,*,#226,.T.);
#316=ORIENTED_EDGE('',*,*,#246,.F.);
#317=ORIENTED_EDGE('',*,*,#247,.F.);
#318=ORIENTED_EDGE('',*,*,#248,.T.);
#319=ORIENTED_EDGE('',*,*,#249,.F.);
#320=ORIENTED_EDGE('',*,*,#250,.F.);
#321=ORIENTED_EDGE('',*,*,#248,.F.);
#322=ORIENTED_EDGE('',*,*,#249,.T.);
#323=ORIENTED_EDGE('',*,*,#250,.T.);
#324=ORIENTED_EDGE('',*,*,#229,.T.);
#325=ORIENTED_EDGE('',*,*,#251,.F.);
#326=ORIENTED_EDGE('',*,*,#252,.T.);
#327=ORIENTED_EDGE('',*,*,#253,.F.);
#328=ORIENTED_EDGE('',*,*,#228,.T.);
#329=ORIENTED_EDGE('',*,*,#254,.T.);
#330=ORIENTED_EDGE('',*,*,#255,.T.);
#331=ORIENTED_EDGE('',*,*,#256,.T.);
#332=ORIENTED_EDGE('',*,*,#251,.T.);
#333=ORIENTED_EDGE('',*,*,#245,.F.);
#334=ORIENTED_EDGE('',*,*,#257,.F.);
#335=ORIENTED_EDGE('',*,*,#258,.T.);
#336=ORIENTED_EDGE('',*,*,#254,.F.);
#337=ORIENTED_EDGE('',*,*,#227,.T.);
#338=ORIENTED_EDGE('',*,*,#259,.T.);
#339=ORIENTED_EDGE('',*,*,#260,.T.);
#340=ORIENTED_EDGE('',*,*,#261,.T.);
#341=ORIENTED_EDGE('',*,*,#262,.T.);
#342=ORIENTED_EDGE('',*,*,#263,.T.);
#343=ORIENTED_EDGE('',*,*,#264,.T.);
#344=ORIENTED_EDGE('',*,*,#265,.T.);
#345=ORIENTED_EDGE('',*,*,#257,.T.);
#346=ORIENTED_EDGE('',*,*,#244,.F.);
#347=ORIENTED_EDGE('',*,*,#235,.F.);
#348=ORIENTED_EDGE('',*,*,#243,.F.);
#349=ORIENTED_EDGE('',*,*,#246,.T.);
#350=ORIENTED_EDGE('',*,*,#247,.T.);
#351=ORIENTED_EDGE('',*,*,#263,.F.);
#352=ORIENTED_EDGE('',*,*,#266,.F.);
#353=ORIENTED_EDGE('',*,*,#267,.T.);
#354=ORIENTED_EDGE('',*,*,#252,.F.);
#355=ORIENTED_EDGE('',*,*,#268,.F.);
#356=ORIENTED_EDGE('',*,*,#262,.F.);
#357=ORIENTED_EDGE('',*,*,#269,.F.);
#358=ORIENTED_EDGE('',*,*,#270,.T.);
#359=ORIENTED_EDGE('',*,*,#271,.T.);
#360=ORIENTED_EDGE('',*,*,#266,.T.);
#361=ORIENTED_EDGE('',*,*,#269,.T.);
#362=ORIENTED_EDGE('',*,*,#261,.F.);
#363=ORIENTED_EDGE('',*,*,#272,.T.);
#364=ORIENTED_EDGE('',*,*,#273,.F.);
#365=ORIENTED_EDGE('',*,*,#240,.T.);
#366=ORIENTED_EDGE('',*,*,#238,.F.);
#367=ORIENTED_EDGE('',*,*,#274,.F.);
#368=ORIENTED_EDGE('',*,*,#275,.F.);
#369=ORIENTED_EDGE('',*,*,#259,.F.);
#370=ORIENTED_EDGE('',*,*,#242,.F.);
#371=ORIENTED_EDGE('',*,*,#224,.T.);
#372=ORIENTED_EDGE('',*,*,#276,.F.);
#373=ORIENTED_EDGE('',*,*,#270,.F.);
#374=ORIENTED_EDGE('',*,*,#277,.F.);
#375=ORIENTED_EDGE('',*,*,#222,.F.);
#376=ORIENTED_EDGE('',*,*,#230,.T.);
#377=ORIENTED_EDGE('',*,*,#253,.T.);
#378=ORIENTED_EDGE('',*,*,#267,.F.);
#379=ORIENTED_EDGE('',*,*,#271,.F.);
#380=ORIENTED_EDGE('',*,*,#276,.T.);
#381=ORIENTED_EDGE('',*,*,#223,.F.);
#382=ORIENTED_EDGE('',*,*,#277,.T.);
#383=ORIENTED_EDGE('',*,*,#273,.T.);
#384=ORIENTED_EDGE('',*,*,#278,.T.);
#385=ORIENTED_EDGE('',*,*,#274,.T.);
#386=ORIENTED_EDGE('',*,*,#237,.F.);
#387=ORIENTED_EDGE('',*,*,#231,.F.);
#388=ORIENTED_EDGE('',*,*,#260,.F.);
#389=ORIENTED_EDGE('',*,*,#275,.T.);
#390=ORIENTED_EDGE('',*,*,#278,.F.);
#391=ORIENTED_EDGE('',*,*,#272,.F.);
#392=ORIENTED_EDGE('',*,*,#268,.T.);
#393=ORIENTED_EDGE('',*,*,#256,.F.);
#394=ORIENTED_EDGE('',*,*,#279,.F.);
#395=ORIENTED_EDGE('',*,*,#264,.F.);
#396=ORIENTED_EDGE('',*,*,#265,.F.);
#397=ORIENTED_EDGE('',*,*,#279,.T.);
#398=ORIENTED_EDGE('',*,*,#255,.F.);
#399=ORIENTED_EDGE('',*,*,#258,.F.);
#400=PLANE('',#465);
#401=PLANE('',#466);
#402=PLANE('',#467);
#403=PLANE('',#468);
#404=PLANE('',#469);
#405=PLANE('',#470);
#406=PLANE('',#471);
#407=PLANE('',#477);
#408=PLANE('',#478);
#409=PLANE('',#479);
#410=PLANE('',#480);
#411=PLANE('',#481);
#412=PLANE('',#482);
#413=PLANE('',#483);
#414=PLANE('',#484);
#415=PLANE('',#485);
#416=PLANE('',#486);
#417=PLANE('',#487);
#418=PLANE('',#488);
#419=PLANE('',#489);
#420=PLANE('',#490);
#421=PLANE('',#491);
#422=ADVANCED_FACE('',(#21),#400,.T.);
#423=ADVANCED_FACE('',(#22),#401,.F.);
#424=ADVANCED_FACE('',(#23),#402,.T.);
#425=ADVANCED_FACE('',(#24),#403,.T.);
#426=ADVANCED_FACE('',(#25),#404,.T.);
#427=ADVANCED_FACE('',(#26),#405,.T.);
#428=ADVANCED_FACE('',(#27),#406,.T.);
#429=ADVANCED_FACE('',(#28),#20,.F.);
#430=ADVANCED_FACE('',(#29),#407,.T.);
#431=ADVANCED_FACE('',(#30),#408,.T.);
#432=ADVANCED_FACE('',(#31),#409,.T.);
#433=ADVANCED_FACE('',(#32),#410,.T.);
#434=ADVANCED_FACE('',(#33,#15),#411,.F.);
#435=ADVANCED_FACE('',(#34),#412,.T.);
#436=ADVANCED_FACE('',(#35),#413,.T.);
#437=ADVANCED_FACE('',(#36),#414,.T.);
#438=ADVANCED_FACE('',(#37),#415,.T.);
#439=ADVANCED_FACE('',(#38),#416,.T.);
#440=ADVANCED_FACE('',(#39),#417,.T.);
#441=ADVANCED_FACE('',(#40),#418,.T.);
#442=ADVANCED_FACE('',(#41),#419,.T.);
#443=ADVANCED_FACE('',(#42),#420,.T.);
#444=ADVANCED_FACE('',(#43),#421,.T.);
#445=CLOSED_SHELL('',(#422,#423,#424,#425,#426,#427,#428,#429,#430,#431,
#432,#433,#434,#435,#436,#437,#438,#439,#440,#441,#442,#443,#444));
#446=DERIVED_UNIT_ELEMENT(#448,1.);
#447=DERIVED_UNIT_ELEMENT(#733,3.);
#448=(
MASS_UNIT()
NAMED_UNIT(*)
SI_UNIT($,.GRAM.)
);
#449=DERIVED_UNIT((#446,#447));
#450=MEASURE_REPRESENTATION_ITEM('density measure',
POSITIVE_RATIO_MEASURE(0.357272727273),#449);
#451=PROPERTY_DEFINITION_REPRESENTATION(#456,#453);
#452=PROPERTY_DEFINITION_REPRESENTATION(#457,#454);
#453=REPRESENTATION('material name',(#455),#730);
#454=REPRESENTATION('density',(#450),#730);
#455=DESCRIPTIVE_REPRESENTATION_ITEM('PC/ABS Plastic','PC/ABS Plastic');
#456=PROPERTY_DEFINITION('material property','material name',#740);
#457=PROPERTY_DEFINITION('material property','density of part',#740);
#458=DATE_TIME_ROLE('creation_date');
#459=APPLIED_DATE_AND_TIME_ASSIGNMENT(#460,#458,(#740));
#460=DATE_AND_TIME(#461,#462);
#461=CALENDAR_DATE(2018,26,4);
#462=LOCAL_TIME(3,15,8.,#463);
#463=COORDINATED_UNIVERSAL_TIME_OFFSET(0,0,.BEHIND.);
#464=AXIS2_PLACEMENT_3D('placement',#604,#492,#493);
#465=AXIS2_PLACEMENT_3D('',#605,#494,#495);
#466=AXIS2_PLACEMENT_3D('',#614,#500,#501);
#467=AXIS2_PLACEMENT_3D('',#628,#509,#510);
#468=AXIS2_PLACEMENT_3D('',#640,#517,#518);
#469=AXIS2_PLACEMENT_3D('',#646,#522,#523);
#470=AXIS2_PLACEMENT_3D('',#650,#526,#527);
#471=AXIS2_PLACEMENT_3D('',#654,#530,#531);
#472=AXIS2_PLACEMENT_3D('',#658,#534,#535);
#473=AXIS2_PLACEMENT_3D('',#661,#536,#537);
#474=AXIS2_PLACEMENT_3D('',#662,#538,#539);
#475=AXIS2_PLACEMENT_3D('',#666,#541,#542);
#476=AXIS2_PLACEMENT_3D('',#667,#543,#544);
#477=AXIS2_PLACEMENT_3D('',#668,#545,#546);
#478=AXIS2_PLACEMENT_3D('',#669,#547,#548);
#479=AXIS2_PLACEMENT_3D('',#675,#552,#553);
#480=AXIS2_PLACEMENT_3D('',#681,#557,#558);
#481=AXIS2_PLACEMENT_3D('',#685,#561,#562);
#482=AXIS2_PLACEMENT_3D('',#699,#570,#571);
#483=AXIS2_PLACEMENT_3D('',#704,#575,#576);
#484=AXIS2_PLACEMENT_3D('',#710,#580,#581);
#485=AXIS2_PLACEMENT_3D('',#714,#584,#585);
#486=AXIS2_PLACEMENT_3D('',#718,#588,#589);
#487=AXIS2_PLACEMENT_3D('',#721,#592,#593);
#488=AXIS2_PLACEMENT_3D('',#722,#594,#595);
#489=AXIS2_PLACEMENT_3D('',#724,#597,#598);
#490=AXIS2_PLACEMENT_3D('',#725,#599,#600);
#491=AXIS2_PLACEMENT_3D('',#727,#602,#603);
#492=DIRECTION('axis',(0.,0.,1.));
#493=DIRECTION('refdir',(1.,0.,0.));
#494=DIRECTION('center_axis',(0.,0.707106781186548,-0.707106781186548));
#495=DIRECTION('ref_axis',(-1.,0.,0.));
#496=DIRECTION('',(0.,-0.707106781186548,-0.707106781186548));
#497=DIRECTION('',(-1.,0.,0.));
#498=DIRECTION('',(-1.71728862668538E-16,-0.707106781186548,-0.707106781186548));
#499=DIRECTION('',(1.,0.,0.));
#500=DIRECTION('center_axis',(0.,0.,1.));
#501=DIRECTION('ref_axis',(1.,0.,0.));
#502=DIRECTION('',(0.,1.,0.));
#503=DIRECTION('',(0.,1.,0.));
#504=DIRECTION('',(1.,0.,0.));
#505=DIRECTION('',(0.,-1.,0.));
#506=DIRECTION('',(-1.,0.,0.));
#507=DIRECTION('',(0.,-1.,0.));
#508=DIRECTION('',(-1.,0.,0.));
#509=DIRECTION('center_axis',(1.,0.,0.));
#510=DIRECTION('ref_axis',(0.,0.,-1.));
#511=DIRECTION('',(0.,-4.62592926927149E-16,1.));
#512=DIRECTION('',(0.,0.707106781186549,-0.707106781186546));
#513=DIRECTION('',(0.,-1.,-1.11022302462516E-16));
#514=DIRECTION('',(0.,0.707106781186547,0.707106781186548));
#515=DIRECTION('',(0.,2.31296463463575E-16,-1.));
#516=DIRECTION('',(0.,-0.707106781186548,0.707106781186548));
#517=DIRECTION('center_axis',(0.,0.707106781186546,0.707106781186549));
#518=DIRECTION('ref_axis',(1.,0.,0.));
#519=DIRECTION('',(-1.,0.,0.));
#520=DIRECTION('',(-9.81307786677358E-17,0.707106781186549,-0.707106781186546));
#521=DIRECTION('',(1.,0.,0.));
#522=DIRECTION('center_axis',(0.,-1.11022302462516E-16,1.));
#523=DIRECTION('ref_axis',(0.,-1.,-1.11022302462516E-16));
#524=DIRECTION('',(1.54074395550979E-32,1.,1.11022302462516E-16));
#525=DIRECTION('',(-1.,0.,0.));
#526=DIRECTION('center_axis',(0.,-0.707106781186548,0.707106781186547));
#527=DIRECTION('ref_axis',(1.,0.,0.));
#528=DIRECTION('',(9.8130778667736E-17,0.707106781186547,0.707106781186548));
#529=DIRECTION('',(1.,0.,0.));
#530=DIRECTION('center_axis',(0.,-0.707106781186548,-0.707106781186548));
#531=DIRECTION('ref_axis',(-1.,0.,0.));
#532=DIRECTION('',(-1.,0.,0.));
#533=DIRECTION('',(9.8130778667736E-17,0.707106781186547,-0.707106781186547));
#534=DIRECTION('center_axis',(0.,-1.,0.));
#535=DIRECTION('ref_axis',(1.,0.,0.));
#536=DIRECTION('center_axis',(0.,1.,0.));
#537=DIRECTION('ref_axis',(1.,0.,0.));
#538=DIRECTION('center_axis',(0.,1.,0.));
#539=DIRECTION('ref_axis',(1.,0.,0.));
#540=DIRECTION('',(0.,1.,0.));
#541=DIRECTION('center_axis',(0.,-1.,0.));
#542=DIRECTION('ref_axis',(1.,0.,0.));
#543=DIRECTION('center_axis',(0.,-1.,0.));
#544=DIRECTION('ref_axis',(1.,0.,0.));
#545=DIRECTION('center_axis',(0.,-1.,0.));
#546=DIRECTION('ref_axis',(1.,0.,0.));
#547=DIRECTION('center_axis',(-1.,0.,2.60208521396521E-16));
#548=DIRECTION('ref_axis',(2.60208521396521E-16,0.,1.));
#549=DIRECTION('',(-2.60208521396521E-16,0.,-1.));
#550=DIRECTION('',(0.,1.,0.));
#551=DIRECTION('',(2.60208521396521E-16,0.,1.));
#552=DIRECTION('center_axis',(0.,1.,0.));
#553=DIRECTION('ref_axis',(0.,0.,1.));
#554=DIRECTION('',(-1.38777878078145E-16,0.,1.));
#555=DIRECTION('',(0.5,0.,0.866025403784439));
#556=DIRECTION('',(1.,0.,-1.20185167898973E-16));
#557=DIRECTION('center_axis',(-1.,0.,-1.38777878078145E-16));
#558=DIRECTION('ref_axis',(-1.38777878078145E-16,0.,1.));
#559=DIRECTION('',(1.38777878078145E-16,0.,-1.));
#560=DIRECTION('',(0.,1.,0.));
#561=DIRECTION('center_axis',(0.,1.,0.));
#562=DIRECTION('ref_axis',(0.,0.,1.));
#563=DIRECTION('',(1.38777878078145E-16,0.,1.));
#564=DIRECTION('',(-0.5,0.,0.866025403784439));
#565=DIRECTION('',(-1.,0.,1.20185167898973E-16));
#566=DIRECTION('',(-0.666015769308853,0.,0.745937661625915));
#567=DIRECTION('',(-0.666015769308852,0.,-0.745937661625915));
#568=DIRECTION('',(-1.,0.,1.20185167898973E-16));
#569=DIRECTION('',(-0.5,0.,-0.866025403784439));
#570=DIRECTION('center_axis',(-0.745937661625915,0.,0.666015769308852));
#571=DIRECTION('ref_axis',(-0.666015769308852,0.,-0.745937661625915));
#572=DIRECTION('',(0.,-1.,0.));
#573=DIRECTION('',(-0.666015769308852,0.,-0.745937661625915));
#574=DIRECTION('',(0.,1.,0.));
#575=DIRECTION('center_axis',(0.745937661625915,0.,0.666015769308853));
#576=DIRECTION('ref_axis',(-0.666015769308853,0.,0.745937661625915));
#577=DIRECTION('',(0.,-1.,0.));
#578=DIRECTION('',(0.,1.,0.));
#579=DIRECTION('',(-0.666015769308853,0.,0.745937661625915));
#580=DIRECTION('center_axis',(1.20185167898973E-16,0.,1.));
#581=DIRECTION('ref_axis',(1.,0.,-1.20185167898973E-16));
#582=DIRECTION('',(0.,1.,0.));
#583=DIRECTION('',(1.,0.,-1.20185167898973E-16));
#584=DIRECTION('center_axis',(1.,0.,-1.38777878078145E-16));
#585=DIRECTION('ref_axis',(-1.38777878078145E-16,0.,-1.));
#586=DIRECTION('',(-1.38777878078145E-16,0.,-1.));
#587=DIRECTION('',(0.,1.,0.));
#588=DIRECTION('center_axis',(1.,0.,-2.42861286636753E-16));
#589=DIRECTION('ref_axis',(-2.42861286636753E-16,0.,-1.));
#590=DIRECTION('',(-2.42861286636753E-16,0.,-1.));
#591=DIRECTION('',(2.42861286636753E-16,0.,1.));
#592=DIRECTION('center_axis',(0.,1.,0.));
#593=DIRECTION('ref_axis',(0.,0.,1.));
#594=DIRECTION('center_axis',(0.,1.,0.));
#595=DIRECTION('ref_axis',(0.,0.,1.));
#596=DIRECTION('',(0.5,0.,-0.866025403784439));
#597=DIRECTION('center_axis',(0.866025403784439,0.,0.5));
#598=DIRECTION('ref_axis',(0.5,0.,-0.866025403784439));
#599=DIRECTION('center_axis',(1.20185167898973E-16,0.,1.));
#600=DIRECTION('ref_axis',(1.,0.,-1.20185167898973E-16));
#601=DIRECTION('',(0.,1.,0.));
#602=DIRECTION('center_axis',(-0.866025403784439,0.,0.5));
#603=DIRECTION('ref_axis',(0.5,0.,0.866025403784439));
#604=CARTESIAN_POINT('',(0.,0.,0.));
#605=CARTESIAN_POINT('Origin',(1.55954226878904,9.8,-3.6));
#606=CARTESIAN_POINT('',(12.25,10.,-3.4));
#607=CARTESIAN_POINT('',(12.25,9.6,-3.8));
#608=CARTESIAN_POINT('',(12.25,8.8,-4.6));
#609=CARTESIAN_POINT('',(1.25,9.6,-3.8));
#610=CARTESIAN_POINT('',(1.55954226878904,9.6,-3.8));
#611=CARTESIAN_POINT('',(1.25,10.,-3.4));
#612=CARTESIAN_POINT('',(1.25,11.75,-1.65));
#613=CARTESIAN_POINT('',(1.55954226878904,10.,-3.4));
#614=CARTESIAN_POINT('Origin',(3.11908453757809,6.68853126258699,-3.8));
#615=CARTESIAN_POINT('',(1.25,16.,-3.8));
#616=CARTESIAN_POINT('',(1.25,8.3442656312935,-3.8));
#617=CARTESIAN_POINT('',(12.25,0.4,-3.8));
#618=CARTESIAN_POINT('',(12.25,5.84426563129349,-3.8));
#619=CARTESIAN_POINT('',(-4.61880215351701,0.4,-3.8));
#620=CARTESIAN_POINT('',(1.55954226878905,0.4,-3.8));
#621=CARTESIAN_POINT('',(-4.61880215351701,10.,-3.8));
#622=CARTESIAN_POINT('',(-4.61880215351701,3.34426563129349,-3.8));
#623=CARTESIAN_POINT('',(-1.25,10.,-3.8));
#624=CARTESIAN_POINT('',(1.55954226878904,10.,-3.8));
#625=CARTESIAN_POINT('',(-1.25,16.,-3.8));
#626=CARTESIAN_POINT('',(-1.25,8.3442656312935,-3.8));
#627=CARTESIAN_POINT('',(1.55954226878904,16.,-3.8));
#628=CARTESIAN_POINT('Origin',(12.25,5.,-2.8));
#629=CARTESIAN_POINT('',(12.25,10.,-2.));
#630=CARTESIAN_POINT('',(12.25,10.,-1.6));
#631=CARTESIAN_POINT('',(12.25,9.6,-1.6));
#632=CARTESIAN_POINT('',(12.25,8.85,-0.849999999999998));
#633=CARTESIAN_POINT('',(12.25,0.4,-1.6));
#634=CARTESIAN_POINT('',(12.25,-1.11022302462516E-15,-1.6));
#635=CARTESIAN_POINT('',(12.25,-4.62592926927148E-16,-2.));
#636=CARTESIAN_POINT('',(12.25,1.15,-0.85));
#637=CARTESIAN_POINT('',(12.25,-1.38777878078144E-16,-3.4));
#638=CARTESIAN_POINT('',(12.25,0.,-4.));
#639=CARTESIAN_POINT('',(12.25,1.2,-4.6));
#640=CARTESIAN_POINT('Origin',(1.38777878078145E-16,9.8,-1.8));
#641=CARTESIAN_POINT('',(4.61880215351701,10.,-2.));
#642=CARTESIAN_POINT('',(1.38777878078145E-16,10.,-2.));
#643=CARTESIAN_POINT('',(4.61880215351701,9.6,-1.6));
#644=CARTESIAN_POINT('',(4.61880215351701,6.89999999999999,1.1));
#645=CARTESIAN_POINT('',(1.38777878078145E-16,9.6,-1.6));
#646=CARTESIAN_POINT('Origin',(0.,10.,-1.6));
#647=CARTESIAN_POINT('',(4.61880215351701,0.4,-1.6));
#648=CARTESIAN_POINT('',(4.61880215351701,5.,-1.6));
#649=CARTESIAN_POINT('',(1.54509623746597E-16,0.4,-1.6));
#650=CARTESIAN_POINT('Origin',(1.54509623746597E-16,0.2,-1.8));
#651=CARTESIAN_POINT('',(4.61880215351701,0.,-2.));
#652=CARTESIAN_POINT('',(4.61880215351701,0.6,-1.4));
#653=CARTESIAN_POINT('',(1.54509623746597E-16,0.,-2.));
#654=CARTESIAN_POINT('Origin',(1.55954226878905,0.2,-3.6));
#655=CARTESIAN_POINT('',(-4.61880215351701,0.,-3.4));
#656=CARTESIAN_POINT('',(1.55954226878905,0.,-3.4));
#657=CARTESIAN_POINT('',(-4.61880215351701,0.25,-3.65));
#658=CARTESIAN_POINT('Origin',(3.43237922454307E-16,3.25,0.100000000000003));
#659=CARTESIAN_POINT('',(1.25,0.,0.100000000000003));
#660=CARTESIAN_POINT('',(-1.25,0.,0.100000000000003));
#661=CARTESIAN_POINT('Origin',(3.43237922454307E-16,0.,0.100000000000003));
#662=CARTESIAN_POINT('Origin',(3.43237922454307E-16,0.,0.100000000000003));
#663=CARTESIAN_POINT('',(-1.25,6.5,0.100000000000003));
#664=CARTESIAN_POINT('',(-1.25,3.25,0.100000000000003));
#665=CARTESIAN_POINT('',(1.25,6.5,0.100000000000003));
#666=CARTESIAN_POINT('Origin',(3.43237922454307E-16,6.5,0.100000000000003));
#667=CARTESIAN_POINT('Origin',(3.43237922454307E-16,6.5,0.100000000000003));
#668=CARTESIAN_POINT('Origin',(3.43237922454307E-16,6.5,0.100000000000003));
#669=CARTESIAN_POINT('Origin',(-1.25,10.,-4.));
#670=CARTESIAN_POINT('',(-1.25,10.,4.));
#671=CARTESIAN_POINT('',(-1.25,10.,-2.25728427444747));
#672=CARTESIAN_POINT('',(-1.25,16.,4.));
#673=CARTESIAN_POINT('',(-1.25,10.,4.));
#674=CARTESIAN_POINT('',(-1.25,16.,-4.));
#675=CARTESIAN_POINT('Origin',(2.77555756156289E-16,10.,-0.514568548894941));
#676=CARTESIAN_POINT('',(-4.61880215351701,10.,2.22044604925031E-15));
#677=CARTESIAN_POINT('',(-4.61880215351701,10.,2.09872647918847E-15));
#678=CARTESIAN_POINT('',(-2.3094010767585,10.,4.));
#679=CARTESIAN_POINT('',(-2.3094010767585,10.,4.));
#680=CARTESIAN_POINT('',(2.3094010767585,10.,4.));
#681=CARTESIAN_POINT('Origin',(-4.61880215351701,0.,-4.));
#682=CARTESIAN_POINT('',(-4.61880215351701,0.,2.09872647918847E-15));
#683=CARTESIAN_POINT('',(-4.61880215351701,0.,2.09872647918847E-15));
#684=CARTESIAN_POINT('',(-4.61880215351701,0.,2.09872647918847E-15));
#685=CARTESIAN_POINT('Origin',(3.09019247493194E-16,0.,-0.514568548894941));
#686=CARTESIAN_POINT('',(4.61880215351701,0.,8.36047128978274E-16));
#687=CARTESIAN_POINT('',(4.61880215351701,0.,-4.));
#688=CARTESIAN_POINT('',(2.3094010767585,0.,4.));
#689=CARTESIAN_POINT('',(4.61880215351701,0.,8.36047128978274E-16));
#690=CARTESIAN_POINT('',(1.25,0.,4.));
#691=CARTESIAN_POINT('',(2.3094010767585,0.,4.));
#692=CARTESIAN_POINT('',(0.,0.,5.4));
#693=CARTESIAN_POINT('',(0.798882185947482,0.,4.50525195173882));
#694=CARTESIAN_POINT('',(-1.25,0.,4.));
#695=CARTESIAN_POINT('',(-0.17388218594748,0.,5.20525195173882));
#696=CARTESIAN_POINT('',(-2.3094010767585,0.,4.));
#697=CARTESIAN_POINT('',(2.3094010767585,0.,4.));
#698=CARTESIAN_POINT('',(-2.3094010767585,0.,4.));
#699=CARTESIAN_POINT('Origin',(0.,16.,5.4));
#700=CARTESIAN_POINT('',(0.,16.,5.4));
#701=CARTESIAN_POINT('',(0.,16.,5.4));
#702=CARTESIAN_POINT('',(0.,16.,5.4));
#703=CARTESIAN_POINT('',(-1.25,8.,4.));
#704=CARTESIAN_POINT('Origin',(1.25,16.,4.));
#705=CARTESIAN_POINT('',(1.25,10.,4.));
#706=CARTESIAN_POINT('',(1.25,8.,4.));
#707=CARTESIAN_POINT('',(1.25,16.,4.));
#708=CARTESIAN_POINT('',(1.25,10.,4.));
#709=CARTESIAN_POINT('',(1.25,16.,4.));
#710=CARTESIAN_POINT('Origin',(-2.3094010767585,0.,4.));
#711=CARTESIAN_POINT('',(2.3094010767585,10.,4.));
#712=CARTESIAN_POINT('',(2.3094010767585,0.,4.));
#713=CARTESIAN_POINT('',(2.3094010767585,10.,4.));
#714=CARTESIAN_POINT('Origin',(4.61880215351701,0.,1.11022302462516E-15));
#715=CARTESIAN_POINT('',(4.61880215351701,10.,1.11022302462516E-15));
#716=CARTESIAN_POINT('',(4.61880215351701,10.,-4.));
#717=CARTESIAN_POINT('',(4.61880215351701,0.,8.36047128978274E-16));
#718=CARTESIAN_POINT('Origin',(1.25,10.,4.));
#719=CARTESIAN_POINT('',(1.25,16.,4.));
#720=CARTESIAN_POINT('',(1.25,10.,1.74271572555253));
#721=CARTESIAN_POINT('Origin',(0.,16.,0.));
#722=CARTESIAN_POINT('Origin',(2.77555756156289E-16,10.,-0.514568548894941));
#723=CARTESIAN_POINT('',(4.61880215351701,10.,8.36047128978274E-16));
#724=CARTESIAN_POINT('Origin',(2.3094010767585,0.,4.));
#725=CARTESIAN_POINT('Origin',(-2.3094010767585,0.,4.));
#726=CARTESIAN_POINT('',(-2.3094010767585,0.,4.));
#727=CARTESIAN_POINT('Origin',(-4.61880215351701,0.,2.22044604925031E-15));
#728=UNCERTAINTY_MEASURE_WITH_UNIT(LENGTH_MEASURE(0.01),#732,
'DISTANCE_ACCURACY_VALUE',
'Maximum model space distance between geometric entities at asserted c
onnectivities');
#729=UNCERTAINTY_MEASURE_WITH_UNIT(LENGTH_MEASURE(0.01),#732,
'DISTANCE_ACCURACY_VALUE',
'Maximum model space distance between geometric entities at asserted c
onnectivities');
#730=(
GEOMETRIC_REPRESENTATION_CONTEXT(3)
GLOBAL_UNCERTAINTY_ASSIGNED_CONTEXT((#728))
GLOBAL_UNIT_ASSIGNED_CONTEXT((#732,#735,#734))
REPRESENTATION_CONTEXT('','3D')
);
#731=(
GEOMETRIC_REPRESENTATION_CONTEXT(3)
GLOBAL_UNCERTAINTY_ASSIGNED_CONTEXT((#729))
GLOBAL_UNIT_ASSIGNED_CONTEXT((#732,#735,#734))
REPRESENTATION_CONTEXT('','3D')
);
#732=(
LENGTH_UNIT()
NAMED_UNIT(*)
SI_UNIT(.MILLI.,.METRE.)
);
#733=(
LENGTH_UNIT()
NAMED_UNIT(*)
SI_UNIT(.CENTI.,.METRE.)
);
#734=(
NAMED_UNIT(*)
SI_UNIT($,.STERADIAN.)
SOLID_ANGLE_UNIT()
);
#735=(
NAMED_UNIT(*)
PLANE_ANGLE_UNIT()
SI_UNIT($,.RADIAN.)
);
#736=SHAPE_DEFINITION_REPRESENTATION(#737,#738);
#737=PRODUCT_DEFINITION_SHAPE('',$,#740);
#738=SHAPE_REPRESENTATION('',(#464),#730);
#739=PRODUCT_DEFINITION_CONTEXT('part definition',#744,'design');
#740=PRODUCT_DEFINITION('Pe\X\E7a3','BFPTouch_Flag',#741,#739);
#741=PRODUCT_DEFINITION_FORMATION('',$,#746);
#742=PRODUCT_RELATED_PRODUCT_CATEGORY('BFPTouch_Flag','BFPTouch_Flag',(#746));
#743=APPLICATION_PROTOCOL_DEFINITION('international standard',
'automotive_design',2009,#744);
#744=APPLICATION_CONTEXT(
'Core Data for Automotive Mechanical Design Process');
#745=PRODUCT_CONTEXT('part definition',#744,'mechanical');
#746=PRODUCT('Pe\X\E7a3','BFPTouch_Flag',$,(#745));
#747=PRESENTATION_STYLE_ASSIGNMENT((#748));
#748=SURFACE_STYLE_USAGE(.BOTH.,#749);
#749=SURFACE_SIDE_STYLE('',(#750));
#750=SURFACE_STYLE_FILL_AREA(#751);
#751=FILL_AREA_STYLE('',(#752));
#752=FILL_AREA_STYLE_COLOUR('',#753);
#753=COLOUR_RGB('',0.,0.,0.);
ENDSEC;
END-ISO-10303-21;
