solid OpenSCAD_Model
  facet normal 0 -0.104526 -0.994522
    outer loop
      vertex 15.1 0 4.25
      vertex 21.15 0.883624 4.15713
      vertex 21.15 0 4.25
    endloop
  endfacet
  facet normal -0 -0.104526 -0.994522
    outer loop
      vertex 21.15 0.883624 4.15713
      vertex 15.1 0 4.25
      vertex 15.1 0.883624 4.15713
    endloop
  endfacet
  facet normal 0 -1 0
    outer loop
      vertex 15.1 4.22672 -0.444245
      vertex 21.15 4.22672 0.444245
      vertex 15.1 4.22672 0.444245
    endloop
  endfacet
  facet normal 0 -1 -0
    outer loop
      vertex 21.15 4.22672 0.444245
      vertex 15.1 4.22672 -0.444245
      vertex 21.15 4.22672 -0.444245
    endloop
  endfacet
  facet normal 0 1 -0
    outer loop
      vertex 21.15 -4.22672 -0.444245
      vertex 15.1 -4.22672 0.444245
      vertex 21.15 -4.22672 0.444245
    endloop
  endfacet
  facet normal 0 1 0
    outer loop
      vertex 15.1 -4.22672 0.444245
      vertex 21.15 -4.22672 -0.444245
      vertex 15.1 -4.22672 -0.444245
    endloop
  endfacet
  facet normal 0 -0.669131 -0.743144
    outer loop
      vertex 15.1 2.49809 3.43832
      vertex 21.15 3.15837 2.8438
      vertex 21.15 2.49809 3.43832
    endloop
  endfacet
  facet normal -0 -0.669131 -0.743144
    outer loop
      vertex 21.15 3.15837 2.8438
      vertex 15.1 2.49809 3.43832
      vertex 15.1 3.15837 2.8438
    endloop
  endfacet
  facet normal 0 -0.500002 -0.866024
    outer loop
      vertex 15.1 1.72863 3.88257
      vertex 21.15 2.49809 3.43832
      vertex 21.15 1.72863 3.88257
    endloop
  endfacet
  facet normal -0 -0.500002 -0.866024
    outer loop
      vertex 21.15 2.49809 3.43832
      vertex 15.1 1.72863 3.88257
      vertex 15.1 2.49809 3.43832
    endloop
  endfacet
  facet normal 0 -0.913547 -0.406734
    outer loop
      vertex 15.1 4.04199 1.31332
      vertex 21.15 3.68061 2.125
      vertex 15.1 3.68061 2.125
    endloop
  endfacet
  facet normal 0 -0.913547 -0.406734
    outer loop
      vertex 21.15 3.68061 2.125
      vertex 15.1 4.04199 1.31332
      vertex 21.15 4.04199 1.31332
    endloop
  endfacet
  facet normal 0 -0.978151 0.207893
    outer loop
      vertex 15.1 4.21487 -0.5
      vertex 21.15 4.22672 -0.444245
      vertex 15.1 4.22672 -0.444245
    endloop
  endfacet
  facet normal 0 -0.978151 0.207893
    outer loop
      vertex 21.15 4.22672 -0.444245
      vertex 15.1 4.21487 -0.5
      vertex 21.15 4.21487 -0.5
    endloop
  endfacet
  facet normal 0 -0.309018 -0.951056
    outer loop
      vertex 15.1 0.883624 4.15713
      vertex 21.15 1.72863 3.88257
      vertex 21.15 0.883624 4.15713
    endloop
  endfacet
  facet normal -0 -0.309018 -0.951056
    outer loop
      vertex 21.15 1.72863 3.88257
      vertex 15.1 0.883624 4.15713
      vertex 15.1 1.72863 3.88257
    endloop
  endfacet
  facet normal 0 -0.809016 -0.587786
    outer loop
      vertex 15.1 3.68061 2.125
      vertex 21.15 3.15837 2.8438
      vertex 15.1 3.15837 2.8438
    endloop
  endfacet
  facet normal 0 -0.809016 -0.587786
    outer loop
      vertex 21.15 3.15837 2.8438
      vertex 15.1 3.68061 2.125
      vertex 21.15 3.68061 2.125
    endloop
  endfacet
  facet normal 0 -0.978147 -0.207914
    outer loop
      vertex 15.1 4.22672 0.444245
      vertex 21.15 4.04199 1.31332
      vertex 15.1 4.04199 1.31332
    endloop
  endfacet
  facet normal 0 -0.978147 -0.207914
    outer loop
      vertex 21.15 4.04199 1.31332
      vertex 15.1 4.22672 0.444245
      vertex 21.15 4.22672 0.444245
    endloop
  endfacet
  facet normal 0 0.809016 -0.587786
    outer loop
      vertex 21.15 -3.68061 2.125
      vertex 15.1 -3.15837 2.8438
      vertex 21.15 -3.15837 2.8438
    endloop
  endfacet
  facet normal 0 0.809016 -0.587786
    outer loop
      vertex 15.1 -3.15837 2.8438
      vertex 21.15 -3.68061 2.125
      vertex 15.1 -3.68061 2.125
    endloop
  endfacet
  facet normal 0 0.500002 -0.866024
    outer loop
      vertex 15.1 -2.49809 3.43832
      vertex 21.15 -1.72863 3.88257
      vertex 21.15 -2.49809 3.43832
    endloop
  endfacet
  facet normal 0 0.500002 -0.866024
    outer loop
      vertex 21.15 -1.72863 3.88257
      vertex 15.1 -2.49809 3.43832
      vertex 15.1 -1.72863 3.88257
    endloop
  endfacet
  facet normal 0 0.978147 -0.207914
    outer loop
      vertex 21.15 -4.22672 0.444245
      vertex 15.1 -4.04199 1.31332
      vertex 21.15 -4.04199 1.31332
    endloop
  endfacet
  facet normal 0 0.978147 -0.207914
    outer loop
      vertex 15.1 -4.04199 1.31332
      vertex 21.15 -4.22672 0.444245
      vertex 15.1 -4.22672 0.444245
    endloop
  endfacet
  facet normal 0 0.913547 -0.406734
    outer loop
      vertex 21.15 -4.04199 1.31332
      vertex 15.1 -3.68061 2.125
      vertex 21.15 -3.68061 2.125
    endloop
  endfacet
  facet normal 0 0.913547 -0.406734
    outer loop
      vertex 15.1 -3.68061 2.125
      vertex 21.15 -4.04199 1.31332
      vertex 15.1 -4.04199 1.31332
    endloop
  endfacet
  facet normal 0 0.669131 -0.743144
    outer loop
      vertex 15.1 -3.15837 2.8438
      vertex 21.15 -2.49809 3.43832
      vertex 21.15 -3.15837 2.8438
    endloop
  endfacet
  facet normal 0 0.669131 -0.743144
    outer loop
      vertex 21.15 -2.49809 3.43832
      vertex 15.1 -3.15837 2.8438
      vertex 15.1 -2.49809 3.43832
    endloop
  endfacet
  facet normal 0 0.309018 -0.951056
    outer loop
      vertex 15.1 -1.72863 3.88257
      vertex 21.15 -0.883624 4.15713
      vertex 21.15 -1.72863 3.88257
    endloop
  endfacet
  facet normal 0 0.309018 -0.951056
    outer loop
      vertex 21.15 -0.883624 4.15713
      vertex 15.1 -1.72863 3.88257
      vertex 15.1 -0.883624 4.15713
    endloop
  endfacet
  facet normal 0 0.104526 -0.994522
    outer loop
      vertex 15.1 -0.883624 4.15713
      vertex 21.15 0 4.25
      vertex 21.15 -0.883624 4.15713
    endloop
  endfacet
  facet normal 0 0.104526 -0.994522
    outer loop
      vertex 21.15 0 4.25
      vertex 15.1 -0.883624 4.15713
      vertex 15.1 0 4.25
    endloop
  endfacet
  facet normal 0 0.978151 0.207893
    outer loop
      vertex 21.15 -4.21487 -0.5
      vertex 15.1 -4.22672 -0.444245
      vertex 21.15 -4.22672 -0.444245
    endloop
  endfacet
  facet normal 0 0.978151 0.207893
    outer loop
      vertex 15.1 -4.22672 -0.444245
      vertex 21.15 -4.21487 -0.5
      vertex 15.1 -4.21487 -0.5
    endloop
  endfacet
  facet normal 0 -0.0523329 0.99863
    outer loop
      vertex 9.15 0.940756 -8.9507
      vertex 15.1 0 -9
      vertex 15.1 0.940756 -8.9507
    endloop
  endfacet
  facet normal 0 -0.0523329 0.99863
    outer loop
      vertex 15.1 0 -9
      vertex 9.15 0.940756 -8.9507
      vertex 9.15 0 -9
    endloop
  endfacet
  facet normal 0 -0.0523329 -0.99863
    outer loop
      vertex 9.15 0 9
      vertex 15.1 0.940756 8.9507
      vertex 15.1 0 9
    endloop
  endfacet
  facet normal -0 -0.0523329 -0.99863
    outer loop
      vertex 15.1 0.940756 8.9507
      vertex 9.15 0 9
      vertex 9.15 0.940756 8.9507
    endloop
  endfacet
  facet normal 0 -0.99863 0.0523329
    outer loop
      vertex 9.15 8.9507 -0.940756
      vertex 15.1 9 0
      vertex 9.15 9 0
    endloop
  endfacet
  facet normal 0 -0.99863 0.0523329
    outer loop
      vertex 15.1 9 0
      vertex 9.15 8.9507 -0.940756
      vertex 15.1 8.9507 -0.940756
    endloop
  endfacet
  facet normal 0 0.99863 -0.0523329
    outer loop
      vertex 15.1 -9 0
      vertex 9.15 -8.9507 0.940756
      vertex 15.1 -8.9507 0.940756
    endloop
  endfacet
  facet normal 0 0.99863 -0.0523329
    outer loop
      vertex 9.15 -8.9507 0.940756
      vertex 15.1 -9 0
      vertex 9.15 -9 0
    endloop
  endfacet
  facet normal 0 0.629325 -0.777142
    outer loop
      vertex 9.15 -6.02217 6.6883
      vertex 15.1 -5.29007 7.28115
      vertex 15.1 -6.02217 6.6883
    endloop
  endfacet
  facet normal 0 0.629325 -0.777142
    outer loop
      vertex 15.1 -5.29007 7.28115
      vertex 9.15 -6.02217 6.6883
      vertex 9.15 -5.29007 7.28115
    endloop
  endfacet
  facet normal 0 -0.707107 0.707107
    outer loop
      vertex 9.15 6.02217 -6.6883
      vertex 15.1 6.6883 -6.02217
      vertex 9.15 6.6883 -6.02217
    endloop
  endfacet
  facet normal 0 -0.707107 0.707107
    outer loop
      vertex 15.1 6.6883 -6.02217
      vertex 9.15 6.02217 -6.6883
      vertex 15.1 6.02217 -6.6883
    endloop
  endfacet
  facet normal 0 -0.777142 -0.629325
    outer loop
      vertex 9.15 7.28115 5.29007
      vertex 15.1 6.6883 6.02217
      vertex 9.15 6.6883 6.02217
    endloop
  endfacet
  facet normal 0 -0.777142 -0.629325
    outer loop
      vertex 15.1 6.6883 6.02217
      vertex 9.15 7.28115 5.29007
      vertex 15.1 7.28115 5.29007
    endloop
  endfacet
  facet normal 0 -0.965926 -0.258819
    outer loop
      vertex 9.15 8.80333 1.8712
      vertex 15.1 8.55951 2.78115
      vertex 9.15 8.55951 2.78115
    endloop
  endfacet
  facet normal 0 -0.965926 -0.258819
    outer loop
      vertex 15.1 8.55951 2.78115
      vertex 9.15 8.80333 1.8712
      vertex 15.1 8.80333 1.8712
    endloop
  endfacet
  facet normal 0 -0.45399 0.891007
    outer loop
      vertex 9.15 4.5 -7.79423
      vertex 15.1 3.66063 -8.22191
      vertex 15.1 4.5 -7.79423
    endloop
  endfacet
  facet normal 0 -0.45399 0.891007
    outer loop
      vertex 15.1 3.66063 -8.22191
      vertex 9.15 4.5 -7.79423
      vertex 9.15 3.66063 -8.22191
    endloop
  endfacet
  facet normal 0 -0.933581 0.358367
    outer loop
      vertex 9.15 8.22191 -3.66063
      vertex 15.1 8.55951 -2.78115
      vertex 9.15 8.55951 -2.78115
    endloop
  endfacet
  facet normal 0 -0.933581 0.358367
    outer loop
      vertex 15.1 8.55951 -2.78115
      vertex 9.15 8.22191 -3.66063
      vertex 15.1 8.22191 -3.66063
    endloop
  endfacet
  facet normal 0 -0.838669 0.544641
    outer loop
      vertex 9.15 7.28115 -5.29007
      vertex 15.1 7.79423 -4.5
      vertex 9.15 7.79423 -4.5
    endloop
  endfacet
  facet normal 0 -0.838669 0.544641
    outer loop
      vertex 15.1 7.79423 -4.5
      vertex 9.15 7.28115 -5.29007
      vertex 15.1 7.28115 -5.29007
    endloop
  endfacet
  facet normal 0 -0.45399 -0.891007
    outer loop
      vertex 9.15 3.66063 8.22191
      vertex 15.1 4.5 7.79423
      vertex 15.1 3.66063 8.22191
    endloop
  endfacet
  facet normal -0 -0.45399 -0.891007
    outer loop
      vertex 15.1 4.5 7.79423
      vertex 9.15 3.66063 8.22191
      vertex 9.15 4.5 7.79423
    endloop
  endfacet
  facet normal 0 -0.99863 -0.0523329
    outer loop
      vertex 9.15 9 0
      vertex 15.1 8.9507 0.940756
      vertex 9.15 8.9507 0.940756
    endloop
  endfacet
  facet normal 0 -0.99863 -0.0523329
    outer loop
      vertex 15.1 8.9507 0.940756
      vertex 9.15 9 0
      vertex 15.1 9 0
    endloop
  endfacet
  facet normal -0 0.258819 0.965926
    outer loop
      vertex 9.15 -1.8712 -8.80333
      vertex 15.1 -2.78115 -8.55951
      vertex 15.1 -1.8712 -8.80333
    endloop
  endfacet
  facet normal 0 0.258819 0.965926
    outer loop
      vertex 15.1 -2.78115 -8.55951
      vertex 9.15 -1.8712 -8.80333
      vertex 9.15 -2.78115 -8.55951
    endloop
  endfacet
  facet normal 0 0.0523329 -0.99863
    outer loop
      vertex 9.15 -0.940756 8.9507
      vertex 15.1 0 9
      vertex 15.1 -0.940756 8.9507
    endloop
  endfacet
  facet normal 0 0.0523329 -0.99863
    outer loop
      vertex 15.1 0 9
      vertex 9.15 -0.940756 8.9507
      vertex 9.15 0 9
    endloop
  endfacet
  facet normal 0 -0.258819 0.965926
    outer loop
      vertex 9.15 2.78115 -8.55951
      vertex 15.1 1.8712 -8.80333
      vertex 15.1 2.78115 -8.55951
    endloop
  endfacet
  facet normal 0 -0.258819 0.965926
    outer loop
      vertex 15.1 1.8712 -8.80333
      vertex 9.15 2.78115 -8.55951
      vertex 9.15 1.8712 -8.80333
    endloop
  endfacet
  facet normal 0 -0.156437 0.987688
    outer loop
      vertex 9.15 1.8712 -8.80333
      vertex 15.1 0.940756 -8.9507
      vertex 15.1 1.8712 -8.80333
    endloop
  endfacet
  facet normal 0 -0.156437 0.987688
    outer loop
      vertex 15.1 0.940756 -8.9507
      vertex 9.15 1.8712 -8.80333
      vertex 9.15 0.940756 -8.9507
    endloop
  endfacet
  facet normal 0 -0.358367 0.933581
    outer loop
      vertex 9.15 3.66063 -8.22191
      vertex 15.1 2.78115 -8.55951
      vertex 15.1 3.66063 -8.22191
    endloop
  endfacet
  facet normal 0 -0.358367 0.933581
    outer loop
      vertex 15.1 2.78115 -8.55951
      vertex 9.15 3.66063 -8.22191
      vertex 9.15 2.78115 -8.55951
    endloop
  endfacet
  facet normal 0 -0.629325 0.777142
    outer loop
      vertex 9.15 6.02217 -6.6883
      vertex 15.1 5.29007 -7.28115
      vertex 15.1 6.02217 -6.6883
    endloop
  endfacet
  facet normal 0 -0.629325 0.777142
    outer loop
      vertex 15.1 5.29007 -7.28115
      vertex 9.15 6.02217 -6.6883
      vertex 9.15 5.29007 -7.28115
    endloop
  endfacet
  facet normal 0 -0.544641 0.838669
    outer loop
      vertex 9.15 5.29007 -7.28115
      vertex 15.1 4.5 -7.79423
      vertex 15.1 5.29007 -7.28115
    endloop
  endfacet
  facet normal 0 -0.544641 0.838669
    outer loop
      vertex 15.1 4.5 -7.79423
      vertex 9.15 5.29007 -7.28115
      vertex 9.15 4.5 -7.79423
    endloop
  endfacet
  facet normal 0 -0.965926 0.258819
    outer loop
      vertex 9.15 8.55951 -2.78115
      vertex 15.1 8.80333 -1.8712
      vertex 9.15 8.80333 -1.8712
    endloop
  endfacet
  facet normal 0 -0.965926 0.258819
    outer loop
      vertex 15.1 8.80333 -1.8712
      vertex 9.15 8.55951 -2.78115
      vertex 15.1 8.55951 -2.78115
    endloop
  endfacet
  facet normal 0 -0.987688 0.156437
    outer loop
      vertex 9.15 8.80333 -1.8712
      vertex 15.1 8.9507 -0.940756
      vertex 9.15 8.9507 -0.940756
    endloop
  endfacet
  facet normal 0 -0.987688 0.156437
    outer loop
      vertex 15.1 8.9507 -0.940756
      vertex 9.15 8.80333 -1.8712
      vertex 15.1 8.80333 -1.8712
    endloop
  endfacet
  facet normal 0 -0.891007 0.45399
    outer loop
      vertex 9.15 7.79423 -4.5
      vertex 15.1 8.22191 -3.66063
      vertex 9.15 8.22191 -3.66063
    endloop
  endfacet
  facet normal 0 -0.891007 0.45399
    outer loop
      vertex 15.1 8.22191 -3.66063
      vertex 9.15 7.79423 -4.5
      vertex 15.1 7.79423 -4.5
    endloop
  endfacet
  facet normal 0 -0.777142 0.629325
    outer loop
      vertex 9.15 6.6883 -6.02217
      vertex 15.1 7.28115 -5.29007
      vertex 9.15 7.28115 -5.29007
    endloop
  endfacet
  facet normal 0 -0.777142 0.629325
    outer loop
      vertex 15.1 7.28115 -5.29007
      vertex 9.15 6.6883 -6.02217
      vertex 15.1 6.6883 -6.02217
    endloop
  endfacet
  facet normal 0 -0.258819 -0.965926
    outer loop
      vertex 9.15 1.8712 8.80333
      vertex 15.1 2.78115 8.55951
      vertex 15.1 1.8712 8.80333
    endloop
  endfacet
  facet normal -0 -0.258819 -0.965926
    outer loop
      vertex 15.1 2.78115 8.55951
      vertex 9.15 1.8712 8.80333
      vertex 9.15 2.78115 8.55951
    endloop
  endfacet
  facet normal 0 -0.629325 -0.777142
    outer loop
      vertex 9.15 5.29007 7.28115
      vertex 15.1 6.02217 6.6883
      vertex 15.1 5.29007 7.28115
    endloop
  endfacet
  facet normal -0 -0.629325 -0.777142
    outer loop
      vertex 15.1 6.02217 6.6883
      vertex 9.15 5.29007 7.28115
      vertex 9.15 6.02217 6.6883
    endloop
  endfacet
  facet normal 0 -0.707107 -0.707107
    outer loop
      vertex 9.15 6.6883 6.02217
      vertex 15.1 6.02217 6.6883
      vertex 9.15 6.02217 6.6883
    endloop
  endfacet
  facet normal 0 -0.707107 -0.707107
    outer loop
      vertex 15.1 6.02217 6.6883
      vertex 9.15 6.6883 6.02217
      vertex 15.1 6.6883 6.02217
    endloop
  endfacet
  facet normal 0 -0.544641 -0.838669
    outer loop
      vertex 9.15 4.5 7.79423
      vertex 15.1 5.29007 7.28115
      vertex 15.1 4.5 7.79423
    endloop
  endfacet
  facet normal -0 -0.544641 -0.838669
    outer loop
      vertex 15.1 5.29007 7.28115
      vertex 9.15 4.5 7.79423
      vertex 9.15 5.29007 7.28115
    endloop
  endfacet
  facet normal 0 -0.358367 -0.933581
    outer loop
      vertex 9.15 2.78115 8.55951
      vertex 15.1 3.66063 8.22191
      vertex 15.1 2.78115 8.55951
    endloop
  endfacet
  facet normal -0 -0.358367 -0.933581
    outer loop
      vertex 15.1 3.66063 8.22191
      vertex 9.15 2.78115 8.55951
      vertex 9.15 3.66063 8.22191
    endloop
  endfacet
  facet normal 0 -0.156437 -0.987688
    outer loop
      vertex 9.15 0.940756 8.9507
      vertex 15.1 1.8712 8.80333
      vertex 15.1 0.940756 8.9507
    endloop
  endfacet
  facet normal -0 -0.156437 -0.987688
    outer loop
      vertex 15.1 1.8712 8.80333
      vertex 9.15 0.940756 8.9507
      vertex 9.15 1.8712 8.80333
    endloop
  endfacet
  facet normal -1 -0 0
    outer loop
      vertex 15.1 -4.22672 -0.444245
      vertex 15.1 -4.25 -0.5
      vertex 15.1 -4.22672 0.444245
    endloop
  endfacet
  facet normal -1 0 0
    outer loop
      vertex 15.1 -4.25 -0.5
      vertex 15.1 -4.22672 -0.444245
      vertex 15.1 -4.21487 -0.5
    endloop
  endfacet
  facet normal -1 0 0
    outer loop
      vertex 15.1 4.25 -0.5
      vertex 15.1 4.21487 -0.5
      vertex 15.1 4.22672 -0.444245
    endloop
  endfacet
  facet normal -1 0 0
    outer loop
      vertex 15.1 4.25 -0.5
      vertex 15.1 9 0
      vertex 15.1 8.9507 -0.940756
    endloop
  endfacet
  facet normal -1 0 0
    outer loop
      vertex 15.1 4.25 -0.5
      vertex 15.1 8.9507 -0.940756
      vertex 15.1 8.80333 -1.8712
    endloop
  endfacet
  facet normal -1 0 0
    outer loop
      vertex 15.1 4.22672 0.444245
      vertex 15.1 9 0
      vertex 15.1 4.25 -0.5
    endloop
  endfacet
  facet normal -1 0 0
    outer loop
      vertex 15.1 4.25 -0.5
      vertex 15.1 8.80333 -1.8712
      vertex 15.1 8.55951 -2.78115
    endloop
  endfacet
  facet normal -1 0 0
    outer loop
      vertex 15.1 9 0
      vertex 15.1 4.22672 0.444245
      vertex 15.1 8.9507 0.940756
    endloop
  endfacet
  facet normal -1 0 0
    outer loop
      vertex 15.1 4.25 -0.5
      vertex 15.1 8.55951 -2.78115
      vertex 15.1 8.22191 -3.66063
    endloop
  endfacet
  facet normal -1 -0 0
    outer loop
      vertex 15.1 8.9507 0.940756
      vertex 15.1 4.22672 0.444245
      vertex 15.1 8.80333 1.8712
    endloop
  endfacet
  facet normal -1 0 0
    outer loop
      vertex 15.1 4.25 -0.5
      vertex 15.1 8.22191 -3.66063
      vertex 15.1 7.79423 -4.5
    endloop
  endfacet
  facet normal -1 0 0
    outer loop
      vertex 15.1 4.04199 1.31332
      vertex 15.1 8.80333 1.8712
      vertex 15.1 4.22672 0.444245
    endloop
  endfacet
  facet normal -1 0 0
    outer loop
      vertex 15.1 4.25 -0.5
      vertex 15.1 7.79423 -4.5
      vertex 15.1 7.28115 -5.29007
    endloop
  endfacet
  facet normal -1 -0 0
    outer loop
      vertex 15.1 8.80333 1.8712
      vertex 15.1 4.04199 1.31332
      vertex 15.1 8.55951 2.78115
    endloop
  endfacet
  facet normal -1 0 0
    outer loop
      vertex 15.1 4.25 -0.5
      vertex 15.1 7.28115 -5.29007
      vertex 15.1 6.6883 -6.02217
    endloop
  endfacet
  facet normal -1 -0 0
    outer loop
      vertex 15.1 8.55951 2.78115
      vertex 15.1 4.04199 1.31332
      vertex 15.1 8.22191 3.66063
    endloop
  endfacet
  facet normal -1 0 0
    outer loop
      vertex 15.1 4.25 -0.5
      vertex 15.1 6.6883 -6.02217
      vertex 15.1 6.02217 -6.6883
    endloop
  endfacet
  facet normal -1 0 0
    outer loop
      vertex 15.1 3.68061 2.125
      vertex 15.1 8.22191 3.66063
      vertex 15.1 4.04199 1.31332
    endloop
  endfacet
  facet normal -1 0 0
    outer loop
      vertex 15.1 4.25 -7.5
      vertex 15.1 6.02217 -6.6883
      vertex 15.1 5.29007 -7.28115
    endloop
  endfacet
  facet normal -1 -0 0
    outer loop
      vertex 15.1 8.22191 3.66063
      vertex 15.1 3.68061 2.125
      vertex 15.1 7.79423 4.5
    endloop
  endfacet
  facet normal -1 0 0
    outer loop
      vertex 15.1 4.25 -7.5
      vertex 15.1 5.29007 -7.28115
      vertex 15.1 4.5 -7.79423
    endloop
  endfacet
  facet normal -1 -0 0
    outer loop
      vertex 15.1 7.79423 4.5
      vertex 15.1 3.68061 2.125
      vertex 15.1 7.28115 5.29007
    endloop
  endfacet
  facet normal -1 -0 0
    outer loop
      vertex 15.1 6.02217 -6.6883
      vertex 15.1 4.25 -7.5
      vertex 15.1 4.25 -0.5
    endloop
  endfacet
  facet normal -1 0 0
    outer loop
      vertex 15.1 3.66063 -8.22191
      vertex 15.1 4.25 -7.5
      vertex 15.1 4.5 -7.79423
    endloop
  endfacet
  facet normal -1 0 0
    outer loop
      vertex 15.1 2.78115 -8.55951
      vertex 15.1 4.25 -7.5
      vertex 15.1 3.66063 -8.22191
    endloop
  endfacet
  facet normal -1 0 0
    outer loop
      vertex 15.1 1.8712 -8.80333
      vertex 15.1 4.25 -7.5
      vertex 15.1 2.78115 -8.55951
    endloop
  endfacet
  facet normal -1 0 0
    outer loop
      vertex 15.1 0.940756 -8.9507
      vertex 15.1 4.25 -7.5
      vertex 15.1 1.8712 -8.80333
    endloop
  endfacet
  facet normal -1 0 0
    outer loop
      vertex 15.1 0 -9
      vertex 15.1 4.25 -7.5
      vertex 15.1 0.940756 -8.9507
    endloop
  endfacet
  facet normal -1 0 0
    outer loop
      vertex 15.1 -4.25 -7.5
      vertex 15.1 0 -9
      vertex 15.1 -0.940756 -8.9507
    endloop
  endfacet
  facet normal -1 0 0
    outer loop
      vertex 15.1 -4.25 -7.5
      vertex 15.1 -0.940756 -8.9507
      vertex 15.1 -1.8712 -8.80333
    endloop
  endfacet
  facet normal -1 0 0
    outer loop
      vertex 15.1 -4.25 -7.5
      vertex 15.1 -1.8712 -8.80333
      vertex 15.1 -2.78115 -8.55951
    endloop
  endfacet
  facet normal -1 0 0
    outer loop
      vertex 15.1 -4.25 -7.5
      vertex 15.1 -2.78115 -8.55951
      vertex 15.1 -3.66063 -8.22191
    endloop
  endfacet
  facet normal -1 0 0
    outer loop
      vertex 15.1 0 -9
      vertex 15.1 -4.25 -7.5
      vertex 15.1 4.25 -7.5
    endloop
  endfacet
  facet normal -1 0 0
    outer loop
      vertex 15.1 -5.29007 -7.28115
      vertex 15.1 -4.25 -7.5
      vertex 15.1 -4.5 -7.79423
    endloop
  endfacet
  facet normal -1 0 0
    outer loop
      vertex 15.1 -4.5 -7.79423
      vertex 15.1 -4.25 -7.5
      vertex 15.1 -3.66063 -8.22191
    endloop
  endfacet
  facet normal -1 0 0
    outer loop
      vertex 15.1 3.15837 2.8438
      vertex 15.1 7.28115 5.29007
      vertex 15.1 3.68061 2.125
    endloop
  endfacet
  facet normal -1 0 0
    outer loop
      vertex 15.1 4.22672 0.444245
      vertex 15.1 4.25 -0.5
      vertex 15.1 4.22672 -0.444245
    endloop
  endfacet
  facet normal -1 -0 0
    outer loop
      vertex 15.1 7.28115 5.29007
      vertex 15.1 3.15837 2.8438
      vertex 15.1 6.6883 6.02217
    endloop
  endfacet
  facet normal -1 -0 0
    outer loop
      vertex 15.1 6.6883 6.02217
      vertex 15.1 3.15837 2.8438
      vertex 15.1 6.02217 6.6883
    endloop
  endfacet
  facet normal -1 0 0
    outer loop
      vertex 15.1 2.49809 3.43832
      vertex 15.1 6.02217 6.6883
      vertex 15.1 3.15837 2.8438
    endloop
  endfacet
  facet normal -1 -0 0
    outer loop
      vertex 15.1 6.02217 6.6883
      vertex 15.1 2.49809 3.43832
      vertex 15.1 5.29007 7.28115
    endloop
  endfacet
  facet normal -1 -0 0
    outer loop
      vertex 15.1 5.29007 7.28115
      vertex 15.1 2.49809 3.43832
      vertex 15.1 4.5 7.79423
    endloop
  endfacet
  facet normal -1 0 0
    outer loop
      vertex 15.1 1.72863 3.88257
      vertex 15.1 4.5 7.79423
      vertex 15.1 2.49809 3.43832
    endloop
  endfacet
  facet normal -1 -0 0
    outer loop
      vertex 15.1 4.5 7.79423
      vertex 15.1 1.72863 3.88257
      vertex 15.1 3.66063 8.22191
    endloop
  endfacet
  facet normal -1 -0 0
    outer loop
      vertex 15.1 3.66063 8.22191
      vertex 15.1 1.72863 3.88257
      vertex 15.1 2.78115 8.55951
    endloop
  endfacet
  facet normal -1 0 0
    outer loop
      vertex 15.1 0.883624 4.15713
      vertex 15.1 2.78115 8.55951
      vertex 15.1 1.72863 3.88257
    endloop
  endfacet
  facet normal -1 -0 0
    outer loop
      vertex 15.1 2.78115 8.55951
      vertex 15.1 0.883624 4.15713
      vertex 15.1 1.8712 8.80333
    endloop
  endfacet
  facet normal -1 -0 0
    outer loop
      vertex 15.1 1.8712 8.80333
      vertex 15.1 0.883624 4.15713
      vertex 15.1 0.940756 8.9507
    endloop
  endfacet
  facet normal -1 0 0
    outer loop
      vertex 15.1 0 4.25
      vertex 15.1 0.940756 8.9507
      vertex 15.1 0.883624 4.15713
    endloop
  endfacet
  facet normal -1 0 0
    outer loop
      vertex 15.1 0 4.25
      vertex 15.1 0 9
      vertex 15.1 0.940756 8.9507
    endloop
  endfacet
  facet normal -1 0 0
    outer loop
      vertex 15.1 -0.940756 8.9507
      vertex 15.1 0 4.25
      vertex 15.1 -0.883624 4.15713
    endloop
  endfacet
  facet normal -1 0 0
    outer loop
      vertex 15.1 0 4.25
      vertex 15.1 -0.940756 8.9507
      vertex 15.1 0 9
    endloop
  endfacet
  facet normal -1 0 0
    outer loop
      vertex 15.1 -2.78115 8.55951
      vertex 15.1 -0.883624 4.15713
      vertex 15.1 -1.72863 3.88257
    endloop
  endfacet
  facet normal -1 0 0
    outer loop
      vertex 15.1 -0.883624 4.15713
      vertex 15.1 -1.8712 8.80333
      vertex 15.1 -0.940756 8.9507
    endloop
  endfacet
  facet normal -1 0 0
    outer loop
      vertex 15.1 -4.5 7.79423
      vertex 15.1 -1.72863 3.88257
      vertex 15.1 -2.49809 3.43832
    endloop
  endfacet
  facet normal -1 0 0
    outer loop
      vertex 15.1 -0.883624 4.15713
      vertex 15.1 -2.78115 8.55951
      vertex 15.1 -1.8712 8.80333
    endloop
  endfacet
  facet normal -1 0 0
    outer loop
      vertex 15.1 -6.02217 6.6883
      vertex 15.1 -2.49809 3.43832
      vertex 15.1 -3.15837 2.8438
    endloop
  endfacet
  facet normal -1 0 0
    outer loop
      vertex 15.1 -1.72863 3.88257
      vertex 15.1 -3.66063 8.22191
      vertex 15.1 -2.78115 8.55951
    endloop
  endfacet
  facet normal -1 0 0
    outer loop
      vertex 15.1 -7.28115 5.29007
      vertex 15.1 -3.15837 2.8438
      vertex 15.1 -3.68061 2.125
    endloop
  endfacet
  facet normal -1 0 0
    outer loop
      vertex 15.1 -8.22191 3.66063
      vertex 15.1 -3.68061 2.125
      vertex 15.1 -4.04199 1.31332
    endloop
  endfacet
  facet normal -1 0 0
    outer loop
      vertex 15.1 -8.80333 1.8712
      vertex 15.1 -4.04199 1.31332
      vertex 15.1 -4.22672 0.444245
    endloop
  endfacet
  facet normal -1 0 0
    outer loop
      vertex 15.1 -6.02217 -6.6883
      vertex 15.1 -4.25 -7.5
      vertex 15.1 -5.29007 -7.28115
    endloop
  endfacet
  facet normal -1 0 0
    outer loop
      vertex 15.1 -1.72863 3.88257
      vertex 15.1 -4.5 7.79423
      vertex 15.1 -3.66063 8.22191
    endloop
  endfacet
  facet normal -1 0 0
    outer loop
      vertex 15.1 -4.25 -7.5
      vertex 15.1 -6.02217 -6.6883
      vertex 15.1 -4.25 -0.5
    endloop
  endfacet
  facet normal -1 0 0
    outer loop
      vertex 15.1 -6.6883 -6.02217
      vertex 15.1 -4.25 -0.5
      vertex 15.1 -6.02217 -6.6883
    endloop
  endfacet
  facet normal -1 0 0
    outer loop
      vertex 15.1 -2.49809 3.43832
      vertex 15.1 -5.29007 7.28115
      vertex 15.1 -4.5 7.79423
    endloop
  endfacet
  facet normal -1 0 0
    outer loop
      vertex 15.1 -7.28115 -5.29007
      vertex 15.1 -4.25 -0.5
      vertex 15.1 -6.6883 -6.02217
    endloop
  endfacet
  facet normal -1 0 0
    outer loop
      vertex 15.1 -2.49809 3.43832
      vertex 15.1 -6.02217 6.6883
      vertex 15.1 -5.29007 7.28115
    endloop
  endfacet
  facet normal -1 0 0
    outer loop
      vertex 15.1 -7.79423 -4.5
      vertex 15.1 -4.25 -0.5
      vertex 15.1 -7.28115 -5.29007
    endloop
  endfacet
  facet normal -1 0 0
    outer loop
      vertex 15.1 -3.15837 2.8438
      vertex 15.1 -6.6883 6.02217
      vertex 15.1 -6.02217 6.6883
    endloop
  endfacet
  facet normal -1 0 0
    outer loop
      vertex 15.1 -8.22191 -3.66063
      vertex 15.1 -4.25 -0.5
      vertex 15.1 -7.79423 -4.5
    endloop
  endfacet
  facet normal -1 0 0
    outer loop
      vertex 15.1 -3.15837 2.8438
      vertex 15.1 -7.28115 5.29007
      vertex 15.1 -6.6883 6.02217
    endloop
  endfacet
  facet normal -1 0 0
    outer loop
      vertex 15.1 -8.55951 -2.78115
      vertex 15.1 -4.25 -0.5
      vertex 15.1 -8.22191 -3.66063
    endloop
  endfacet
  facet normal -1 0 0
    outer loop
      vertex 15.1 -3.68061 2.125
      vertex 15.1 -7.79423 4.5
      vertex 15.1 -7.28115 5.29007
    endloop
  endfacet
  facet normal -1 0 0
    outer loop
      vertex 15.1 -8.80333 -1.8712
      vertex 15.1 -4.25 -0.5
      vertex 15.1 -8.55951 -2.78115
    endloop
  endfacet
  facet normal -1 0 0
    outer loop
      vertex 15.1 -3.68061 2.125
      vertex 15.1 -8.22191 3.66063
      vertex 15.1 -7.79423 4.5
    endloop
  endfacet
  facet normal -1 0 0
    outer loop
      vertex 15.1 -8.9507 -0.940756
      vertex 15.1 -4.25 -0.5
      vertex 15.1 -8.80333 -1.8712
    endloop
  endfacet
  facet normal -1 0 0
    outer loop
      vertex 15.1 -4.04199 1.31332
      vertex 15.1 -8.55951 2.78115
      vertex 15.1 -8.22191 3.66063
    endloop
  endfacet
  facet normal -1 0 0
    outer loop
      vertex 15.1 -9 0
      vertex 15.1 -4.25 -0.5
      vertex 15.1 -8.9507 -0.940756
    endloop
  endfacet
  facet normal -1 0 0
    outer loop
      vertex 15.1 -4.04199 1.31332
      vertex 15.1 -8.80333 1.8712
      vertex 15.1 -8.55951 2.78115
    endloop
  endfacet
  facet normal -1 0 0
    outer loop
      vertex 15.1 -4.25 -0.5
      vertex 15.1 -9 0
      vertex 15.1 -4.22672 0.444245
    endloop
  endfacet
  facet normal -1 0 0
    outer loop
      vertex 15.1 -4.22672 0.444245
      vertex 15.1 -8.9507 0.940756
      vertex 15.1 -8.80333 1.8712
    endloop
  endfacet
  facet normal -1 -0 0
    outer loop
      vertex 15.1 -4.22672 0.444245
      vertex 15.1 -9 0
      vertex 15.1 -8.9507 0.940756
    endloop
  endfacet
  facet normal 0 -0.891007 -0.45399
    outer loop
      vertex 9.15 8.22191 3.66063
      vertex 15.1 7.79423 4.5
      vertex 9.15 7.79423 4.5
    endloop
  endfacet
  facet normal 0 -0.891007 -0.45399
    outer loop
      vertex 15.1 7.79423 4.5
      vertex 9.15 8.22191 3.66063
      vertex 15.1 8.22191 3.66063
    endloop
  endfacet
  facet normal 0 -0.933581 -0.358367
    outer loop
      vertex 9.15 8.55951 2.78115
      vertex 15.1 8.22191 3.66063
      vertex 9.15 8.22191 3.66063
    endloop
  endfacet
  facet normal 0 -0.933581 -0.358367
    outer loop
      vertex 15.1 8.22191 3.66063
      vertex 9.15 8.55951 2.78115
      vertex 15.1 8.55951 2.78115
    endloop
  endfacet
  facet normal 0 -0.838669 -0.544641
    outer loop
      vertex 9.15 7.79423 4.5
      vertex 15.1 7.28115 5.29007
      vertex 9.15 7.28115 5.29007
    endloop
  endfacet
  facet normal 0 -0.838669 -0.544641
    outer loop
      vertex 15.1 7.28115 5.29007
      vertex 9.15 7.79423 4.5
      vertex 15.1 7.79423 4.5
    endloop
  endfacet
  facet normal 0 -0.987688 -0.156437
    outer loop
      vertex 9.15 8.9507 0.940756
      vertex 15.1 8.80333 1.8712
      vertex 9.15 8.80333 1.8712
    endloop
  endfacet
  facet normal 0 -0.987688 -0.156437
    outer loop
      vertex 15.1 8.80333 1.8712
      vertex 9.15 8.9507 0.940756
      vertex 15.1 8.9507 0.940756
    endloop
  endfacet
  facet normal 0 0.99863 0.0523329
    outer loop
      vertex 15.1 -8.9507 -0.940756
      vertex 9.15 -9 0
      vertex 15.1 -9 0
    endloop
  endfacet
  facet normal 0 0.99863 0.0523329
    outer loop
      vertex 9.15 -9 0
      vertex 15.1 -8.9507 -0.940756
      vertex 9.15 -8.9507 -0.940756
    endloop
  endfacet
  facet normal 0 0.965926 0.258819
    outer loop
      vertex 15.1 -8.55951 -2.78115
      vertex 9.15 -8.80333 -1.8712
      vertex 15.1 -8.80333 -1.8712
    endloop
  endfacet
  facet normal 0 0.965926 0.258819
    outer loop
      vertex 9.15 -8.80333 -1.8712
      vertex 15.1 -8.55951 -2.78115
      vertex 9.15 -8.55951 -2.78115
    endloop
  endfacet
  facet normal 0 0.777142 0.629325
    outer loop
      vertex 15.1 -6.6883 -6.02217
      vertex 9.15 -7.28115 -5.29007
      vertex 15.1 -7.28115 -5.29007
    endloop
  endfacet
  facet normal 0 0.777142 0.629325
    outer loop
      vertex 9.15 -7.28115 -5.29007
      vertex 15.1 -6.6883 -6.02217
      vertex 9.15 -6.6883 -6.02217
    endloop
  endfacet
  facet normal 0 0.891007 0.45399
    outer loop
      vertex 15.1 -7.79423 -4.5
      vertex 9.15 -8.22191 -3.66063
      vertex 15.1 -8.22191 -3.66063
    endloop
  endfacet
  facet normal 0 0.891007 0.45399
    outer loop
      vertex 9.15 -8.22191 -3.66063
      vertex 15.1 -7.79423 -4.5
      vertex 9.15 -7.79423 -4.5
    endloop
  endfacet
  facet normal -0 0.629325 0.777142
    outer loop
      vertex 9.15 -5.29007 -7.28115
      vertex 15.1 -6.02217 -6.6883
      vertex 15.1 -5.29007 -7.28115
    endloop
  endfacet
  facet normal 0 0.629325 0.777142
    outer loop
      vertex 15.1 -6.02217 -6.6883
      vertex 9.15 -5.29007 -7.28115
      vertex 9.15 -6.02217 -6.6883
    endloop
  endfacet
  facet normal -0 0.45399 0.891007
    outer loop
      vertex 9.15 -3.66063 -8.22191
      vertex 15.1 -4.5 -7.79423
      vertex 15.1 -3.66063 -8.22191
    endloop
  endfacet
  facet normal 0 0.45399 0.891007
    outer loop
      vertex 15.1 -4.5 -7.79423
      vertex 9.15 -3.66063 -8.22191
      vertex 9.15 -4.5 -7.79423
    endloop
  endfacet
  facet normal 0 0.707107 -0.707107
    outer loop
      vertex 15.1 -6.6883 6.02217
      vertex 9.15 -6.02217 6.6883
      vertex 15.1 -6.02217 6.6883
    endloop
  endfacet
  facet normal 0 0.707107 -0.707107
    outer loop
      vertex 9.15 -6.02217 6.6883
      vertex 15.1 -6.6883 6.02217
      vertex 9.15 -6.6883 6.02217
    endloop
  endfacet
  facet normal 0 0.838669 -0.544641
    outer loop
      vertex 15.1 -7.79423 4.5
      vertex 9.15 -7.28115 5.29007
      vertex 15.1 -7.28115 5.29007
    endloop
  endfacet
  facet normal 0 0.838669 -0.544641
    outer loop
      vertex 9.15 -7.28115 5.29007
      vertex 15.1 -7.79423 4.5
      vertex 9.15 -7.79423 4.5
    endloop
  endfacet
  facet normal 0 0.933581 -0.358367
    outer loop
      vertex 15.1 -8.55951 2.78115
      vertex 9.15 -8.22191 3.66063
      vertex 15.1 -8.22191 3.66063
    endloop
  endfacet
  facet normal 0 0.933581 -0.358367
    outer loop
      vertex 9.15 -8.22191 3.66063
      vertex 15.1 -8.55951 2.78115
      vertex 9.15 -8.55951 2.78115
    endloop
  endfacet
  facet normal 0 0.987688 -0.156437
    outer loop
      vertex 15.1 -8.9507 0.940756
      vertex 9.15 -8.80333 1.8712
      vertex 15.1 -8.80333 1.8712
    endloop
  endfacet
  facet normal 0 0.987688 -0.156437
    outer loop
      vertex 9.15 -8.80333 1.8712
      vertex 15.1 -8.9507 0.940756
      vertex 9.15 -8.9507 0.940756
    endloop
  endfacet
  facet normal 0 0.358367 -0.933581
    outer loop
      vertex 9.15 -3.66063 8.22191
      vertex 15.1 -2.78115 8.55951
      vertex 15.1 -3.66063 8.22191
    endloop
  endfacet
  facet normal 0 0.358367 -0.933581
    outer loop
      vertex 15.1 -2.78115 8.55951
      vertex 9.15 -3.66063 8.22191
      vertex 9.15 -2.78115 8.55951
    endloop
  endfacet
  facet normal 0 0.544641 -0.838669
    outer loop
      vertex 9.15 -5.29007 7.28115
      vertex 15.1 -4.5 7.79423
      vertex 15.1 -5.29007 7.28115
    endloop
  endfacet
  facet normal 0 0.544641 -0.838669
    outer loop
      vertex 15.1 -4.5 7.79423
      vertex 9.15 -5.29007 7.28115
      vertex 9.15 -4.5 7.79423
    endloop
  endfacet
  facet normal 0 0.156437 -0.987688
    outer loop
      vertex 9.15 -1.8712 8.80333
      vertex 15.1 -0.940756 8.9507
      vertex 15.1 -1.8712 8.80333
    endloop
  endfacet
  facet normal 0 0.156437 -0.987688
    outer loop
      vertex 15.1 -0.940756 8.9507
      vertex 9.15 -1.8712 8.80333
      vertex 9.15 -0.940756 8.9507
    endloop
  endfacet
  facet normal 0 0.258819 -0.965926
    outer loop
      vertex 9.15 -2.78115 8.55951
      vertex 15.1 -1.8712 8.80333
      vertex 15.1 -2.78115 8.55951
    endloop
  endfacet
  facet normal 0 0.258819 -0.965926
    outer loop
      vertex 15.1 -1.8712 8.80333
      vertex 9.15 -2.78115 8.55951
      vertex 9.15 -1.8712 8.80333
    endloop
  endfacet
  facet normal 0 0.987688 0.156437
    outer loop
      vertex 15.1 -8.80333 -1.8712
      vertex 9.15 -8.9507 -0.940756
      vertex 15.1 -8.9507 -0.940756
    endloop
  endfacet
  facet normal 0 0.987688 0.156437
    outer loop
      vertex 9.15 -8.9507 -0.940756
      vertex 15.1 -8.80333 -1.8712
      vertex 9.15 -8.80333 -1.8712
    endloop
  endfacet
  facet normal 0 0.933581 0.358367
    outer loop
      vertex 15.1 -8.22191 -3.66063
      vertex 9.15 -8.55951 -2.78115
      vertex 15.1 -8.55951 -2.78115
    endloop
  endfacet
  facet normal 0 0.933581 0.358367
    outer loop
      vertex 9.15 -8.55951 -2.78115
      vertex 15.1 -8.22191 -3.66063
      vertex 9.15 -8.22191 -3.66063
    endloop
  endfacet
  facet normal 0 0.707107 0.707107
    outer loop
      vertex 15.1 -6.02217 -6.6883
      vertex 9.15 -6.6883 -6.02217
      vertex 15.1 -6.6883 -6.02217
    endloop
  endfacet
  facet normal 0 0.707107 0.707107
    outer loop
      vertex 9.15 -6.6883 -6.02217
      vertex 15.1 -6.02217 -6.6883
      vertex 9.15 -6.02217 -6.6883
    endloop
  endfacet
  facet normal 0 0.838669 0.544641
    outer loop
      vertex 15.1 -7.28115 -5.29007
      vertex 9.15 -7.79423 -4.5
      vertex 15.1 -7.79423 -4.5
    endloop
  endfacet
  facet normal 0 0.838669 0.544641
    outer loop
      vertex 9.15 -7.79423 -4.5
      vertex 15.1 -7.28115 -5.29007
      vertex 9.15 -7.28115 -5.29007
    endloop
  endfacet
  facet normal -0 0.544641 0.838669
    outer loop
      vertex 9.15 -4.5 -7.79423
      vertex 15.1 -5.29007 -7.28115
      vertex 15.1 -4.5 -7.79423
    endloop
  endfacet
  facet normal 0 0.544641 0.838669
    outer loop
      vertex 15.1 -5.29007 -7.28115
      vertex 9.15 -4.5 -7.79423
      vertex 9.15 -5.29007 -7.28115
    endloop
  endfacet
  facet normal -0 0.358367 0.933581
    outer loop
      vertex 9.15 -2.78115 -8.55951
      vertex 15.1 -3.66063 -8.22191
      vertex 15.1 -2.78115 -8.55951
    endloop
  endfacet
  facet normal 0 0.358367 0.933581
    outer loop
      vertex 15.1 -3.66063 -8.22191
      vertex 9.15 -2.78115 -8.55951
      vertex 9.15 -3.66063 -8.22191
    endloop
  endfacet
  facet normal -0 0.156437 0.987688
    outer loop
      vertex 9.15 -0.940756 -8.9507
      vertex 15.1 -1.8712 -8.80333
      vertex 15.1 -0.940756 -8.9507
    endloop
  endfacet
  facet normal 0 0.156437 0.987688
    outer loop
      vertex 15.1 -1.8712 -8.80333
      vertex 9.15 -0.940756 -8.9507
      vertex 9.15 -1.8712 -8.80333
    endloop
  endfacet
  facet normal -0 0.0523329 0.99863
    outer loop
      vertex 9.15 0 -9
      vertex 15.1 -0.940756 -8.9507
      vertex 15.1 0 -9
    endloop
  endfacet
  facet normal 0 0.0523329 0.99863
    outer loop
      vertex 15.1 -0.940756 -8.9507
      vertex 9.15 0 -9
      vertex 9.15 -0.940756 -8.9507
    endloop
  endfacet
  facet normal 0 0.777142 -0.629325
    outer loop
      vertex 15.1 -7.28115 5.29007
      vertex 9.15 -6.6883 6.02217
      vertex 15.1 -6.6883 6.02217
    endloop
  endfacet
  facet normal 0 0.777142 -0.629325
    outer loop
      vertex 9.15 -6.6883 6.02217
      vertex 15.1 -7.28115 5.29007
      vertex 9.15 -7.28115 5.29007
    endloop
  endfacet
  facet normal 0 0.891007 -0.45399
    outer loop
      vertex 15.1 -8.22191 3.66063
      vertex 9.15 -7.79423 4.5
      vertex 15.1 -7.79423 4.5
    endloop
  endfacet
  facet normal 0 0.891007 -0.45399
    outer loop
      vertex 9.15 -7.79423 4.5
      vertex 15.1 -8.22191 3.66063
      vertex 9.15 -8.22191 3.66063
    endloop
  endfacet
  facet normal 0 0.965926 -0.258819
    outer loop
      vertex 15.1 -8.80333 1.8712
      vertex 9.15 -8.55951 2.78115
      vertex 15.1 -8.55951 2.78115
    endloop
  endfacet
  facet normal 0 0.965926 -0.258819
    outer loop
      vertex 9.15 -8.55951 2.78115
      vertex 15.1 -8.80333 1.8712
      vertex 9.15 -8.80333 1.8712
    endloop
  endfacet
  facet normal 0 0.45399 -0.891007
    outer loop
      vertex 9.15 -4.5 7.79423
      vertex 15.1 -3.66063 8.22191
      vertex 15.1 -4.5 7.79423
    endloop
  endfacet
  facet normal 0 0.45399 -0.891007
    outer loop
      vertex 15.1 -3.66063 8.22191
      vertex 9.15 -4.5 7.79423
      vertex 9.15 -3.66063 8.22191
    endloop
  endfacet
  facet normal -1 0 0
    outer loop
      vertex -13.15 -19.15 -18.15
      vertex -13.15 -15.15 12.15
      vertex -13.15 -15.15 -18.15
    endloop
  endfacet
  facet normal -1 -0 0
    outer loop
      vertex -13.15 -15.15 12.15
      vertex -13.15 -19.15 -18.15
      vertex -13.15 -19.15 12.15
    endloop
  endfacet
  facet normal -1 0 0
    outer loop
      vertex -13.15 15.15 -18.15
      vertex -13.15 19.15 12.15
      vertex -13.15 19.15 -18.15
    endloop
  endfacet
  facet normal -1 -0 0
    outer loop
      vertex -13.15 19.15 12.15
      vertex -13.15 15.15 -18.15
      vertex -13.15 15.15 12.15
    endloop
  endfacet
  facet normal 0 0 1
    outer loop
      vertex 21.15 19.15 12.15
      vertex 9.15 15.15 12.15
      vertex 21.15 -19.15 12.15
    endloop
  endfacet
  facet normal -0 0 1
    outer loop
      vertex -13.15 19.15 12.15
      vertex 9.15 15.15 12.15
      vertex 21.15 19.15 12.15
    endloop
  endfacet
  facet normal 0 0 1
    outer loop
      vertex 9.15 15.15 12.15
      vertex -13.15 19.15 12.15
      vertex -13.15 15.15 12.15
    endloop
  endfacet
  facet normal -0 0 1
    outer loop
      vertex 9.15 -15.15 12.15
      vertex 21.15 -19.15 12.15
      vertex 9.15 15.15 12.15
    endloop
  endfacet
  facet normal 0 0 1
    outer loop
      vertex -13.15 -19.15 12.15
      vertex 9.15 -15.15 12.15
      vertex -13.15 -15.15 12.15
    endloop
  endfacet
  facet normal 0 0 1
    outer loop
      vertex 9.15 -15.15 12.15
      vertex -13.15 -19.15 12.15
      vertex 21.15 -19.15 12.15
    endloop
  endfacet
  facet normal 1 0 0
    outer loop
      vertex 21.15 19.15 12.15
      vertex 21.15 4.25 -0.5
      vertex 21.15 19.15 -18.15
    endloop
  endfacet
  facet normal 1 0 0
    outer loop
      vertex 21.15 19.15 12.15
      vertex 21.15 4.22672 0.444245
      vertex 21.15 4.25 -0.5
    endloop
  endfacet
  facet normal 1 0 0
    outer loop
      vertex 21.15 19.15 12.15
      vertex 21.15 4.04199 1.31332
      vertex 21.15 4.22672 0.444245
    endloop
  endfacet
  facet normal 1 0 0
    outer loop
      vertex 21.15 19.15 12.15
      vertex 21.15 3.68061 2.125
      vertex 21.15 4.04199 1.31332
    endloop
  endfacet
  facet normal 1 0 0
    outer loop
      vertex 21.15 19.15 12.15
      vertex 21.15 3.15837 2.8438
      vertex 21.15 3.68061 2.125
    endloop
  endfacet
  facet normal 1 0 0
    outer loop
      vertex 21.15 19.15 12.15
      vertex 21.15 2.49809 3.43832
      vertex 21.15 3.15837 2.8438
    endloop
  endfacet
  facet normal 1 0 0
    outer loop
      vertex 21.15 19.15 12.15
      vertex 21.15 1.72863 3.88257
      vertex 21.15 2.49809 3.43832
    endloop
  endfacet
  facet normal 1 0 0
    outer loop
      vertex 21.15 19.15 12.15
      vertex 21.15 0.883624 4.15713
      vertex 21.15 1.72863 3.88257
    endloop
  endfacet
  facet normal 1 0 0
    outer loop
      vertex 21.15 19.15 12.15
      vertex 21.15 0 4.25
      vertex 21.15 0.883624 4.15713
    endloop
  endfacet
  facet normal 1 -0 0
    outer loop
      vertex 21.15 -19.15 12.15
      vertex 21.15 0 4.25
      vertex 21.15 19.15 12.15
    endloop
  endfacet
  facet normal 1 0 0
    outer loop
      vertex 21.15 0 4.25
      vertex 21.15 -19.15 12.15
      vertex 21.15 -0.883624 4.15713
    endloop
  endfacet
  facet normal 1 0 0
    outer loop
      vertex 21.15 -4.22672 0.444245
      vertex 21.15 -4.25 -0.5
      vertex 21.15 -4.22672 -0.444245
    endloop
  endfacet
  facet normal 1 0 0
    outer loop
      vertex 21.15 -19.15 -18.15
      vertex 21.15 -4.25 -0.5
      vertex 21.15 -19.15 12.15
    endloop
  endfacet
  facet normal 1 0 0
    outer loop
      vertex 21.15 -4.22672 0.444245
      vertex 21.15 -19.15 12.15
      vertex 21.15 -4.25 -0.5
    endloop
  endfacet
  facet normal 1 0 0
    outer loop
      vertex 21.15 -4.04199 1.31332
      vertex 21.15 -19.15 12.15
      vertex 21.15 -4.22672 0.444245
    endloop
  endfacet
  facet normal 1 0 0
    outer loop
      vertex 21.15 -3.68061 2.125
      vertex 21.15 -19.15 12.15
      vertex 21.15 -4.04199 1.31332
    endloop
  endfacet
  facet normal 1 0 0
    outer loop
      vertex 21.15 -3.15837 2.8438
      vertex 21.15 -19.15 12.15
      vertex 21.15 -3.68061 2.125
    endloop
  endfacet
  facet normal 1 0 0
    outer loop
      vertex 21.15 -2.49809 3.43832
      vertex 21.15 -19.15 12.15
      vertex 21.15 -3.15837 2.8438
    endloop
  endfacet
  facet normal 1 0 0
    outer loop
      vertex 21.15 -1.72863 3.88257
      vertex 21.15 -19.15 12.15
      vertex 21.15 -2.49809 3.43832
    endloop
  endfacet
  facet normal 1 0 0
    outer loop
      vertex 21.15 -0.883624 4.15713
      vertex 21.15 -19.15 12.15
      vertex 21.15 -1.72863 3.88257
    endloop
  endfacet
  facet normal 1 -0 0
    outer loop
      vertex 21.15 4.25 -7.5
      vertex 21.15 19.15 -18.15
      vertex 21.15 4.25 -0.5
    endloop
  endfacet
  facet normal 1 -0 0
    outer loop
      vertex 21.15 -4.25 -7.5
      vertex 21.15 19.15 -18.15
      vertex 21.15 4.25 -7.5
    endloop
  endfacet
  facet normal 1 0 0
    outer loop
      vertex 21.15 -4.25 -7.5
      vertex 21.15 -19.15 -18.15
      vertex 21.15 19.15 -18.15
    endloop
  endfacet
  facet normal 1 0 0
    outer loop
      vertex 21.15 -4.25 -0.5
      vertex 21.15 -19.15 -18.15
      vertex 21.15 -4.25 -7.5
    endloop
  endfacet
  facet normal 1 -0 0
    outer loop
      vertex 21.15 4.22672 -0.444245
      vertex 21.15 4.25 -0.5
      vertex 21.15 4.22672 0.444245
    endloop
  endfacet
  facet normal 1 0 0
    outer loop
      vertex 21.15 4.25 -0.5
      vertex 21.15 4.22672 -0.444245
      vertex 21.15 4.21487 -0.5
    endloop
  endfacet
  facet normal 1 0 0
    outer loop
      vertex 21.15 -4.21487 -0.5
      vertex 21.15 -4.22672 -0.444245
      vertex 21.15 -4.25 -0.5
    endloop
  endfacet
  facet normal 0 0 -1
    outer loop
      vertex 21.15 -19.15 -18.15
      vertex 9.15 -15.15 -18.15
      vertex 21.15 19.15 -18.15
    endloop
  endfacet
  facet normal 0 0 -1
    outer loop
      vertex -13.15 -19.15 -18.15
      vertex 9.15 -15.15 -18.15
      vertex 21.15 -19.15 -18.15
    endloop
  endfacet
  facet normal -0 0 -1
    outer loop
      vertex 9.15 -15.15 -18.15
      vertex -13.15 -19.15 -18.15
      vertex -13.15 -15.15 -18.15
    endloop
  endfacet
  facet normal 0 0 -1
    outer loop
      vertex 9.15 15.15 -18.15
      vertex 21.15 19.15 -18.15
      vertex 9.15 -15.15 -18.15
    endloop
  endfacet
  facet normal 0 0 -1
    outer loop
      vertex -13.15 19.15 -18.15
      vertex 9.15 15.15 -18.15
      vertex -13.15 15.15 -18.15
    endloop
  endfacet
  facet normal 0 0 -1
    outer loop
      vertex 9.15 15.15 -18.15
      vertex -13.15 19.15 -18.15
      vertex 21.15 19.15 -18.15
    endloop
  endfacet
  facet normal 0 -1 0
    outer loop
      vertex -13.15 -19.15 -18.15
      vertex 21.15 -19.15 12.15
      vertex -13.15 -19.15 12.15
    endloop
  endfacet
  facet normal 0 -1 -0
    outer loop
      vertex 21.15 -19.15 12.15
      vertex -13.15 -19.15 -18.15
      vertex 21.15 -19.15 -18.15
    endloop
  endfacet
  facet normal 0 1 -0
    outer loop
      vertex 21.15 19.15 -18.15
      vertex -13.15 19.15 12.15
      vertex 21.15 19.15 12.15
    endloop
  endfacet
  facet normal 0 1 0
    outer loop
      vertex -13.15 19.15 12.15
      vertex 21.15 19.15 -18.15
      vertex -13.15 19.15 -18.15
    endloop
  endfacet
  facet normal -1 0 0
    outer loop
      vertex 9.15 8.9507 -0.940756
      vertex 9.15 15.15 12.15
      vertex 9.15 15.15 -18.15
    endloop
  endfacet
  facet normal -1 0 0
    outer loop
      vertex 9.15 15.15 12.15
      vertex 9.15 8.9507 -0.940756
      vertex 9.15 9 0
    endloop
  endfacet
  facet normal -1 0 0
    outer loop
      vertex 9.15 15.15 -18.15
      vertex 9.15 8.80333 -1.8712
      vertex 9.15 8.9507 -0.940756
    endloop
  endfacet
  facet normal -1 0 0
    outer loop
      vertex 9.15 15.15 -18.15
      vertex 9.15 8.55951 -2.78115
      vertex 9.15 8.80333 -1.8712
    endloop
  endfacet
  facet normal -1 0 0
    outer loop
      vertex 9.15 15.15 -18.15
      vertex 9.15 8.22191 -3.66063
      vertex 9.15 8.55951 -2.78115
    endloop
  endfacet
  facet normal -1 0 0
    outer loop
      vertex 9.15 15.15 -18.15
      vertex 9.15 7.79423 -4.5
      vertex 9.15 8.22191 -3.66063
    endloop
  endfacet
  facet normal -1 0 0
    outer loop
      vertex 9.15 15.15 -18.15
      vertex 9.15 7.28115 -5.29007
      vertex 9.15 7.79423 -4.5
    endloop
  endfacet
  facet normal -1 0 0
    outer loop
      vertex 9.15 15.15 -18.15
      vertex 9.15 6.6883 -6.02217
      vertex 9.15 7.28115 -5.29007
    endloop
  endfacet
  facet normal -1 0 0
    outer loop
      vertex 9.15 15.15 -18.15
      vertex 9.15 6.02217 -6.6883
      vertex 9.15 6.6883 -6.02217
    endloop
  endfacet
  facet normal -1 0 0
    outer loop
      vertex 9.15 15.15 -18.15
      vertex 9.15 5.29007 -7.28115
      vertex 9.15 6.02217 -6.6883
    endloop
  endfacet
  facet normal -1 0 0
    outer loop
      vertex 9.15 15.15 -18.15
      vertex 9.15 4.5 -7.79423
      vertex 9.15 5.29007 -7.28115
    endloop
  endfacet
  facet normal -1 0 0
    outer loop
      vertex 9.15 15.15 -18.15
      vertex 9.15 3.66063 -8.22191
      vertex 9.15 4.5 -7.79423
    endloop
  endfacet
  facet normal -1 0 0
    outer loop
      vertex 9.15 15.15 -18.15
      vertex 9.15 2.78115 -8.55951
      vertex 9.15 3.66063 -8.22191
    endloop
  endfacet
  facet normal -1 0 0
    outer loop
      vertex 9.15 15.15 -18.15
      vertex 9.15 1.8712 -8.80333
      vertex 9.15 2.78115 -8.55951
    endloop
  endfacet
  facet normal -1 0 0
    outer loop
      vertex 9.15 15.15 -18.15
      vertex 9.15 0.940756 -8.9507
      vertex 9.15 1.8712 -8.80333
    endloop
  endfacet
  facet normal -1 0 0
    outer loop
      vertex 9.15 15.15 -18.15
      vertex 9.15 0 -9
      vertex 9.15 0.940756 -8.9507
    endloop
  endfacet
  facet normal -1 0 0
    outer loop
      vertex 9.15 -15.15 -18.15
      vertex 9.15 0 -9
      vertex 9.15 15.15 -18.15
    endloop
  endfacet
  facet normal -1 -0 0
    outer loop
      vertex 9.15 0 -9
      vertex 9.15 -15.15 -18.15
      vertex 9.15 -0.940756 -8.9507
    endloop
  endfacet
  facet normal -1 -0 0
    outer loop
      vertex 9.15 -0.940756 -8.9507
      vertex 9.15 -15.15 -18.15
      vertex 9.15 -1.8712 -8.80333
    endloop
  endfacet
  facet normal -1 -0 0
    outer loop
      vertex 9.15 -1.8712 -8.80333
      vertex 9.15 -15.15 -18.15
      vertex 9.15 -2.78115 -8.55951
    endloop
  endfacet
  facet normal -1 -0 0
    outer loop
      vertex 9.15 -2.78115 -8.55951
      vertex 9.15 -15.15 -18.15
      vertex 9.15 -3.66063 -8.22191
    endloop
  endfacet
  facet normal -1 0 0
    outer loop
      vertex 9.15 -15.15 12.15
      vertex 9.15 -8.9507 -0.940756
      vertex 9.15 -15.15 -18.15
    endloop
  endfacet
  facet normal -1 -0 0
    outer loop
      vertex 9.15 -8.80333 -1.8712
      vertex 9.15 -15.15 -18.15
      vertex 9.15 -8.9507 -0.940756
    endloop
  endfacet
  facet normal -1 -0 0
    outer loop
      vertex 9.15 -8.55951 -2.78115
      vertex 9.15 -15.15 -18.15
      vertex 9.15 -8.80333 -1.8712
    endloop
  endfacet
  facet normal -1 -0 0
    outer loop
      vertex 9.15 -8.22191 -3.66063
      vertex 9.15 -15.15 -18.15
      vertex 9.15 -8.55951 -2.78115
    endloop
  endfacet
  facet normal -1 -0 0
    outer loop
      vertex 9.15 -7.79423 -4.5
      vertex 9.15 -15.15 -18.15
      vertex 9.15 -8.22191 -3.66063
    endloop
  endfacet
  facet normal -1 -0 0
    outer loop
      vertex 9.15 -7.28115 -5.29007
      vertex 9.15 -15.15 -18.15
      vertex 9.15 -7.79423 -4.5
    endloop
  endfacet
  facet normal -1 -0 0
    outer loop
      vertex 9.15 -6.6883 -6.02217
      vertex 9.15 -15.15 -18.15
      vertex 9.15 -7.28115 -5.29007
    endloop
  endfacet
  facet normal -1 -0 0
    outer loop
      vertex 9.15 -6.02217 -6.6883
      vertex 9.15 -15.15 -18.15
      vertex 9.15 -6.6883 -6.02217
    endloop
  endfacet
  facet normal -1 -0 0
    outer loop
      vertex 9.15 -5.29007 -7.28115
      vertex 9.15 -15.15 -18.15
      vertex 9.15 -6.02217 -6.6883
    endloop
  endfacet
  facet normal -1 -0 0
    outer loop
      vertex 9.15 -4.5 -7.79423
      vertex 9.15 -15.15 -18.15
      vertex 9.15 -5.29007 -7.28115
    endloop
  endfacet
  facet normal -1 -0 0
    outer loop
      vertex 9.15 -3.66063 -8.22191
      vertex 9.15 -15.15 -18.15
      vertex 9.15 -4.5 -7.79423
    endloop
  endfacet
  facet normal -1 0 0
    outer loop
      vertex 9.15 8.9507 0.940756
      vertex 9.15 15.15 12.15
      vertex 9.15 9 0
    endloop
  endfacet
  facet normal -1 0 0
    outer loop
      vertex 9.15 8.80333 1.8712
      vertex 9.15 15.15 12.15
      vertex 9.15 8.9507 0.940756
    endloop
  endfacet
  facet normal -1 0 0
    outer loop
      vertex 9.15 8.55951 2.78115
      vertex 9.15 15.15 12.15
      vertex 9.15 8.80333 1.8712
    endloop
  endfacet
  facet normal -1 0 0
    outer loop
      vertex 9.15 8.22191 3.66063
      vertex 9.15 15.15 12.15
      vertex 9.15 8.55951 2.78115
    endloop
  endfacet
  facet normal -1 0 0
    outer loop
      vertex 9.15 7.79423 4.5
      vertex 9.15 15.15 12.15
      vertex 9.15 8.22191 3.66063
    endloop
  endfacet
  facet normal -1 0 0
    outer loop
      vertex 9.15 7.28115 5.29007
      vertex 9.15 15.15 12.15
      vertex 9.15 7.79423 4.5
    endloop
  endfacet
  facet normal -1 0 0
    outer loop
      vertex 9.15 6.6883 6.02217
      vertex 9.15 15.15 12.15
      vertex 9.15 7.28115 5.29007
    endloop
  endfacet
  facet normal -1 0 0
    outer loop
      vertex 9.15 6.02217 6.6883
      vertex 9.15 15.15 12.15
      vertex 9.15 6.6883 6.02217
    endloop
  endfacet
  facet normal -1 0 0
    outer loop
      vertex 9.15 5.29007 7.28115
      vertex 9.15 15.15 12.15
      vertex 9.15 6.02217 6.6883
    endloop
  endfacet
  facet normal -1 0 0
    outer loop
      vertex 9.15 4.5 7.79423
      vertex 9.15 15.15 12.15
      vertex 9.15 5.29007 7.28115
    endloop
  endfacet
  facet normal -1 0 0
    outer loop
      vertex 9.15 3.66063 8.22191
      vertex 9.15 15.15 12.15
      vertex 9.15 4.5 7.79423
    endloop
  endfacet
  facet normal -1 0 0
    outer loop
      vertex 9.15 2.78115 8.55951
      vertex 9.15 15.15 12.15
      vertex 9.15 3.66063 8.22191
    endloop
  endfacet
  facet normal -1 0 0
    outer loop
      vertex 9.15 1.8712 8.80333
      vertex 9.15 15.15 12.15
      vertex 9.15 2.78115 8.55951
    endloop
  endfacet
  facet normal -1 0 0
    outer loop
      vertex 9.15 0.940756 8.9507
      vertex 9.15 15.15 12.15
      vertex 9.15 1.8712 8.80333
    endloop
  endfacet
  facet normal -1 0 0
    outer loop
      vertex 9.15 0 9
      vertex 9.15 15.15 12.15
      vertex 9.15 0.940756 8.9507
    endloop
  endfacet
  facet normal -1 0 0
    outer loop
      vertex 9.15 -15.15 12.15
      vertex 9.15 0 9
      vertex 9.15 -0.940756 8.9507
    endloop
  endfacet
  facet normal -1 0 0
    outer loop
      vertex 9.15 -15.15 12.15
      vertex 9.15 -0.940756 8.9507
      vertex 9.15 -1.8712 8.80333
    endloop
  endfacet
  facet normal -1 0 0
    outer loop
      vertex 9.15 -8.9507 -0.940756
      vertex 9.15 -15.15 12.15
      vertex 9.15 -9 0
    endloop
  endfacet
  facet normal -1 0 0
    outer loop
      vertex 9.15 -9 0
      vertex 9.15 -15.15 12.15
      vertex 9.15 -8.9507 0.940756
    endloop
  endfacet
  facet normal -1 0 0
    outer loop
      vertex 9.15 -8.9507 0.940756
      vertex 9.15 -15.15 12.15
      vertex 9.15 -8.80333 1.8712
    endloop
  endfacet
  facet normal -1 0 0
    outer loop
      vertex 9.15 0 9
      vertex 9.15 -15.15 12.15
      vertex 9.15 15.15 12.15
    endloop
  endfacet
  facet normal -1 0 0
    outer loop
      vertex 9.15 -2.78115 8.55951
      vertex 9.15 -15.15 12.15
      vertex 9.15 -1.8712 8.80333
    endloop
  endfacet
  facet normal -1 0 0
    outer loop
      vertex 9.15 -3.66063 8.22191
      vertex 9.15 -15.15 12.15
      vertex 9.15 -2.78115 8.55951
    endloop
  endfacet
  facet normal -1 0 0
    outer loop
      vertex 9.15 -4.5 7.79423
      vertex 9.15 -15.15 12.15
      vertex 9.15 -3.66063 8.22191
    endloop
  endfacet
  facet normal -1 0 0
    outer loop
      vertex 9.15 -5.29007 7.28115
      vertex 9.15 -15.15 12.15
      vertex 9.15 -4.5 7.79423
    endloop
  endfacet
  facet normal -1 0 0
    outer loop
      vertex 9.15 -6.02217 6.6883
      vertex 9.15 -15.15 12.15
      vertex 9.15 -5.29007 7.28115
    endloop
  endfacet
  facet normal -1 0 0
    outer loop
      vertex 9.15 -6.6883 6.02217
      vertex 9.15 -15.15 12.15
      vertex 9.15 -6.02217 6.6883
    endloop
  endfacet
  facet normal -1 0 0
    outer loop
      vertex 9.15 -7.28115 5.29007
      vertex 9.15 -15.15 12.15
      vertex 9.15 -6.6883 6.02217
    endloop
  endfacet
  facet normal -1 0 0
    outer loop
      vertex 9.15 -7.79423 4.5
      vertex 9.15 -15.15 12.15
      vertex 9.15 -7.28115 5.29007
    endloop
  endfacet
  facet normal -1 0 0
    outer loop
      vertex 9.15 -8.22191 3.66063
      vertex 9.15 -15.15 12.15
      vertex 9.15 -7.79423 4.5
    endloop
  endfacet
  facet normal -1 0 0
    outer loop
      vertex 9.15 -8.55951 2.78115
      vertex 9.15 -15.15 12.15
      vertex 9.15 -8.22191 3.66063
    endloop
  endfacet
  facet normal -1 0 0
    outer loop
      vertex 9.15 -8.80333 1.8712
      vertex 9.15 -15.15 12.15
      vertex 9.15 -8.55951 2.78115
    endloop
  endfacet
  facet normal 0 -1 0
    outer loop
      vertex -13.15 15.15 -18.15
      vertex 9.15 15.15 12.15
      vertex -13.15 15.15 12.15
    endloop
  endfacet
  facet normal 0 -1 -0
    outer loop
      vertex 9.15 15.15 12.15
      vertex -13.15 15.15 -18.15
      vertex 9.15 15.15 -18.15
    endloop
  endfacet
  facet normal 0 1 -0
    outer loop
      vertex 9.15 -15.15 -18.15
      vertex -13.15 -15.15 12.15
      vertex 9.15 -15.15 12.15
    endloop
  endfacet
  facet normal 0 1 0
    outer loop
      vertex -13.15 -15.15 12.15
      vertex 9.15 -15.15 -18.15
      vertex -13.15 -15.15 -18.15
    endloop
  endfacet
  facet normal 0 0 -1
    outer loop
      vertex 15.1 4.21487 -0.5
      vertex 21.15 4.25 -0.5
      vertex 21.15 4.21487 -0.5
    endloop
  endfacet
  facet normal -0 0 -1
    outer loop
      vertex 21.15 4.25 -0.5
      vertex 15.1 4.21487 -0.5
      vertex 15.1 4.25 -0.5
    endloop
  endfacet
  facet normal 0 0 -1
    outer loop
      vertex 15.1 -4.25 -0.5
      vertex 21.15 -4.21487 -0.5
      vertex 21.15 -4.25 -0.5
    endloop
  endfacet
  facet normal -0 0 -1
    outer loop
      vertex 21.15 -4.21487 -0.5
      vertex 15.1 -4.25 -0.5
      vertex 15.1 -4.21487 -0.5
    endloop
  endfacet
  facet normal 0 -1 0
    outer loop
      vertex 15.1 4.25 -7.5
      vertex 21.15 4.25 -0.5
      vertex 15.1 4.25 -0.5
    endloop
  endfacet
  facet normal 0 -1 -0
    outer loop
      vertex 21.15 4.25 -0.5
      vertex 15.1 4.25 -7.5
      vertex 21.15 4.25 -7.5
    endloop
  endfacet
  facet normal -0 0 1
    outer loop
      vertex 15.1 4.25 -7.5
      vertex 21.15 -4.25 -7.5
      vertex 21.15 4.25 -7.5
    endloop
  endfacet
  facet normal 0 0 1
    outer loop
      vertex 21.15 -4.25 -7.5
      vertex 15.1 4.25 -7.5
      vertex 15.1 -4.25 -7.5
    endloop
  endfacet
  facet normal 0 1 -0
    outer loop
      vertex 21.15 -4.25 -7.5
      vertex 15.1 -4.25 -0.5
      vertex 21.15 -4.25 -0.5
    endloop
  endfacet
  facet normal 0 1 0
    outer loop
      vertex 15.1 -4.25 -0.5
      vertex 21.15 -4.25 -7.5
      vertex 15.1 -4.25 -7.5
    endloop
  endfacet
endsolid OpenSCAD_Model
