solid OpenSCAD_Model
  facet normal 1 0 0
    outer loop
      vertex 0 21.1421 27.06
      vertex 0 27 33
      vertex 0 21.2 27.5
    endloop
  endfacet
  facet normal 1 0 0
    outer loop
      vertex 0 27 33
      vertex 0 21.1421 27.94
      vertex 0 21.2 27.5
    endloop
  endfacet
  facet normal 1 0 0
    outer loop
      vertex 0 27 33
      vertex 0 20.9722 28.35
      vertex 0 21.1421 27.94
    endloop
  endfacet
  facet normal 1 0 0
    outer loop
      vertex 0 27 33
      vertex 0 20.7021 28.7021
      vertex 0 20.9722 28.35
    endloop
  endfacet
  facet normal 1 0 0
    outer loop
      vertex 0 27 33
      vertex 0 20.35 28.9722
      vertex 0 20.7021 28.7021
    endloop
  endfacet
  facet normal 1 0 0
    outer loop
      vertex 0 27 33
      vertex 0 19.94 29.1421
      vertex 0 20.35 28.9722
    endloop
  endfacet
  facet normal 1 0 0
    outer loop
      vertex 0 27 33
      vertex 0 19.5 29.2
      vertex 0 19.94 29.1421
    endloop
  endfacet
  facet normal 1 0 0
    outer loop
      vertex 0 27 33
      vertex 0 19.06 29.1421
      vertex 0 19.5 29.2
    endloop
  endfacet
  facet normal 1 -0 0
    outer loop
      vertex 0 0 33
      vertex 0 19.06 29.1421
      vertex 0 27 33
    endloop
  endfacet
  facet normal 1 0 0
    outer loop
      vertex 0 17.8579 27.94
      vertex 0 7.2 27.5
      vertex 0 17.8 27.5
    endloop
  endfacet
  facet normal 1 0 0
    outer loop
      vertex 0 7.14206 27.94
      vertex 0 17.8579 27.94
      vertex 0 18.0278 28.35
    endloop
  endfacet
  facet normal 1 0 0
    outer loop
      vertex 0 6.97223 28.35
      vertex 0 18.0278 28.35
      vertex 0 18.2979 28.7021
    endloop
  endfacet
  facet normal 1 0 0
    outer loop
      vertex 0 6.70207 28.7021
      vertex 0 18.2979 28.7021
      vertex 0 18.65 28.9722
    endloop
  endfacet
  facet normal 1 0 -0
    outer loop
      vertex 0 5.93999 29.1421
      vertex 0 19.06 29.1421
      vertex 0 0 33
    endloop
  endfacet
  facet normal 1 0 0
    outer loop
      vertex 0 17.8579 27.94
      vertex 0 7.14206 27.94
      vertex 0 7.2 27.5
    endloop
  endfacet
  facet normal 1 0 0
    outer loop
      vertex 0 18.0278 28.35
      vertex 0 6.97223 28.35
      vertex 0 7.14206 27.94
    endloop
  endfacet
  facet normal 1 0 0
    outer loop
      vertex 0 18.2979 28.7021
      vertex 0 6.70207 28.7021
      vertex 0 6.97223 28.35
    endloop
  endfacet
  facet normal 1 0 0
    outer loop
      vertex 0 18.65 28.9722
      vertex 0 6.34999 28.9722
      vertex 0 6.70207 28.7021
    endloop
  endfacet
  facet normal 1 0 0
    outer loop
      vertex 0 18.65 28.9722
      vertex 0 5.93999 29.1421
      vertex 0 6.34999 28.9722
    endloop
  endfacet
  facet normal 1 0 0
    outer loop
      vertex 0 19.06 29.1421
      vertex 0 5.93999 29.1421
      vertex 0 18.65 28.9722
    endloop
  endfacet
  facet normal 1 0 0
    outer loop
      vertex 0 5.93999 29.1421
      vertex 0 0 33
      vertex 0 5.5 29.2
    endloop
  endfacet
  facet normal 1 0 0
    outer loop
      vertex 0 3.85793 27.94
      vertex 0 0 33
      vertex 0 3.79999 27.5
    endloop
  endfacet
  facet normal 1 0 0
    outer loop
      vertex 0 4.02776 28.35
      vertex 0 0 33
      vertex 0 3.85793 27.94
    endloop
  endfacet
  facet normal 1 0 0
    outer loop
      vertex 0 4.29791 28.7021
      vertex 0 0 33
      vertex 0 4.02776 28.35
    endloop
  endfacet
  facet normal 1 0 0
    outer loop
      vertex 0 4.64999 28.9722
      vertex 0 0 33
      vertex 0 4.29791 28.7021
    endloop
  endfacet
  facet normal 1 0 0
    outer loop
      vertex 0 5.06 29.1421
      vertex 0 0 33
      vertex 0 4.64999 28.9722
    endloop
  endfacet
  facet normal 1 0 0
    outer loop
      vertex 0 5.5 29.2
      vertex 0 0 33
      vertex 0 5.06 29.1421
    endloop
  endfacet
  facet normal 1 0 0
    outer loop
      vertex 0 20.9722 26.65
      vertex 0 27 33
      vertex 0 21.1421 27.06
    endloop
  endfacet
  facet normal 1 0 0
    outer loop
      vertex 0 27 33
      vertex 0 20.9722 26.65
      vertex 0 27 0
    endloop
  endfacet
  facet normal 1 -0 0
    outer loop
      vertex 0 20.7021 26.2979
      vertex 0 27 0
      vertex 0 20.9722 26.65
    endloop
  endfacet
  facet normal 1 -0 0
    outer loop
      vertex 0 20.35 26.0278
      vertex 0 27 0
      vertex 0 20.7021 26.2979
    endloop
  endfacet
  facet normal 1 -0 0
    outer loop
      vertex 0 19.94 25.8579
      vertex 0 27 0
      vertex 0 20.35 26.0278
    endloop
  endfacet
  facet normal 1 -0 0
    outer loop
      vertex 0 19.5 25.8
      vertex 0 27 0
      vertex 0 19.94 25.8579
    endloop
  endfacet
  facet normal 1 0 0
    outer loop
      vertex 0 19.06 25.8579
      vertex 0 27 0
      vertex 0 19.5 25.8
    endloop
  endfacet
  facet normal 1 0 0
    outer loop
      vertex 0 0 0
      vertex 0 19.06 25.8579
      vertex 0 18.65 26.0278
    endloop
  endfacet
  facet normal 1 0 0
    outer loop
      vertex 0 6.34999 26.0278
      vertex 0 18.65 26.0278
      vertex 0 18.2979 26.2979
    endloop
  endfacet
  facet normal 1 0 0
    outer loop
      vertex 0 6.70207 26.2979
      vertex 0 18.2979 26.2979
      vertex 0 18.0278 26.65
    endloop
  endfacet
  facet normal 1 0 0
    outer loop
      vertex 0 6.97223 26.65
      vertex 0 18.0278 26.65
      vertex 0 17.8579 27.06
    endloop
  endfacet
  facet normal 1 -0 0
    outer loop
      vertex 0 7.2 27.5
      vertex 0 17.8579 27.06
      vertex 0 17.8 27.5
    endloop
  endfacet
  facet normal 1 0 0
    outer loop
      vertex 0 7.14206 27.06
      vertex 0 17.8579 27.06
      vertex 0 7.2 27.5
    endloop
  endfacet
  facet normal 1 0 0
    outer loop
      vertex 0 6.97223 26.65
      vertex 0 17.8579 27.06
      vertex 0 7.14206 27.06
    endloop
  endfacet
  facet normal 1 0 0
    outer loop
      vertex 0 18.0278 26.65
      vertex 0 6.97223 26.65
      vertex 0 6.70207 26.2979
    endloop
  endfacet
  facet normal 1 0 0
    outer loop
      vertex 0 18.2979 26.2979
      vertex 0 6.70207 26.2979
      vertex 0 6.34999 26.0278
    endloop
  endfacet
  facet normal 1 0 0
    outer loop
      vertex 0 18.65 26.0278
      vertex 0 6.34999 26.0278
      vertex 0 0 0
    endloop
  endfacet
  facet normal 1 0 0
    outer loop
      vertex 0 0 0
      vertex 0 6.34999 26.0278
      vertex 0 5.93999 25.8579
    endloop
  endfacet
  facet normal 1 0 0
    outer loop
      vertex 0 0 0
      vertex 0 5.93999 25.8579
      vertex 0 5.5 25.8
    endloop
  endfacet
  facet normal 1 0 0
    outer loop
      vertex 0 0 0
      vertex 0 5.5 25.8
      vertex 0 5.06 25.8579
    endloop
  endfacet
  facet normal 1 0 0
    outer loop
      vertex 0 0 0
      vertex 0 5.06 25.8579
      vertex 0 4.64999 26.0278
    endloop
  endfacet
  facet normal 1 0 0
    outer loop
      vertex 0 0 0
      vertex 0 4.64999 26.0278
      vertex 0 4.29791 26.2979
    endloop
  endfacet
  facet normal 1 0 0
    outer loop
      vertex 0 0 33
      vertex 0 3.85793 27.06
      vertex 0 3.79999 27.5
    endloop
  endfacet
  facet normal 1 0 0
    outer loop
      vertex 0 0 33
      vertex 0 4.02776 26.65
      vertex 0 3.85793 27.06
    endloop
  endfacet
  facet normal 1 0 0
    outer loop
      vertex 0 19.06 25.8579
      vertex 0 0 0
      vertex 0 27 0
    endloop
  endfacet
  facet normal 1 0 0
    outer loop
      vertex 0 4.02776 26.65
      vertex 0 0 0
      vertex 0 4.29791 26.2979
    endloop
  endfacet
  facet normal 1 0 0
    outer loop
      vertex 0 0 0
      vertex 0 4.02776 26.65
      vertex 0 0 33
    endloop
  endfacet
  facet normal -1 0 0
    outer loop
      vertex -2 20.7021 26.2979
      vertex -2 21.7978 23
      vertex -2 21.4919 23
    endloop
  endfacet
  facet normal -1 0 0
    outer loop
      vertex -2 21.7978 23
      vertex -2 20.7021 26.2979
      vertex -2 20.9722 26.65
    endloop
  endfacet
  facet normal -1 0 -0
    outer loop
      vertex -2 5.93999 25.8579
      vertex -2 6.34999 26.0278
      vertex -2 0 0
    endloop
  endfacet
  facet normal -1 0 -0
    outer loop
      vertex -2 18.65 26.0278
      vertex -2 19.06 25.8579
      vertex -2 0 0
    endloop
  endfacet
  facet normal -1 0 0
    outer loop
      vertex -2 0 0
      vertex -2 20.6 20.8427
      vertex -2 20.6 0
    endloop
  endfacet
  facet normal -1 -0 0
    outer loop
      vertex -2 20.6 20.8427
      vertex -2 0 0
      vertex -2 19.06 25.8579
    endloop
  endfacet
  facet normal -1 0 0
    outer loop
      vertex -2 19.06 25.8579
      vertex -2 20.6 22.016
      vertex -2 20.6 20.8427
    endloop
  endfacet
  facet normal -1 0 0
    outer loop
      vertex -2 20.6 22.016
      vertex -2 19.06 25.8579
      vertex -2 19.5 25.8
    endloop
  endfacet
  facet normal -1 0 0
    outer loop
      vertex -2 19.5 25.8
      vertex -2 20.6 23
      vertex -2 20.6 22.016
    endloop
  endfacet
  facet normal -1 0 0
    outer loop
      vertex -2 20.6 23
      vertex -2 19.5 25.8
      vertex -2 19.94 25.8579
    endloop
  endfacet
  facet normal -1 0 0
    outer loop
      vertex -2 20.7203 23
      vertex -2 20.6 23
      vertex -2 19.94 25.8579
    endloop
  endfacet
  facet normal -1 0 0
    outer loop
      vertex -2 20.7203 23
      vertex -2 20.35 26.0278
      vertex -2 21.1236 23
    endloop
  endfacet
  facet normal -1 0 -0
    outer loop
      vertex -2 20.35 26.0278
      vertex -2 20.7203 23
      vertex -2 19.94 25.8579
    endloop
  endfacet
  facet normal -1 0 0
    outer loop
      vertex -2 20.35 26.0278
      vertex -2 21.4919 23
      vertex -2 21.1236 23
    endloop
  endfacet
  facet normal -1 0 0
    outer loop
      vertex -2 21.4919 23
      vertex -2 20.35 26.0278
      vertex -2 20.7021 26.2979
    endloop
  endfacet
  facet normal -1 0 0
    outer loop
      vertex -2 20.9722 26.65
      vertex -2 25 23
      vertex -2 21.7978 23
    endloop
  endfacet
  facet normal -1 0 0
    outer loop
      vertex -2 25 23
      vertex -2 20.9722 26.65
      vertex -2 25 30.8931
    endloop
  endfacet
  facet normal -1 0 0
    outer loop
      vertex -2 26.322 32.2857
      vertex -2 27 33
      vertex -2 27 32.2857
    endloop
  endfacet
  facet normal -1 0 0
    outer loop
      vertex -2 3.85793 27.06
      vertex -2 0 33
      vertex -2 3.79999 27.5
    endloop
  endfacet
  facet normal -1 0 0
    outer loop
      vertex -2 0 33
      vertex -2 3.85793 27.06
      vertex -2 4.02776 26.65
    endloop
  endfacet
  facet normal -1 0 0
    outer loop
      vertex -2 17.8579 27.06
      vertex -2 7.2 27.5
      vertex -2 17.8 27.5
    endloop
  endfacet
  facet normal -1 0 0
    outer loop
      vertex -2 7.14206 27.06
      vertex -2 17.8579 27.06
      vertex -2 18.0278 26.65
    endloop
  endfacet
  facet normal -1 0 0
    outer loop
      vertex -2 6.97223 26.65
      vertex -2 18.0278 26.65
      vertex -2 18.2979 26.2979
    endloop
  endfacet
  facet normal -1 0 0
    outer loop
      vertex -2 6.70207 26.2979
      vertex -2 18.2979 26.2979
      vertex -2 18.65 26.0278
    endloop
  endfacet
  facet normal -1 0 0
    outer loop
      vertex -2 17.8579 27.06
      vertex -2 7.14206 27.06
      vertex -2 7.2 27.5
    endloop
  endfacet
  facet normal -1 0 0
    outer loop
      vertex -2 18.0278 26.65
      vertex -2 6.97223 26.65
      vertex -2 7.14206 27.06
    endloop
  endfacet
  facet normal -1 0 0
    outer loop
      vertex -2 18.2979 26.2979
      vertex -2 6.70207 26.2979
      vertex -2 6.97223 26.65
    endloop
  endfacet
  facet normal -1 0 -0
    outer loop
      vertex -2 6.70207 26.2979
      vertex -2 18.65 26.0278
      vertex -2 6.34999 26.0278
    endloop
  endfacet
  facet normal -1 0 0
    outer loop
      vertex -2 21.1421 27.94
      vertex -2 25 30.8931
      vertex -2 21.2 27.5
    endloop
  endfacet
  facet normal -1 0 0
    outer loop
      vertex -2 25 30.8931
      vertex -2 21.1421 27.06
      vertex -2 21.2 27.5
    endloop
  endfacet
  facet normal -1 0 -0
    outer loop
      vertex -2 21.1421 27.06
      vertex -2 25 30.8931
      vertex -2 20.9722 26.65
    endloop
  endfacet
  facet normal -1 0 0
    outer loop
      vertex -2 25 32.2857
      vertex -2 27 33
      vertex -2 26.322 32.2857
    endloop
  endfacet
  facet normal -1 0 0
    outer loop
      vertex -2 20.9722 28.35
      vertex -2 25 30.8931
      vertex -2 21.1421 27.94
    endloop
  endfacet
  facet normal -1 0 0
    outer loop
      vertex -2 20.7021 28.7021
      vertex -2 25 30.8931
      vertex -2 20.9722 28.35
    endloop
  endfacet
  facet normal -1 0 0
    outer loop
      vertex -2 20.35 28.9722
      vertex -2 25 30.8931
      vertex -2 20.7021 28.7021
    endloop
  endfacet
  facet normal -1 -0 0
    outer loop
      vertex -2 25 30.8931
      vertex -2 20.35 28.9722
      vertex -2 25 32.2857
    endloop
  endfacet
  facet normal -1 0 0
    outer loop
      vertex -2 19.94 29.1421
      vertex -2 25 32.2857
      vertex -2 20.35 28.9722
    endloop
  endfacet
  facet normal -1 0 0
    outer loop
      vertex -2 19.5 29.2
      vertex -2 25 32.2857
      vertex -2 19.94 29.1421
    endloop
  endfacet
  facet normal -1 0 0
    outer loop
      vertex -2 19.06 29.1421
      vertex -2 25 32.2857
      vertex -2 19.5 29.2
    endloop
  endfacet
  facet normal -1 0 0
    outer loop
      vertex -2 5.93999 29.1421
      vertex -2 19.06 29.1421
      vertex -2 18.65 28.9722
    endloop
  endfacet
  facet normal -1 0 0
    outer loop
      vertex -2 7.2 27.5
      vertex -2 17.8579 27.94
      vertex -2 17.8 27.5
    endloop
  endfacet
  facet normal -1 0 0
    outer loop
      vertex -2 7.14206 27.94
      vertex -2 17.8579 27.94
      vertex -2 7.2 27.5
    endloop
  endfacet
  facet normal -1 0 0
    outer loop
      vertex -2 17.8579 27.94
      vertex -2 7.14206 27.94
      vertex -2 18.0278 28.35
    endloop
  endfacet
  facet normal -1 0 0
    outer loop
      vertex -2 6.97223 28.35
      vertex -2 18.0278 28.35
      vertex -2 7.14206 27.94
    endloop
  endfacet
  facet normal -1 0 0
    outer loop
      vertex -2 18.0278 28.35
      vertex -2 6.97223 28.35
      vertex -2 18.2979 28.7021
    endloop
  endfacet
  facet normal -1 0 0
    outer loop
      vertex -2 6.70207 28.7021
      vertex -2 18.2979 28.7021
      vertex -2 6.97223 28.35
    endloop
  endfacet
  facet normal -1 0 0
    outer loop
      vertex -2 18.2979 28.7021
      vertex -2 6.70207 28.7021
      vertex -2 18.65 28.9722
    endloop
  endfacet
  facet normal -1 0 0
    outer loop
      vertex -2 6.34999 28.9722
      vertex -2 18.65 28.9722
      vertex -2 6.70207 28.7021
    endloop
  endfacet
  facet normal -1 0 0
    outer loop
      vertex -2 5.93999 29.1421
      vertex -2 18.65 28.9722
      vertex -2 6.34999 28.9722
    endloop
  endfacet
  facet normal -1 0 0
    outer loop
      vertex -2 19.06 29.1421
      vertex -2 5.93999 29.1421
      vertex -2 0 33
    endloop
  endfacet
  facet normal -1 0 0
    outer loop
      vertex -2 19.06 29.1421
      vertex -2 0 33
      vertex -2 25 32.2857
    endloop
  endfacet
  facet normal -1 0 0
    outer loop
      vertex -2 0 33
      vertex -2 5.93999 29.1421
      vertex -2 5.5 29.2
    endloop
  endfacet
  facet normal -1 0 0
    outer loop
      vertex -2 0 33
      vertex -2 5.5 29.2
      vertex -2 5.06 29.1421
    endloop
  endfacet
  facet normal -1 0 0
    outer loop
      vertex -2 25 32.2857
      vertex -2 0 33
      vertex -2 27 33
    endloop
  endfacet
  facet normal -1 0 0
    outer loop
      vertex -2 4.64999 28.9722
      vertex -2 0 33
      vertex -2 5.06 29.1421
    endloop
  endfacet
  facet normal -1 0 0
    outer loop
      vertex -2 4.29791 28.7021
      vertex -2 0 33
      vertex -2 4.64999 28.9722
    endloop
  endfacet
  facet normal -1 0 0
    outer loop
      vertex -2 4.02776 28.35
      vertex -2 0 33
      vertex -2 4.29791 28.7021
    endloop
  endfacet
  facet normal -1 0 0
    outer loop
      vertex -2 3.85793 27.94
      vertex -2 0 33
      vertex -2 4.02776 28.35
    endloop
  endfacet
  facet normal -1 0 0
    outer loop
      vertex -2 0 33
      vertex -2 3.85793 27.94
      vertex -2 3.79999 27.5
    endloop
  endfacet
  facet normal -1 0 -0
    outer loop
      vertex -2 6.34999 26.0278
      vertex -2 18.65 26.0278
      vertex -2 0 0
    endloop
  endfacet
  facet normal -1 0 0
    outer loop
      vertex -2 0 33
      vertex -2 4.02776 26.65
      vertex -2 0 0
    endloop
  endfacet
  facet normal -1 0 -0
    outer loop
      vertex -2 4.02776 26.65
      vertex -2 4.29791 26.2979
      vertex -2 0 0
    endloop
  endfacet
  facet normal -1 0 -0
    outer loop
      vertex -2 4.29791 26.2979
      vertex -2 4.64999 26.0278
      vertex -2 0 0
    endloop
  endfacet
  facet normal -1 0 -0
    outer loop
      vertex -2 4.64999 26.0278
      vertex -2 5.06 25.8579
      vertex -2 0 0
    endloop
  endfacet
  facet normal -1 0 -0
    outer loop
      vertex -2 5.5 25.8
      vertex -2 5.93999 25.8579
      vertex -2 0 0
    endloop
  endfacet
  facet normal -1 0 -0
    outer loop
      vertex -2 5.06 25.8579
      vertex -2 5.5 25.8
      vertex -2 0 0
    endloop
  endfacet
  facet normal 0 1 0
    outer loop
      vertex 0 27 33
      vertex -2 27 32.2857
      vertex -2 27 33
    endloop
  endfacet
  facet normal 0 1 0
    outer loop
      vertex 0 27 33
      vertex -4.66667 27 28
      vertex -2 27 32.2857
    endloop
  endfacet
  facet normal 0 1 -0
    outer loop
      vertex 0 27 0
      vertex -4.66667 27 28
      vertex 0 27 33
    endloop
  endfacet
  facet normal 0 1 0
    outer loop
      vertex -4.66667 27 28
      vertex 0 27 0
      vertex -4.66667 27 0
    endloop
  endfacet
  facet normal 0 1 0
    outer loop
      vertex -14 27 28
      vertex -2 27 32.2857
      vertex -4.66667 27 28
    endloop
  endfacet
  facet normal 0 0 0
    outer loop
      vertex -14 27 28
      vertex -14 27 24.761
      vertex -14 27 0.897471
    endloop
  endfacet
  facet normal 0 0 0
    outer loop
      vertex -14 27 28
      vertex -14 27 0.897471
      vertex -14 27 0.834099
    endloop
  endfacet
  facet normal 0 0 0
    outer loop
      vertex -14 27 0.667033
      vertex -14 27 28
      vertex -14 27 0.834099
    endloop
  endfacet
  facet normal 0 0 0
    outer loop
      vertex -14 27 0.834099
      vertex -14 27 0.754717
      vertex -14 27 0.667033
    endloop
  endfacet
  facet normal 0 0 -1
    outer loop
      vertex -2 20.6 0
      vertex 0 0 0
      vertex -2 0 0
    endloop
  endfacet
  facet normal 0 0 -1
    outer loop
      vertex 0 0 0
      vertex -2 20.6 0
      vertex 0 27 0
    endloop
  endfacet
  facet normal 0 0 -1
    outer loop
      vertex -2 20.6 0
      vertex -4.66667 27 0
      vertex 0 27 0
    endloop
  endfacet
  facet normal 0 0 -1
    outer loop
      vertex -9.33333 25 0
      vertex -4.66667 27 0
      vertex -2 20.6 0
    endloop
  endfacet
  facet normal 0 0 -1
    outer loop
      vertex -9.33333 25 0
      vertex -12 31.4 0
      vertex -4.66667 27 0
    endloop
  endfacet
  facet normal 0 0 -1
    outer loop
      vertex -14 25 0
      vertex -12 31.4 0
      vertex -9.33333 25 0
    endloop
  endfacet
  facet normal 0 0 -1
    outer loop
      vertex -14 45 0
      vertex -12 31.4 0
      vertex -14 25 0
    endloop
  endfacet
  facet normal 0 0 -1
    outer loop
      vertex -12 31.4 0
      vertex -14 45 0
      vertex -12 45 0
    endloop
  endfacet
  facet normal 0 -1 0
    outer loop
      vertex -2 0 0
      vertex 0 0 33
      vertex -2 0 33
    endloop
  endfacet
  facet normal 0 -1 -0
    outer loop
      vertex 0 0 33
      vertex -2 0 0
      vertex 0 0 0
    endloop
  endfacet
  facet normal -0 0 1
    outer loop
      vertex -2 27 33
      vertex 0 0 33
      vertex 0 27 33
    endloop
  endfacet
  facet normal 0 0 1
    outer loop
      vertex 0 0 33
      vertex -2 27 33
      vertex -2 0 33
    endloop
  endfacet
  facet normal 0 0.923822 0.382823
    outer loop
      vertex 0 18.0278 26.65
      vertex -2 17.8579 27.06
      vertex 0 17.8579 27.06
    endloop
  endfacet
  facet normal 0 0.923822 0.382823
    outer loop
      vertex -2 17.8579 27.06
      vertex 0 18.0278 26.65
      vertex -2 18.0278 26.65
    endloop
  endfacet
  facet normal 0 0.793436 0.608654
    outer loop
      vertex 0 18.2979 26.2979
      vertex -2 18.0278 26.65
      vertex 0 18.0278 26.65
    endloop
  endfacet
  facet normal 0 0.793436 0.608654
    outer loop
      vertex -2 18.0278 26.65
      vertex 0 18.2979 26.2979
      vertex -2 18.2979 26.2979
    endloop
  endfacet
  facet normal -0 0.608654 0.793436
    outer loop
      vertex -2 18.65 26.0278
      vertex 0 18.2979 26.2979
      vertex 0 18.65 26.0278
    endloop
  endfacet
  facet normal 0 0.608654 0.793436
    outer loop
      vertex 0 18.2979 26.2979
      vertex -2 18.65 26.0278
      vertex -2 18.2979 26.2979
    endloop
  endfacet
  facet normal -0 0.382823 0.923822
    outer loop
      vertex -2 19.06 25.8579
      vertex 0 18.65 26.0278
      vertex 0 19.06 25.8579
    endloop
  endfacet
  facet normal 0 0.382823 0.923822
    outer loop
      vertex 0 18.65 26.0278
      vertex -2 19.06 25.8579
      vertex -2 18.65 26.0278
    endloop
  endfacet
  facet normal -0 0.130466 0.991453
    outer loop
      vertex -2 19.5 25.8
      vertex 0 19.06 25.8579
      vertex 0 19.5 25.8
    endloop
  endfacet
  facet normal 0 0.130466 0.991453
    outer loop
      vertex 0 19.06 25.8579
      vertex -2 19.5 25.8
      vertex -2 19.06 25.8579
    endloop
  endfacet
  facet normal 0 -0.130466 0.991453
    outer loop
      vertex -2 19.94 25.8579
      vertex 0 19.5 25.8
      vertex 0 19.94 25.8579
    endloop
  endfacet
  facet normal 0 -0.130466 0.991453
    outer loop
      vertex 0 19.5 25.8
      vertex -2 19.94 25.8579
      vertex -2 19.5 25.8
    endloop
  endfacet
  facet normal 0 -0.382823 0.923822
    outer loop
      vertex -2 20.35 26.0278
      vertex 0 19.94 25.8579
      vertex 0 20.35 26.0278
    endloop
  endfacet
  facet normal 0 -0.382823 0.923822
    outer loop
      vertex 0 19.94 25.8579
      vertex -2 20.35 26.0278
      vertex -2 19.94 25.8579
    endloop
  endfacet
  facet normal 0 -0.608654 0.793436
    outer loop
      vertex -2 20.7021 26.2979
      vertex 0 20.35 26.0278
      vertex 0 20.7021 26.2979
    endloop
  endfacet
  facet normal 0 -0.608654 0.793436
    outer loop
      vertex 0 20.35 26.0278
      vertex -2 20.7021 26.2979
      vertex -2 20.35 26.0278
    endloop
  endfacet
  facet normal 0 -0.793436 0.608654
    outer loop
      vertex -2 20.7021 26.2979
      vertex 0 20.9722 26.65
      vertex -2 20.9722 26.65
    endloop
  endfacet
  facet normal 0 -0.793436 0.608654
    outer loop
      vertex 0 20.9722 26.65
      vertex -2 20.7021 26.2979
      vertex 0 20.7021 26.2979
    endloop
  endfacet
  facet normal 0 -0.923822 0.382823
    outer loop
      vertex -2 20.9722 26.65
      vertex 0 21.1421 27.06
      vertex -2 21.1421 27.06
    endloop
  endfacet
  facet normal 0 -0.923822 0.382823
    outer loop
      vertex 0 21.1421 27.06
      vertex -2 20.9722 26.65
      vertex 0 20.9722 26.65
    endloop
  endfacet
  facet normal 0 -0.991453 0.130466
    outer loop
      vertex -2 21.1421 27.06
      vertex 0 21.2 27.5
      vertex -2 21.2 27.5
    endloop
  endfacet
  facet normal 0 -0.991453 0.130466
    outer loop
      vertex 0 21.2 27.5
      vertex -2 21.1421 27.06
      vertex 0 21.1421 27.06
    endloop
  endfacet
  facet normal 0 -0.991453 -0.130466
    outer loop
      vertex -2 21.2 27.5
      vertex 0 21.1421 27.94
      vertex -2 21.1421 27.94
    endloop
  endfacet
  facet normal 0 -0.991453 -0.130466
    outer loop
      vertex 0 21.1421 27.94
      vertex -2 21.2 27.5
      vertex 0 21.2 27.5
    endloop
  endfacet
  facet normal 0 -0.923822 -0.382823
    outer loop
      vertex -2 21.1421 27.94
      vertex 0 20.9722 28.35
      vertex -2 20.9722 28.35
    endloop
  endfacet
  facet normal 0 -0.923822 -0.382823
    outer loop
      vertex 0 20.9722 28.35
      vertex -2 21.1421 27.94
      vertex 0 21.1421 27.94
    endloop
  endfacet
  facet normal 0 -0.793436 -0.608654
    outer loop
      vertex -2 20.9722 28.35
      vertex 0 20.7021 28.7021
      vertex -2 20.7021 28.7021
    endloop
  endfacet
  facet normal 0 -0.793436 -0.608654
    outer loop
      vertex 0 20.7021 28.7021
      vertex -2 20.9722 28.35
      vertex 0 20.9722 28.35
    endloop
  endfacet
  facet normal 0 -0.608654 -0.793436
    outer loop
      vertex -2 20.35 28.9722
      vertex 0 20.7021 28.7021
      vertex 0 20.35 28.9722
    endloop
  endfacet
  facet normal -0 -0.608654 -0.793436
    outer loop
      vertex 0 20.7021 28.7021
      vertex -2 20.35 28.9722
      vertex -2 20.7021 28.7021
    endloop
  endfacet
  facet normal 0 -0.382823 -0.923822
    outer loop
      vertex -2 19.94 29.1421
      vertex 0 20.35 28.9722
      vertex 0 19.94 29.1421
    endloop
  endfacet
  facet normal -0 -0.382823 -0.923822
    outer loop
      vertex 0 20.35 28.9722
      vertex -2 19.94 29.1421
      vertex -2 20.35 28.9722
    endloop
  endfacet
  facet normal 0 -0.130466 -0.991453
    outer loop
      vertex -2 19.5 29.2
      vertex 0 19.94 29.1421
      vertex 0 19.5 29.2
    endloop
  endfacet
  facet normal -0 -0.130466 -0.991453
    outer loop
      vertex 0 19.94 29.1421
      vertex -2 19.5 29.2
      vertex -2 19.94 29.1421
    endloop
  endfacet
  facet normal 0 0.130466 -0.991453
    outer loop
      vertex -2 19.06 29.1421
      vertex 0 19.5 29.2
      vertex 0 19.06 29.1421
    endloop
  endfacet
  facet normal 0 0.130466 -0.991453
    outer loop
      vertex 0 19.5 29.2
      vertex -2 19.06 29.1421
      vertex -2 19.5 29.2
    endloop
  endfacet
  facet normal 0 0.382823 -0.923822
    outer loop
      vertex -2 18.65 28.9722
      vertex 0 19.06 29.1421
      vertex 0 18.65 28.9722
    endloop
  endfacet
  facet normal 0 0.382823 -0.923822
    outer loop
      vertex 0 19.06 29.1421
      vertex -2 18.65 28.9722
      vertex -2 19.06 29.1421
    endloop
  endfacet
  facet normal 0 0.608654 -0.793436
    outer loop
      vertex -2 18.2979 28.7021
      vertex 0 18.65 28.9722
      vertex 0 18.2979 28.7021
    endloop
  endfacet
  facet normal 0 0.608654 -0.793436
    outer loop
      vertex 0 18.65 28.9722
      vertex -2 18.2979 28.7021
      vertex -2 18.65 28.9722
    endloop
  endfacet
  facet normal 0 0.793436 -0.608654
    outer loop
      vertex 0 18.0278 28.35
      vertex -2 18.2979 28.7021
      vertex 0 18.2979 28.7021
    endloop
  endfacet
  facet normal 0 0.793436 -0.608654
    outer loop
      vertex -2 18.2979 28.7021
      vertex 0 18.0278 28.35
      vertex -2 18.0278 28.35
    endloop
  endfacet
  facet normal 0 0.923822 -0.382823
    outer loop
      vertex 0 17.8579 27.94
      vertex -2 18.0278 28.35
      vertex 0 18.0278 28.35
    endloop
  endfacet
  facet normal 0 0.923822 -0.382823
    outer loop
      vertex -2 18.0278 28.35
      vertex 0 17.8579 27.94
      vertex -2 17.8579 27.94
    endloop
  endfacet
  facet normal 0 0.991453 -0.130466
    outer loop
      vertex 0 17.8 27.5
      vertex -2 17.8579 27.94
      vertex 0 17.8579 27.94
    endloop
  endfacet
  facet normal 0 0.991453 -0.130466
    outer loop
      vertex -2 17.8579 27.94
      vertex 0 17.8 27.5
      vertex -2 17.8 27.5
    endloop
  endfacet
  facet normal 0 0.991453 0.130466
    outer loop
      vertex 0 17.8579 27.06
      vertex -2 17.8 27.5
      vertex 0 17.8 27.5
    endloop
  endfacet
  facet normal 0 0.991453 0.130466
    outer loop
      vertex -2 17.8 27.5
      vertex 0 17.8579 27.06
      vertex -2 17.8579 27.06
    endloop
  endfacet
  facet normal 0 0.923878 0.382688
    outer loop
      vertex 0 4.02776 26.65
      vertex -2 3.85793 27.06
      vertex 0 3.85793 27.06
    endloop
  endfacet
  facet normal 0 0.923878 0.382688
    outer loop
      vertex -2 3.85793 27.06
      vertex 0 4.02776 26.65
      vertex -2 4.02776 26.65
    endloop
  endfacet
  facet normal 0 0.793381 0.608725
    outer loop
      vertex 0 4.29791 26.2979
      vertex -2 4.02776 26.65
      vertex 0 4.02776 26.65
    endloop
  endfacet
  facet normal 0 0.793381 0.608725
    outer loop
      vertex -2 4.02776 26.65
      vertex 0 4.29791 26.2979
      vertex -2 4.29791 26.2979
    endloop
  endfacet
  facet normal -0 0.608676 0.793419
    outer loop
      vertex -2 4.64999 26.0278
      vertex 0 4.29791 26.2979
      vertex 0 4.64999 26.0278
    endloop
  endfacet
  facet normal 0 0.608676 0.793419
    outer loop
      vertex 0 4.29791 26.2979
      vertex -2 4.64999 26.0278
      vertex -2 4.29791 26.2979
    endloop
  endfacet
  facet normal -0 0.382815 0.923825
    outer loop
      vertex -2 5.06 25.8579
      vertex 0 4.64999 26.0278
      vertex 0 5.06 25.8579
    endloop
  endfacet
  facet normal 0 0.382815 0.923825
    outer loop
      vertex 0 4.64999 26.0278
      vertex -2 5.06 25.8579
      vertex -2 4.64999 26.0278
    endloop
  endfacet
  facet normal -0 0.130466 0.991453
    outer loop
      vertex -2 5.5 25.8
      vertex 0 5.06 25.8579
      vertex 0 5.5 25.8
    endloop
  endfacet
  facet normal 0 0.130466 0.991453
    outer loop
      vertex 0 5.06 25.8579
      vertex -2 5.5 25.8
      vertex -2 5.06 25.8579
    endloop
  endfacet
  facet normal 0 -0.130469 0.991452
    outer loop
      vertex -2 5.93999 25.8579
      vertex 0 5.5 25.8
      vertex 0 5.93999 25.8579
    endloop
  endfacet
  facet normal 0 -0.130469 0.991452
    outer loop
      vertex 0 5.5 25.8
      vertex -2 5.93999 25.8579
      vertex -2 5.5 25.8
    endloop
  endfacet
  facet normal 0 -0.382823 0.923822
    outer loop
      vertex -2 6.34999 26.0278
      vertex 0 5.93999 25.8579
      vertex 0 6.34999 26.0278
    endloop
  endfacet
  facet normal 0 -0.382823 0.923822
    outer loop
      vertex 0 5.93999 25.8579
      vertex -2 6.34999 26.0278
      vertex -2 5.93999 25.8579
    endloop
  endfacet
  facet normal 0 -0.608676 0.793419
    outer loop
      vertex -2 6.70207 26.2979
      vertex 0 6.34999 26.0278
      vertex 0 6.70207 26.2979
    endloop
  endfacet
  facet normal 0 -0.608676 0.793419
    outer loop
      vertex 0 6.34999 26.0278
      vertex -2 6.70207 26.2979
      vertex -2 6.34999 26.0278
    endloop
  endfacet
  facet normal 0 -0.793371 0.608739
    outer loop
      vertex -2 6.70207 26.2979
      vertex 0 6.97223 26.65
      vertex -2 6.97223 26.65
    endloop
  endfacet
  facet normal 0 -0.793371 0.608739
    outer loop
      vertex 0 6.97223 26.65
      vertex -2 6.70207 26.2979
      vertex 0 6.70207 26.2979
    endloop
  endfacet
  facet normal 0 -0.923878 0.382688
    outer loop
      vertex -2 6.97223 26.65
      vertex 0 7.14206 27.06
      vertex -2 7.14206 27.06
    endloop
  endfacet
  facet normal 0 -0.923878 0.382688
    outer loop
      vertex 0 7.14206 27.06
      vertex -2 6.97223 26.65
      vertex 0 6.97223 26.65
    endloop
  endfacet
  facet normal 0 -0.991441 0.130555
    outer loop
      vertex -2 7.14206 27.06
      vertex 0 7.2 27.5
      vertex -2 7.2 27.5
    endloop
  endfacet
  facet normal 0 -0.991441 0.130555
    outer loop
      vertex 0 7.2 27.5
      vertex -2 7.14206 27.06
      vertex 0 7.14206 27.06
    endloop
  endfacet
  facet normal 0 -0.991441 -0.130555
    outer loop
      vertex -2 7.2 27.5
      vertex 0 7.14206 27.94
      vertex -2 7.14206 27.94
    endloop
  endfacet
  facet normal 0 -0.991441 -0.130555
    outer loop
      vertex 0 7.14206 27.94
      vertex -2 7.2 27.5
      vertex 0 7.2 27.5
    endloop
  endfacet
  facet normal 0 -0.923878 -0.382688
    outer loop
      vertex -2 7.14206 27.94
      vertex 0 6.97223 28.35
      vertex -2 6.97223 28.35
    endloop
  endfacet
  facet normal 0 -0.923878 -0.382688
    outer loop
      vertex 0 6.97223 28.35
      vertex -2 7.14206 27.94
      vertex 0 7.14206 27.94
    endloop
  endfacet
  facet normal 0 -0.793371 -0.608739
    outer loop
      vertex -2 6.97223 28.35
      vertex 0 6.70207 28.7021
      vertex -2 6.70207 28.7021
    endloop
  endfacet
  facet normal 0 -0.793371 -0.608739
    outer loop
      vertex 0 6.70207 28.7021
      vertex -2 6.97223 28.35
      vertex 0 6.97223 28.35
    endloop
  endfacet
  facet normal 0 -0.608676 -0.793419
    outer loop
      vertex -2 6.34999 28.9722
      vertex 0 6.70207 28.7021
      vertex 0 6.34999 28.9722
    endloop
  endfacet
  facet normal -0 -0.608676 -0.793419
    outer loop
      vertex 0 6.70207 28.7021
      vertex -2 6.34999 28.9722
      vertex -2 6.70207 28.7021
    endloop
  endfacet
  facet normal 0 -0.382823 -0.923822
    outer loop
      vertex -2 5.93999 29.1421
      vertex 0 6.34999 28.9722
      vertex 0 5.93999 29.1421
    endloop
  endfacet
  facet normal -0 -0.382823 -0.923822
    outer loop
      vertex 0 6.34999 28.9722
      vertex -2 5.93999 29.1421
      vertex -2 6.34999 28.9722
    endloop
  endfacet
  facet normal 0 -0.130469 -0.991452
    outer loop
      vertex -2 5.5 29.2
      vertex 0 5.93999 29.1421
      vertex 0 5.5 29.2
    endloop
  endfacet
  facet normal -0 -0.130469 -0.991452
    outer loop
      vertex 0 5.93999 29.1421
      vertex -2 5.5 29.2
      vertex -2 5.93999 29.1421
    endloop
  endfacet
  facet normal 0 0.130466 -0.991453
    outer loop
      vertex -2 5.06 29.1421
      vertex 0 5.5 29.2
      vertex 0 5.06 29.1421
    endloop
  endfacet
  facet normal 0 0.130466 -0.991453
    outer loop
      vertex 0 5.5 29.2
      vertex -2 5.06 29.1421
      vertex -2 5.5 29.2
    endloop
  endfacet
  facet normal 0 0.382815 -0.923825
    outer loop
      vertex -2 4.64999 28.9722
      vertex 0 5.06 29.1421
      vertex 0 4.64999 28.9722
    endloop
  endfacet
  facet normal 0 0.382815 -0.923825
    outer loop
      vertex 0 5.06 29.1421
      vertex -2 4.64999 28.9722
      vertex -2 5.06 29.1421
    endloop
  endfacet
  facet normal 0 0.608676 -0.793419
    outer loop
      vertex -2 4.29791 28.7021
      vertex 0 4.64999 28.9722
      vertex 0 4.29791 28.7021
    endloop
  endfacet
  facet normal 0 0.608676 -0.793419
    outer loop
      vertex 0 4.64999 28.9722
      vertex -2 4.29791 28.7021
      vertex -2 4.64999 28.9722
    endloop
  endfacet
  facet normal 0 0.793381 -0.608725
    outer loop
      vertex 0 4.02776 28.35
      vertex -2 4.29791 28.7021
      vertex 0 4.29791 28.7021
    endloop
  endfacet
  facet normal 0 0.793381 -0.608725
    outer loop
      vertex -2 4.29791 28.7021
      vertex 0 4.02776 28.35
      vertex -2 4.02776 28.35
    endloop
  endfacet
  facet normal 0 0.923878 -0.382688
    outer loop
      vertex 0 3.85793 27.94
      vertex -2 4.02776 28.35
      vertex 0 4.02776 28.35
    endloop
  endfacet
  facet normal 0 0.923878 -0.382688
    outer loop
      vertex -2 4.02776 28.35
      vertex 0 3.85793 27.94
      vertex -2 3.85793 27.94
    endloop
  endfacet
  facet normal 0 0.991441 -0.130555
    outer loop
      vertex 0 3.79999 27.5
      vertex -2 3.85793 27.94
      vertex 0 3.85793 27.94
    endloop
  endfacet
  facet normal 0 0.991441 -0.130555
    outer loop
      vertex -2 3.85793 27.94
      vertex 0 3.79999 27.5
      vertex -2 3.79999 27.5
    endloop
  endfacet
  facet normal 0 0.991441 0.130555
    outer loop
      vertex 0 3.85793 27.06
      vertex -2 3.79999 27.5
      vertex 0 3.79999 27.5
    endloop
  endfacet
  facet normal 0 0.991441 0.130555
    outer loop
      vertex -2 3.79999 27.5
      vertex 0 3.85793 27.06
      vertex -2 3.85793 27.06
    endloop
  endfacet
  facet normal -0.336335 0 0.941742
    outer loop
      vertex -14 27 28
      vertex -2 26.322 32.2857
      vertex -2 27 32.2857
    endloop
  endfacet
  facet normal -0.336335 0 0.941742
    outer loop
      vertex -14 25 28
      vertex -2 26.322 32.2857
      vertex -14 27 28
    endloop
  endfacet
  facet normal -0.336335 0 0.941742
    outer loop
      vertex -2 26.322 32.2857
      vertex -14 25 28
      vertex -2 25 32.2857
    endloop
  endfacet
  facet normal 0 -1 0
    outer loop
      vertex -14 25 0
      vertex -9.33333 25 23
      vertex -14 25 28
    endloop
  endfacet
  facet normal 0 -1 -0
    outer loop
      vertex -9.33333 25 23
      vertex -14 25 0
      vertex -9.33333 25 0
    endloop
  endfacet
  facet normal 0 -1 0
    outer loop
      vertex -14 25 28
      vertex -2 25 30.8931
      vertex -2 25 32.2857
    endloop
  endfacet
  facet normal 0 -1 0
    outer loop
      vertex -9.33333 25 23
      vertex -2 25 30.8931
      vertex -14 25 28
    endloop
  endfacet
  facet normal 0 -1 -0
    outer loop
      vertex -2 25 30.8931
      vertex -9.33333 25 23
      vertex -2 25 23
    endloop
  endfacet
  facet normal -1 0 0
    outer loop
      vertex -14 45 0
      vertex -14 42.2619 3.92499
      vertex -14 42.4767 4.44353
    endloop
  endfacet
  facet normal -1 0 0
    outer loop
      vertex -14 45 0
      vertex -14 41.9203 3.47971
      vertex -14 42.2619 3.92499
    endloop
  endfacet
  facet normal -1 0 0
    outer loop
      vertex -14 45 0
      vertex -14 41.475 3.13803
      vertex -14 41.9203 3.47971
    endloop
  endfacet
  facet normal -1 0 0
    outer loop
      vertex -14 45 0
      vertex -14 40.9565 2.92325
      vertex -14 41.475 3.13803
    endloop
  endfacet
  facet normal -1 0 0
    outer loop
      vertex -14 45 0
      vertex -14 40.4 2.84999
      vertex -14 40.9565 2.92325
    endloop
  endfacet
  facet normal -1 0 0
    outer loop
      vertex -14 45 0
      vertex -14 39.8435 2.92325
      vertex -14 40.4 2.84999
    endloop
  endfacet
  facet normal -1 0 0
    outer loop
      vertex -14 27 0.667033
      vertex -14 39.8435 2.92325
      vertex -14 45 0
    endloop
  endfacet
  facet normal -1 -0 0
    outer loop
      vertex -14 38.538 3.92499
      vertex -14 27 0.667033
      vertex -14 38.3233 4.44353
    endloop
  endfacet
  facet normal -1 -0 0
    outer loop
      vertex -14 38.8797 3.47971
      vertex -14 27 0.667033
      vertex -14 38.538 3.92499
    endloop
  endfacet
  facet normal -1 -0 0
    outer loop
      vertex -14 39.325 3.13803
      vertex -14 27 0.667033
      vertex -14 38.8797 3.47971
    endloop
  endfacet
  facet normal -1 -0 0
    outer loop
      vertex -14 39.8435 2.92325
      vertex -14 27 0.667033
      vertex -14 39.325 3.13803
    endloop
  endfacet
  facet normal -1 0 0
    outer loop
      vertex -14 25 0
      vertex -14 27 0.667033
      vertex -14 45 0
    endloop
  endfacet
  facet normal -1 0 0
    outer loop
      vertex -14 25 28
      vertex -14 27 0.667033
      vertex -14 25 0
    endloop
  endfacet
  facet normal -1 0 0
    outer loop
      vertex -14 27 0.667033
      vertex -14 25 28
      vertex -14 27 28
    endloop
  endfacet
  facet normal 1 0 0
    outer loop
      vertex -12 42.4767 5.55646
      vertex -12 42.55 5
      vertex -12 45 0
    endloop
  endfacet
  facet normal 1 0 0
    outer loop
      vertex -12 31.4 2.66912
      vertex -12 38.25 5
      vertex -12 38.3233 5.55646
    endloop
  endfacet
  facet normal 1 0 0
    outer loop
      vertex -12 38.25 5
      vertex -12 31.4 2.66912
      vertex -12 31.4 2.41509
    endloop
  endfacet
  facet normal 1 0 0
    outer loop
      vertex -12 31.4 2.41509
      vertex -12 38.3233 4.44353
      vertex -12 38.25 5
    endloop
  endfacet
  facet normal 1 0 0
    outer loop
      vertex -12 38.3233 4.44353
      vertex -12 31.4 2.41509
      vertex -12 31.4 2.13451
    endloop
  endfacet
  facet normal 1 0 0
    outer loop
      vertex -12 31.4 2.13451
      vertex -12 38.538 3.92499
      vertex -12 38.3233 4.44353
    endloop
  endfacet
  facet normal 1 0 0
    outer loop
      vertex -12 38.538 3.92499
      vertex -12 31.4 2.13451
      vertex -12 31.4 1.85551
    endloop
  endfacet
  facet normal 1 -0 0
    outer loop
      vertex -12 41.9203 3.47971
      vertex -12 45 0
      vertex -12 42.2619 3.92499
    endloop
  endfacet
  facet normal 1 -0 0
    outer loop
      vertex -12 41.475 3.13803
      vertex -12 45 0
      vertex -12 41.9203 3.47971
    endloop
  endfacet
  facet normal 1 -0 0
    outer loop
      vertex -12 40.9565 2.92325
      vertex -12 45 0
      vertex -12 41.475 3.13803
    endloop
  endfacet
  facet normal 1 -0 0
    outer loop
      vertex -12 40.4 2.84999
      vertex -12 45 0
      vertex -12 40.9565 2.92325
    endloop
  endfacet
  facet normal 1 0 0
    outer loop
      vertex -12 39.8435 2.92325
      vertex -12 45 0
      vertex -12 40.4 2.84999
    endloop
  endfacet
  facet normal 1 0 0
    outer loop
      vertex -12 31.4 0
      vertex -12 39.8435 2.92325
      vertex -12 39.325 3.13803
    endloop
  endfacet
  facet normal 1 0 0
    outer loop
      vertex -12 31.4 1.85551
      vertex -12 38.8797 3.47971
      vertex -12 38.538 3.92499
    endloop
  endfacet
  facet normal 1 0 0
    outer loop
      vertex -12 31.4 0
      vertex -12 38.8797 3.47971
      vertex -12 31.4 1.85551
    endloop
  endfacet
  facet normal 1 0 0
    outer loop
      vertex -12 38.8797 3.47971
      vertex -12 31.4 0
      vertex -12 39.325 3.13803
    endloop
  endfacet
  facet normal 1 0 0
    outer loop
      vertex -12 39.8435 2.92325
      vertex -12 31.4 0
      vertex -12 45 0
    endloop
  endfacet
  facet normal 1 0 0
    outer loop
      vertex -12 45 0
      vertex -12 42.4767 4.44353
      vertex -12 42.2619 3.92499
    endloop
  endfacet
  facet normal 1 0 0
    outer loop
      vertex -12 42.55 5
      vertex -12 42.4767 4.44353
      vertex -12 45 0
    endloop
  endfacet
  facet normal 1 0 0
    outer loop
      vertex -12 45 28
      vertex -12 42.4767 5.55646
      vertex -12 45 0
    endloop
  endfacet
  facet normal 1 0 0
    outer loop
      vertex -12 45 28
      vertex -12 42.4767 23.9565
      vertex -12 42.55 23.4
    endloop
  endfacet
  facet normal 1 0 0
    outer loop
      vertex -12 45 28
      vertex -12 42.2619 24.475
      vertex -12 42.4767 23.9565
    endloop
  endfacet
  facet normal 1 0 0
    outer loop
      vertex -12 45 28
      vertex -12 41.9203 24.9203
      vertex -12 42.2619 24.475
    endloop
  endfacet
  facet normal 1 0 0
    outer loop
      vertex -12 45 28
      vertex -12 41.475 25.2619
      vertex -12 41.9203 24.9203
    endloop
  endfacet
  facet normal 1 0 0
    outer loop
      vertex -12 45 28
      vertex -12 40.9565 25.4767
      vertex -12 41.475 25.2619
    endloop
  endfacet
  facet normal 1 0 0
    outer loop
      vertex -12 45 28
      vertex -12 40.4 25.55
      vertex -12 40.9565 25.4767
    endloop
  endfacet
  facet normal 1 0 0
    outer loop
      vertex -12 45 28
      vertex -12 39.8435 25.4767
      vertex -12 40.4 25.55
    endloop
  endfacet
  facet normal 1 -0 0
    outer loop
      vertex -12 31.4 28
      vertex -12 39.8435 25.4767
      vertex -12 45 28
    endloop
  endfacet
  facet normal 1 0 0
    outer loop
      vertex -12 38.3233 23.9565
      vertex -12 31.4 28
      vertex -12 38.25 23.4
    endloop
  endfacet
  facet normal 1 0 0
    outer loop
      vertex -12 38.538 24.475
      vertex -12 31.4 28
      vertex -12 38.3233 23.9565
    endloop
  endfacet
  facet normal 1 0 0
    outer loop
      vertex -12 38.8797 24.9203
      vertex -12 31.4 28
      vertex -12 38.538 24.475
    endloop
  endfacet
  facet normal 1 0 0
    outer loop
      vertex -12 39.325 25.2619
      vertex -12 31.4 28
      vertex -12 38.8797 24.9203
    endloop
  endfacet
  facet normal 1 0 0
    outer loop
      vertex -12 39.8435 25.4767
      vertex -12 31.4 28
      vertex -12 39.325 25.2619
    endloop
  endfacet
  facet normal 1 0 0
    outer loop
      vertex -12 42.4767 22.8435
      vertex -12 45 28
      vertex -12 42.55 23.4
    endloop
  endfacet
  facet normal 1 -0 0
    outer loop
      vertex -12 42.4767 22.8435
      vertex -12 42.4767 5.55646
      vertex -12 45 28
    endloop
  endfacet
  facet normal 1 -0 0
    outer loop
      vertex -12 42.2619 22.325
      vertex -12 42.4767 5.55646
      vertex -12 42.4767 22.8435
    endloop
  endfacet
  facet normal 1 0 0
    outer loop
      vertex -12 42.2619 22.325
      vertex -12 42.2619 6.075
      vertex -12 42.4767 5.55646
    endloop
  endfacet
  facet normal 1 -0 0
    outer loop
      vertex -12 41.9203 21.8797
      vertex -12 42.2619 6.075
      vertex -12 42.2619 22.325
    endloop
  endfacet
  facet normal 1 0 0
    outer loop
      vertex -12 41.9203 21.8797
      vertex -12 41.9203 6.52028
      vertex -12 42.2619 6.075
    endloop
  endfacet
  facet normal 1 -0 0
    outer loop
      vertex -12 41.475 21.538
      vertex -12 41.9203 6.52028
      vertex -12 41.9203 21.8797
    endloop
  endfacet
  facet normal 1 0 0
    outer loop
      vertex -12 41.475 21.538
      vertex -12 41.475 6.86195
      vertex -12 41.9203 6.52028
    endloop
  endfacet
  facet normal 1 -0 0
    outer loop
      vertex -12 40.9565 21.3233
      vertex -12 41.475 6.86195
      vertex -12 41.475 21.538
    endloop
  endfacet
  facet normal 1 0 0
    outer loop
      vertex -12 40.9565 21.3233
      vertex -12 40.9565 7.07674
      vertex -12 41.475 6.86195
    endloop
  endfacet
  facet normal 1 -0 0
    outer loop
      vertex -12 40.4 21.25
      vertex -12 40.9565 7.07674
      vertex -12 40.9565 21.3233
    endloop
  endfacet
  facet normal 1 0 0
    outer loop
      vertex -12 40.4 21.25
      vertex -12 40.4 7.14999
      vertex -12 40.9565 7.07674
    endloop
  endfacet
  facet normal 1 0 0
    outer loop
      vertex -12 39.8435 21.3233
      vertex -12 40.4 7.14999
      vertex -12 40.4 21.25
    endloop
  endfacet
  facet normal 1 0 0
    outer loop
      vertex -12 39.8435 21.3233
      vertex -12 39.8435 7.07674
      vertex -12 40.4 7.14999
    endloop
  endfacet
  facet normal 1 0 0
    outer loop
      vertex -12 31.4 17.6351
      vertex -12 39.8435 21.3233
      vertex -12 39.325 21.538
    endloop
  endfacet
  facet normal 1 0 0
    outer loop
      vertex -12 39.8435 21.3233
      vertex -12 31.4 17.6351
      vertex -12 39.8435 7.07674
    endloop
  endfacet
  facet normal 1 0 0
    outer loop
      vertex -12 31.4 17.6351
      vertex -12 39.325 21.538
      vertex -12 38.8797 21.8797
    endloop
  endfacet
  facet normal 1 0 0
    outer loop
      vertex -12 39.8435 7.07674
      vertex -12 31.4 17.6351
      vertex -12 39.325 6.86195
    endloop
  endfacet
  facet normal 1 0 0
    outer loop
      vertex -12 31.4 17.6351
      vertex -12 38.8797 21.8797
      vertex -12 38.538 22.325
    endloop
  endfacet
  facet normal 1 0 0
    outer loop
      vertex -12 39.325 6.86195
      vertex -12 31.4 17.6351
      vertex -12 38.8797 6.52028
    endloop
  endfacet
  facet normal 1 0 0
    outer loop
      vertex -12 31.4 17.6351
      vertex -12 38.538 22.325
      vertex -12 38.3233 22.8435
    endloop
  endfacet
  facet normal 1 0 0
    outer loop
      vertex -12 31.4 17.6351
      vertex -12 38.3233 22.8435
      vertex -12 38.25 23.4
    endloop
  endfacet
  facet normal 1 0 0
    outer loop
      vertex -12 31.4 17.6351
      vertex -12 38.25 23.4
      vertex -12 31.4 28
    endloop
  endfacet
  facet normal 1 0 0
    outer loop
      vertex -12 38.8797 6.52028
      vertex -12 31.4 17.6351
      vertex -12 38.538 6.075
    endloop
  endfacet
  facet normal 1 0 0
    outer loop
      vertex -12 38.538 6.075
      vertex -12 31.4 17.6351
      vertex -12 31.4 2.87191
    endloop
  endfacet
  facet normal 1 0 0
    outer loop
      vertex -12 31.4 2.87191
      vertex -12 38.3233 5.55646
      vertex -12 38.538 6.075
    endloop
  endfacet
  facet normal 1 0 0
    outer loop
      vertex -12 38.3233 5.55646
      vertex -12 31.4 2.87191
      vertex -12 31.4 2.66912
    endloop
  endfacet
  facet normal -1 0 0
    outer loop
      vertex -14 42.55 5
      vertex -14 42.4767 5.55646
      vertex -14 45 0
    endloop
  endfacet
  facet normal -1 0 0
    outer loop
      vertex -14 27 0.834099
      vertex -14 38.25 5
      vertex -14 27 0.754717
    endloop
  endfacet
  facet normal -1 -0 0
    outer loop
      vertex -14 38.25 5
      vertex -14 27 0.834099
      vertex -14 38.3233 5.55646
    endloop
  endfacet
  facet normal -1 0 0
    outer loop
      vertex -14 27 0.754717
      vertex -14 38.3233 4.44353
      vertex -14 27 0.667033
    endloop
  endfacet
  facet normal -1 -0 0
    outer loop
      vertex -14 38.3233 4.44353
      vertex -14 27 0.754717
      vertex -14 38.25 5
    endloop
  endfacet
  facet normal -1 0 -0
    outer loop
      vertex -14 42.55 5
      vertex -14 45 0
      vertex -14 42.4767 4.44353
    endloop
  endfacet
  facet normal -1 0 0
    outer loop
      vertex -14 42.4767 5.55646
      vertex -14 45 28
      vertex -14 45 0
    endloop
  endfacet
  facet normal -1 0 0
    outer loop
      vertex -14 27 24.761
      vertex -14 38.538 6.075
      vertex -14 27 0.897471
    endloop
  endfacet
  facet normal -1 0 0
    outer loop
      vertex -14 27 0.897471
      vertex -14 38.3233 5.55646
      vertex -14 27 0.834099
    endloop
  endfacet
  facet normal -1 -0 0
    outer loop
      vertex -14 38.3233 5.55646
      vertex -14 27 0.897471
      vertex -14 38.538 6.075
    endloop
  endfacet
  facet normal -1 0 0
    outer loop
      vertex -14 42.4767 22.8435
      vertex -14 45 28
      vertex -14 42.4767 5.55646
    endloop
  endfacet
  facet normal -1 0 0
    outer loop
      vertex -14 45 28
      vertex -14 42.4767 22.8435
      vertex -14 42.55 23.4
    endloop
  endfacet
  facet normal -1 0 0
    outer loop
      vertex -14 42.2619 6.075
      vertex -14 42.4767 22.8435
      vertex -14 42.4767 5.55646
    endloop
  endfacet
  facet normal -1 0 0
    outer loop
      vertex -14 42.2619 6.075
      vertex -14 42.2619 22.325
      vertex -14 42.4767 22.8435
    endloop
  endfacet
  facet normal -1 0 0
    outer loop
      vertex -14 41.9203 6.52028
      vertex -14 42.2619 22.325
      vertex -14 42.2619 6.075
    endloop
  endfacet
  facet normal -1 0 0
    outer loop
      vertex -14 41.9203 6.52028
      vertex -14 41.9203 21.8797
      vertex -14 42.2619 22.325
    endloop
  endfacet
  facet normal -1 0 0
    outer loop
      vertex -14 41.475 6.86195
      vertex -14 41.9203 21.8797
      vertex -14 41.9203 6.52028
    endloop
  endfacet
  facet normal -1 0 0
    outer loop
      vertex -14 41.475 6.86195
      vertex -14 41.475 21.538
      vertex -14 41.9203 21.8797
    endloop
  endfacet
  facet normal -1 0 0
    outer loop
      vertex -14 40.9565 7.07674
      vertex -14 41.475 21.538
      vertex -14 41.475 6.86195
    endloop
  endfacet
  facet normal -1 0 0
    outer loop
      vertex -14 40.9565 7.07674
      vertex -14 40.9565 21.3233
      vertex -14 41.475 21.538
    endloop
  endfacet
  facet normal -1 0 0
    outer loop
      vertex -14 40.4 7.14999
      vertex -14 40.9565 21.3233
      vertex -14 40.9565 7.07674
    endloop
  endfacet
  facet normal -1 0 0
    outer loop
      vertex -14 40.4 7.14999
      vertex -14 40.4 21.25
      vertex -14 40.9565 21.3233
    endloop
  endfacet
  facet normal -1 0 0
    outer loop
      vertex -14 39.8435 7.07674
      vertex -14 40.4 21.25
      vertex -14 40.4 7.14999
    endloop
  endfacet
  facet normal -1 0 0
    outer loop
      vertex -14 39.8435 7.07674
      vertex -14 39.8435 21.3233
      vertex -14 40.4 21.25
    endloop
  endfacet
  facet normal -1 0 0
    outer loop
      vertex -14 39.325 6.86195
      vertex -14 39.8435 21.3233
      vertex -14 39.8435 7.07674
    endloop
  endfacet
  facet normal -1 0 0
    outer loop
      vertex -14 39.325 6.86195
      vertex -14 39.325 21.538
      vertex -14 39.8435 21.3233
    endloop
  endfacet
  facet normal -1 0 0
    outer loop
      vertex -14 38.8797 6.52028
      vertex -14 39.325 21.538
      vertex -14 39.325 6.86195
    endloop
  endfacet
  facet normal -1 0 0
    outer loop
      vertex -14 38.8797 6.52028
      vertex -14 38.8797 21.8797
      vertex -14 39.325 21.538
    endloop
  endfacet
  facet normal -1 0 0
    outer loop
      vertex -14 27 24.761
      vertex -14 38.8797 6.52028
      vertex -14 38.538 6.075
    endloop
  endfacet
  facet normal -1 0 0
    outer loop
      vertex -14 38.8797 6.52028
      vertex -14 27 24.761
      vertex -14 38.8797 21.8797
    endloop
  endfacet
  facet normal -1 0 0
    outer loop
      vertex -14 38.8797 21.8797
      vertex -14 27 24.761
      vertex -14 38.538 22.325
    endloop
  endfacet
  facet normal -1 0 0
    outer loop
      vertex -14 38.538 22.325
      vertex -14 27 24.761
      vertex -14 38.3233 22.8435
    endloop
  endfacet
  facet normal -1 0 0
    outer loop
      vertex -14 38.3233 22.8435
      vertex -14 27 24.761
      vertex -14 38.25 23.4
    endloop
  endfacet
  facet normal -1 0 0
    outer loop
      vertex -14 42.4767 23.9565
      vertex -14 45 28
      vertex -14 42.55 23.4
    endloop
  endfacet
  facet normal -1 0 0
    outer loop
      vertex -14 42.2619 24.475
      vertex -14 45 28
      vertex -14 42.4767 23.9565
    endloop
  endfacet
  facet normal -1 0 0
    outer loop
      vertex -14 41.9203 24.9203
      vertex -14 45 28
      vertex -14 42.2619 24.475
    endloop
  endfacet
  facet normal -1 0 0
    outer loop
      vertex -14 41.475 25.2619
      vertex -14 45 28
      vertex -14 41.9203 24.9203
    endloop
  endfacet
  facet normal -1 0 0
    outer loop
      vertex -14 40.9565 25.4767
      vertex -14 45 28
      vertex -14 41.475 25.2619
    endloop
  endfacet
  facet normal -1 0 0
    outer loop
      vertex -14 40.4 25.55
      vertex -14 45 28
      vertex -14 40.9565 25.4767
    endloop
  endfacet
  facet normal -1 0 0
    outer loop
      vertex -14 39.8435 25.4767
      vertex -14 45 28
      vertex -14 40.4 25.55
    endloop
  endfacet
  facet normal -1 0 0
    outer loop
      vertex -14 27 28
      vertex -14 39.8435 25.4767
      vertex -14 39.325 25.2619
    endloop
  endfacet
  facet normal -1 0 0
    outer loop
      vertex -14 27 24.761
      vertex -14 38.3233 23.9565
      vertex -14 38.25 23.4
    endloop
  endfacet
  facet normal -1 0 0
    outer loop
      vertex -14 27 28
      vertex -14 38.3233 23.9565
      vertex -14 27 24.761
    endloop
  endfacet
  facet normal -1 0 0
    outer loop
      vertex -14 38.3233 23.9565
      vertex -14 27 28
      vertex -14 38.538 24.475
    endloop
  endfacet
  facet normal -1 0 0
    outer loop
      vertex -14 38.538 24.475
      vertex -14 27 28
      vertex -14 38.8797 24.9203
    endloop
  endfacet
  facet normal -1 0 0
    outer loop
      vertex -14 38.8797 24.9203
      vertex -14 27 28
      vertex -14 39.325 25.2619
    endloop
  endfacet
  facet normal -1 0 0
    outer loop
      vertex -14 39.8435 25.4767
      vertex -14 27 28
      vertex -14 45 28
    endloop
  endfacet
  facet normal 0 1 -0
    outer loop
      vertex -12 45 0
      vertex -14 45 28
      vertex -12 45 28
    endloop
  endfacet
  facet normal 0 1 0
    outer loop
      vertex -14 45 28
      vertex -12 45 0
      vertex -14 45 0
    endloop
  endfacet
  facet normal 0 0 1
    outer loop
      vertex -12 45 28
      vertex -14 45 28
      vertex -12 31.4 28
    endloop
  endfacet
  facet normal 0 0 1
    outer loop
      vertex -12 31.4 28
      vertex -14 27 28
      vertex -4.66667 27 28
    endloop
  endfacet
  facet normal 0 0 1
    outer loop
      vertex -14 27 28
      vertex -12 31.4 28
      vertex -14 45 28
    endloop
  endfacet
  facet normal 0 0.923934 0.382552
    outer loop
      vertex -12 38.538 3.92499
      vertex -14 38.3233 4.44353
      vertex -12 38.3233 4.44353
    endloop
  endfacet
  facet normal 0 0.923934 0.382552
    outer loop
      vertex -14 38.3233 4.44353
      vertex -12 38.538 3.92499
      vertex -14 38.538 3.92499
    endloop
  endfacet
  facet normal 0 0.793332 0.608789
    outer loop
      vertex -12 38.8797 3.47971
      vertex -14 38.538 3.92499
      vertex -12 38.538 3.92499
    endloop
  endfacet
  facet normal 0 0.793332 0.608789
    outer loop
      vertex -14 38.538 3.92499
      vertex -12 38.8797 3.47971
      vertex -14 38.8797 3.47971
    endloop
  endfacet
  facet normal -0 0.608749 0.793363
    outer loop
      vertex -14 39.325 3.13803
      vertex -12 38.8797 3.47971
      vertex -12 39.325 3.13803
    endloop
  endfacet
  facet normal 0 0.608749 0.793363
    outer loop
      vertex -12 38.8797 3.47971
      vertex -14 39.325 3.13803
      vertex -14 38.8797 3.47971
    endloop
  endfacet
  facet normal -0 0.382699 0.923873
    outer loop
      vertex -14 39.8435 2.92325
      vertex -12 39.325 3.13803
      vertex -12 39.8435 2.92325
    endloop
  endfacet
  facet normal 0 0.382699 0.923873
    outer loop
      vertex -12 39.325 3.13803
      vertex -14 39.8435 2.92325
      vertex -14 39.325 3.13803
    endloop
  endfacet
  facet normal -0 0.130518 0.991446
    outer loop
      vertex -14 40.4 2.84999
      vertex -12 39.8435 2.92325
      vertex -12 40.4 2.84999
    endloop
  endfacet
  facet normal 0 0.130518 0.991446
    outer loop
      vertex -12 39.8435 2.92325
      vertex -14 40.4 2.84999
      vertex -14 39.8435 2.92325
    endloop
  endfacet
  facet normal 0 -0.130518 0.991446
    outer loop
      vertex -14 40.9565 2.92325
      vertex -12 40.4 2.84999
      vertex -12 40.9565 2.92325
    endloop
  endfacet
  facet normal 0 -0.130518 0.991446
    outer loop
      vertex -12 40.4 2.84999
      vertex -14 40.9565 2.92325
      vertex -14 40.4 2.84999
    endloop
  endfacet
  facet normal 0 -0.382699 0.923873
    outer loop
      vertex -14 41.475 3.13803
      vertex -12 40.9565 2.92325
      vertex -12 41.475 3.13803
    endloop
  endfacet
  facet normal 0 -0.382699 0.923873
    outer loop
      vertex -12 40.9565 2.92325
      vertex -14 41.475 3.13803
      vertex -14 40.9565 2.92325
    endloop
  endfacet
  facet normal 0 -0.608749 0.793363
    outer loop
      vertex -14 41.9203 3.47971
      vertex -12 41.475 3.13803
      vertex -12 41.9203 3.47971
    endloop
  endfacet
  facet normal 0 -0.608749 0.793363
    outer loop
      vertex -12 41.475 3.13803
      vertex -14 41.9203 3.47971
      vertex -14 41.475 3.13803
    endloop
  endfacet
  facet normal 0 -0.793418 0.608677
    outer loop
      vertex -14 41.9203 3.47971
      vertex -12 42.2619 3.92499
      vertex -14 42.2619 3.92499
    endloop
  endfacet
  facet normal 0 -0.793418 0.608677
    outer loop
      vertex -12 42.2619 3.92499
      vertex -14 41.9203 3.47971
      vertex -12 41.9203 3.47971
    endloop
  endfacet
  facet normal 0 -0.923871 0.382704
    outer loop
      vertex -14 42.2619 3.92499
      vertex -12 42.4767 4.44353
      vertex -14 42.4767 4.44353
    endloop
  endfacet
  facet normal 0 -0.923871 0.382704
    outer loop
      vertex -12 42.4767 4.44353
      vertex -14 42.2619 3.92499
      vertex -12 42.2619 3.92499
    endloop
  endfacet
  facet normal 0 -0.991436 0.130595
    outer loop
      vertex -14 42.4767 4.44353
      vertex -12 42.55 5
      vertex -14 42.55 5
    endloop
  endfacet
  facet normal 0 -0.991436 0.130595
    outer loop
      vertex -12 42.55 5
      vertex -14 42.4767 4.44353
      vertex -12 42.4767 4.44353
    endloop
  endfacet
  facet normal 0 -0.991435 -0.130597
    outer loop
      vertex -14 42.55 5
      vertex -12 42.4767 5.55646
      vertex -14 42.4767 5.55646
    endloop
  endfacet
  facet normal 0 -0.991435 -0.130597
    outer loop
      vertex -12 42.4767 5.55646
      vertex -14 42.55 5
      vertex -12 42.55 5
    endloop
  endfacet
  facet normal 0 -0.923871 -0.382704
    outer loop
      vertex -14 42.4767 5.55646
      vertex -12 42.2619 6.075
      vertex -14 42.2619 6.075
    endloop
  endfacet
  facet normal 0 -0.923871 -0.382704
    outer loop
      vertex -12 42.2619 6.075
      vertex -14 42.4767 5.55646
      vertex -12 42.4767 5.55646
    endloop
  endfacet
  facet normal 0 -0.793418 -0.608677
    outer loop
      vertex -14 42.2619 6.075
      vertex -12 41.9203 6.52028
      vertex -14 41.9203 6.52028
    endloop
  endfacet
  facet normal 0 -0.793418 -0.608677
    outer loop
      vertex -12 41.9203 6.52028
      vertex -14 42.2619 6.075
      vertex -12 42.2619 6.075
    endloop
  endfacet
  facet normal 0 -0.608738 -0.793371
    outer loop
      vertex -14 41.475 6.86195
      vertex -12 41.9203 6.52028
      vertex -12 41.475 6.86195
    endloop
  endfacet
  facet normal -0 -0.608738 -0.793371
    outer loop
      vertex -12 41.9203 6.52028
      vertex -14 41.475 6.86195
      vertex -14 41.9203 6.52028
    endloop
  endfacet
  facet normal 0 -0.382714 -0.923867
    outer loop
      vertex -14 40.9565 7.07674
      vertex -12 41.475 6.86195
      vertex -12 40.9565 7.07674
    endloop
  endfacet
  facet normal -0 -0.382714 -0.923867
    outer loop
      vertex -12 41.475 6.86195
      vertex -14 40.9565 7.07674
      vertex -14 41.475 6.86195
    endloop
  endfacet
  facet normal 0 -0.130501 -0.991448
    outer loop
      vertex -14 40.4 7.14999
      vertex -12 40.9565 7.07674
      vertex -12 40.4 7.14999
    endloop
  endfacet
  facet normal -0 -0.130501 -0.991448
    outer loop
      vertex -12 40.9565 7.07674
      vertex -14 40.4 7.14999
      vertex -14 40.9565 7.07674
    endloop
  endfacet
  facet normal 0 0.130501 -0.991448
    outer loop
      vertex -14 39.8435 7.07674
      vertex -12 40.4 7.14999
      vertex -12 39.8435 7.07674
    endloop
  endfacet
  facet normal 0 0.130501 -0.991448
    outer loop
      vertex -12 40.4 7.14999
      vertex -14 39.8435 7.07674
      vertex -14 40.4 7.14999
    endloop
  endfacet
  facet normal 0 0.382714 -0.923867
    outer loop
      vertex -14 39.325 6.86195
      vertex -12 39.8435 7.07674
      vertex -12 39.325 6.86195
    endloop
  endfacet
  facet normal 0 0.382714 -0.923867
    outer loop
      vertex -12 39.8435 7.07674
      vertex -14 39.325 6.86195
      vertex -14 39.8435 7.07674
    endloop
  endfacet
  facet normal 0 0.608738 -0.793371
    outer loop
      vertex -14 38.8797 6.52028
      vertex -12 39.325 6.86195
      vertex -12 38.8797 6.52028
    endloop
  endfacet
  facet normal 0 0.608738 -0.793371
    outer loop
      vertex -12 39.325 6.86195
      vertex -14 38.8797 6.52028
      vertex -14 39.325 6.86195
    endloop
  endfacet
  facet normal 0 0.793332 -0.608789
    outer loop
      vertex -12 38.538 6.075
      vertex -14 38.8797 6.52028
      vertex -12 38.8797 6.52028
    endloop
  endfacet
  facet normal 0 0.793332 -0.608789
    outer loop
      vertex -14 38.8797 6.52028
      vertex -12 38.538 6.075
      vertex -14 38.538 6.075
    endloop
  endfacet
  facet normal 0 0.923934 -0.382552
    outer loop
      vertex -12 38.3233 5.55646
      vertex -14 38.538 6.075
      vertex -12 38.538 6.075
    endloop
  endfacet
  facet normal 0 0.923934 -0.382552
    outer loop
      vertex -14 38.538 6.075
      vertex -12 38.3233 5.55646
      vertex -14 38.3233 5.55646
    endloop
  endfacet
  facet normal 0 0.991435 -0.130597
    outer loop
      vertex -12 38.25 5
      vertex -14 38.3233 5.55646
      vertex -12 38.3233 5.55646
    endloop
  endfacet
  facet normal 0 0.991435 -0.130597
    outer loop
      vertex -14 38.3233 5.55646
      vertex -12 38.25 5
      vertex -14 38.25 5
    endloop
  endfacet
  facet normal 0 0.991436 0.130595
    outer loop
      vertex -12 38.3233 4.44353
      vertex -14 38.25 5
      vertex -12 38.25 5
    endloop
  endfacet
  facet normal 0 0.991436 0.130595
    outer loop
      vertex -14 38.25 5
      vertex -12 38.3233 4.44353
      vertex -14 38.3233 4.44353
    endloop
  endfacet
  facet normal 0 0.923923 0.382577
    outer loop
      vertex -12 38.538 22.325
      vertex -14 38.3233 22.8435
      vertex -12 38.3233 22.8435
    endloop
  endfacet
  facet normal 0 0.923923 0.382577
    outer loop
      vertex -14 38.3233 22.8435
      vertex -12 38.538 22.325
      vertex -14 38.538 22.325
    endloop
  endfacet
  facet normal 0 0.793345 0.608772
    outer loop
      vertex -12 38.8797 21.8797
      vertex -14 38.538 22.325
      vertex -12 38.538 22.325
    endloop
  endfacet
  facet normal 0 0.793345 0.608772
    outer loop
      vertex -14 38.538 22.325
      vertex -12 38.8797 21.8797
      vertex -14 38.8797 21.8797
    endloop
  endfacet
  facet normal -0 0.608772 0.793345
    outer loop
      vertex -14 39.325 21.538
      vertex -12 38.8797 21.8797
      vertex -12 39.325 21.538
    endloop
  endfacet
  facet normal 0 0.608772 0.793345
    outer loop
      vertex -12 38.8797 21.8797
      vertex -14 39.325 21.538
      vertex -14 38.8797 21.8797
    endloop
  endfacet
  facet normal -0 0.382577 0.923923
    outer loop
      vertex -14 39.8435 21.3233
      vertex -12 39.325 21.538
      vertex -12 39.8435 21.3233
    endloop
  endfacet
  facet normal 0 0.382577 0.923923
    outer loop
      vertex -12 39.325 21.538
      vertex -14 39.8435 21.3233
      vertex -14 39.325 21.538
    endloop
  endfacet
  facet normal -0 0.130588 0.991437
    outer loop
      vertex -14 40.4 21.25
      vertex -12 39.8435 21.3233
      vertex -12 40.4 21.25
    endloop
  endfacet
  facet normal 0 0.130588 0.991437
    outer loop
      vertex -12 39.8435 21.3233
      vertex -14 40.4 21.25
      vertex -14 39.8435 21.3233
    endloop
  endfacet
  facet normal 0 -0.130588 0.991437
    outer loop
      vertex -14 40.9565 21.3233
      vertex -12 40.4 21.25
      vertex -12 40.9565 21.3233
    endloop
  endfacet
  facet normal 0 -0.130588 0.991437
    outer loop
      vertex -12 40.4 21.25
      vertex -14 40.9565 21.3233
      vertex -14 40.4 21.25
    endloop
  endfacet
  facet normal 0 -0.382577 0.923923
    outer loop
      vertex -14 41.475 21.538
      vertex -12 40.9565 21.3233
      vertex -12 41.475 21.538
    endloop
  endfacet
  facet normal 0 -0.382577 0.923923
    outer loop
      vertex -12 40.9565 21.3233
      vertex -14 41.475 21.538
      vertex -14 40.9565 21.3233
    endloop
  endfacet
  facet normal 0 -0.608772 0.793345
    outer loop
      vertex -14 41.9203 21.8797
      vertex -12 41.475 21.538
      vertex -12 41.9203 21.8797
    endloop
  endfacet
  facet normal 0 -0.608772 0.793345
    outer loop
      vertex -12 41.475 21.538
      vertex -14 41.9203 21.8797
      vertex -14 41.475 21.538
    endloop
  endfacet
  facet normal 0 -0.793431 0.60866
    outer loop
      vertex -14 41.9203 21.8797
      vertex -12 42.2619 22.325
      vertex -14 42.2619 22.325
    endloop
  endfacet
  facet normal 0 -0.793431 0.60866
    outer loop
      vertex -12 42.2619 22.325
      vertex -14 41.9203 21.8797
      vertex -12 41.9203 21.8797
    endloop
  endfacet
  facet normal 0 -0.92386 0.382729
    outer loop
      vertex -14 42.2619 22.325
      vertex -12 42.4767 22.8435
      vertex -14 42.4767 22.8435
    endloop
  endfacet
  facet normal 0 -0.92386 0.382729
    outer loop
      vertex -12 42.4767 22.8435
      vertex -14 42.2619 22.325
      vertex -12 42.2619 22.325
    endloop
  endfacet
  facet normal 0 -0.991437 0.130588
    outer loop
      vertex -14 42.4767 22.8435
      vertex -12 42.55 23.4
      vertex -14 42.55 23.4
    endloop
  endfacet
  facet normal 0 -0.991437 0.130588
    outer loop
      vertex -12 42.55 23.4
      vertex -14 42.4767 22.8435
      vertex -12 42.4767 22.8435
    endloop
  endfacet
  facet normal 0 -0.991437 -0.130588
    outer loop
      vertex -14 42.55 23.4
      vertex -12 42.4767 23.9565
      vertex -14 42.4767 23.9565
    endloop
  endfacet
  facet normal 0 -0.991437 -0.130588
    outer loop
      vertex -12 42.4767 23.9565
      vertex -14 42.55 23.4
      vertex -12 42.55 23.4
    endloop
  endfacet
  facet normal 0 -0.92386 -0.382729
    outer loop
      vertex -14 42.4767 23.9565
      vertex -12 42.2619 24.475
      vertex -14 42.2619 24.475
    endloop
  endfacet
  facet normal 0 -0.92386 -0.382729
    outer loop
      vertex -12 42.2619 24.475
      vertex -14 42.4767 23.9565
      vertex -12 42.4767 23.9565
    endloop
  endfacet
  facet normal 0 -0.793431 -0.60866
    outer loop
      vertex -14 42.2619 24.475
      vertex -12 41.9203 24.9203
      vertex -14 41.9203 24.9203
    endloop
  endfacet
  facet normal 0 -0.793431 -0.60866
    outer loop
      vertex -12 41.9203 24.9203
      vertex -14 42.2619 24.475
      vertex -12 42.2619 24.475
    endloop
  endfacet
  facet normal 0 -0.60866 -0.793431
    outer loop
      vertex -14 41.475 25.2619
      vertex -12 41.9203 24.9203
      vertex -12 41.475 25.2619
    endloop
  endfacet
  facet normal -0 -0.60866 -0.793431
    outer loop
      vertex -12 41.9203 24.9203
      vertex -14 41.475 25.2619
      vertex -14 41.9203 24.9203
    endloop
  endfacet
  facet normal 0 -0.382729 -0.92386
    outer loop
      vertex -14 40.9565 25.4767
      vertex -12 41.475 25.2619
      vertex -12 40.9565 25.4767
    endloop
  endfacet
  facet normal -0 -0.382729 -0.92386
    outer loop
      vertex -12 41.475 25.2619
      vertex -14 40.9565 25.4767
      vertex -14 41.475 25.2619
    endloop
  endfacet
  facet normal 0 -0.130588 -0.991437
    outer loop
      vertex -14 40.4 25.55
      vertex -12 40.9565 25.4767
      vertex -12 40.4 25.55
    endloop
  endfacet
  facet normal -0 -0.130588 -0.991437
    outer loop
      vertex -12 40.9565 25.4767
      vertex -14 40.4 25.55
      vertex -14 40.9565 25.4767
    endloop
  endfacet
  facet normal 0 0.130588 -0.991437
    outer loop
      vertex -14 39.8435 25.4767
      vertex -12 40.4 25.55
      vertex -12 39.8435 25.4767
    endloop
  endfacet
  facet normal 0 0.130588 -0.991437
    outer loop
      vertex -12 40.4 25.55
      vertex -14 39.8435 25.4767
      vertex -14 40.4 25.55
    endloop
  endfacet
  facet normal 0 0.382729 -0.92386
    outer loop
      vertex -14 39.325 25.2619
      vertex -12 39.8435 25.4767
      vertex -12 39.325 25.2619
    endloop
  endfacet
  facet normal 0 0.382729 -0.92386
    outer loop
      vertex -12 39.8435 25.4767
      vertex -14 39.325 25.2619
      vertex -14 39.8435 25.4767
    endloop
  endfacet
  facet normal 0 0.60866 -0.793431
    outer loop
      vertex -14 38.8797 24.9203
      vertex -12 39.325 25.2619
      vertex -12 38.8797 24.9203
    endloop
  endfacet
  facet normal 0 0.60866 -0.793431
    outer loop
      vertex -12 39.325 25.2619
      vertex -14 38.8797 24.9203
      vertex -14 39.325 25.2619
    endloop
  endfacet
  facet normal 0 0.793345 -0.608772
    outer loop
      vertex -12 38.538 24.475
      vertex -14 38.8797 24.9203
      vertex -12 38.8797 24.9203
    endloop
  endfacet
  facet normal 0 0.793345 -0.608772
    outer loop
      vertex -14 38.8797 24.9203
      vertex -12 38.538 24.475
      vertex -14 38.538 24.475
    endloop
  endfacet
  facet normal 0 0.923923 -0.382577
    outer loop
      vertex -12 38.3233 23.9565
      vertex -14 38.538 24.475
      vertex -12 38.538 24.475
    endloop
  endfacet
  facet normal 0 0.923923 -0.382577
    outer loop
      vertex -14 38.538 24.475
      vertex -12 38.3233 23.9565
      vertex -14 38.3233 23.9565
    endloop
  endfacet
  facet normal 0 0.991437 -0.130588
    outer loop
      vertex -12 38.25 23.4
      vertex -14 38.3233 23.9565
      vertex -12 38.3233 23.9565
    endloop
  endfacet
  facet normal 0 0.991437 -0.130588
    outer loop
      vertex -14 38.3233 23.9565
      vertex -12 38.25 23.4
      vertex -14 38.25 23.4
    endloop
  endfacet
  facet normal 0 0.991437 0.130588
    outer loop
      vertex -12 38.3233 22.8435
      vertex -14 38.25 23.4
      vertex -12 38.25 23.4
    endloop
  endfacet
  facet normal 0 0.991437 0.130588
    outer loop
      vertex -14 38.25 23.4
      vertex -12 38.3233 22.8435
      vertex -14 38.3233 22.8435
    endloop
  endfacet
  facet normal -0.514496 -0.857493 0
    outer loop
      vertex -9.33333 25 23
      vertex -2 20.6 22.016
      vertex -2 20.6 23
    endloop
  endfacet
  facet normal -0.514496 -0.857493 0
    outer loop
      vertex -9.33333 25 23
      vertex -2 20.6 20.8427
      vertex -2 20.6 22.016
    endloop
  endfacet
  facet normal -0.514496 -0.857493 0
    outer loop
      vertex -9.33333 25 0
      vertex -2 20.6 20.8427
      vertex -9.33333 25 23
    endloop
  endfacet
  facet normal -0.514496 -0.857493 -0
    outer loop
      vertex -2 20.6 20.8427
      vertex -9.33333 25 0
      vertex -2 20.6 0
    endloop
  endfacet
  facet normal 0 0 1
    outer loop
      vertex -9.33333 25 23
      vertex -2 21.4919 23
      vertex -2 21.7978 23
    endloop
  endfacet
  facet normal 0 0 1
    outer loop
      vertex -2 21.4919 23
      vertex -9.33333 25 23
      vertex -2 21.1236 23
    endloop
  endfacet
  facet normal 0 0 1
    outer loop
      vertex -2 21.1236 23
      vertex -9.33333 25 23
      vertex -2 20.7203 23
    endloop
  endfacet
  facet normal -0 0 1
    outer loop
      vertex -9.33333 25 23
      vertex -2 21.7978 23
      vertex -2 25 23
    endloop
  endfacet
  facet normal 0 0 1
    outer loop
      vertex -2 20.7203 23
      vertex -9.33333 25 23
      vertex -2 20.6 23
    endloop
  endfacet
  facet normal 0.514496 0.857493 0
    outer loop
      vertex -4.66667 27 28
      vertex -12 31.4 17.6351
      vertex -12 31.4 28
    endloop
  endfacet
  facet normal 0.514496 0.857493 -0
    outer loop
      vertex -4.66667 27 0
      vertex -12 31.4 17.6351
      vertex -4.66667 27 28
    endloop
  endfacet
  facet normal 0.514496 0.857493 0
    outer loop
      vertex -12 31.4 17.6351
      vertex -4.66667 27 0
      vertex -12 31.4 2.87191
    endloop
  endfacet
  facet normal 0.514496 0.857493 0
    outer loop
      vertex -12 31.4 2.87191
      vertex -4.66667 27 0
      vertex -12 31.4 2.66912
    endloop
  endfacet
  facet normal 0.514496 0.857493 0
    outer loop
      vertex -12 31.4 2.66912
      vertex -4.66667 27 0
      vertex -12 31.4 2.41509
    endloop
  endfacet
  facet normal 0.514496 0.857493 0
    outer loop
      vertex -12 31.4 2.41509
      vertex -4.66667 27 0
      vertex -12 31.4 2.13451
    endloop
  endfacet
  facet normal 0.514496 0.857493 0
    outer loop
      vertex -12 31.4 2.13451
      vertex -4.66667 27 0
      vertex -12 31.4 1.85551
    endloop
  endfacet
  facet normal 0.514496 0.857493 0
    outer loop
      vertex -12 31.4 1.85551
      vertex -4.66667 27 0
      vertex -12 31.4 0
    endloop
  endfacet
endsolid OpenSCAD_Model
