solid OpenSCAD_Model
  facet normal -0.985274 0.170984 0
    outer loop
      vertex 163.73 -32.5679 69.675
      vertex 165.131 -24.4948 70
      vertex 165.131 -24.4948 69.675
    endloop
  endfacet
  facet normal -0.985274 0.170984 0
    outer loop
      vertex 165.131 -24.4948 70
      vertex 163.73 -32.5679 69.675
      vertex 163.73 -32.5679 70
    endloop
  endfacet
  facet normal -0.53503 0.844833 0
    outer loop
      vertex 92.7455 -138.803 69.675
      vertex 85.823 -143.187 70
      vertex 92.7455 -138.803 70
    endloop
  endfacet
  facet normal -0.53503 0.844833 0
    outer loop
      vertex 85.823 -143.187 70
      vertex 92.7455 -138.803 69.675
      vertex 85.823 -143.187 69.675
    endloop
  endfacet
  facet normal -0.999696 0.024653 0
    outer loop
      vertex 166.736 -8.19123 69.675
      vertex 166.938 0 70
      vertex 166.938 0 69.675
    endloop
  endfacet
  facet normal -0.999696 0.024653 0
    outer loop
      vertex 166.938 0 70
      vertex 166.736 -8.19123 69.675
      vertex 166.736 -8.19123 70
    endloop
  endfacet
  facet normal -0.31367 0.949532 0
    outer loop
      vertex 56.2395 -157.179 69.675
      vertex 51.5716 -158.721 70
      vertex 56.2395 -157.179 70
    endloop
  endfacet
  facet normal -0.31367 0.949532 0
    outer loop
      vertex 51.5716 -158.721 70
      vertex 56.2395 -157.179 69.675
      vertex 51.5716 -158.721 69.675
    endloop
  endfacet
  facet normal -0.575811 0.817583 0
    outer loop
      vertex 99.4445 -134.085 69.675
      vertex 92.7455 -138.803 70
      vertex 99.4445 -134.085 70
    endloop
  endfacet
  facet normal -0.575811 0.817583 0
    outer loop
      vertex 92.7455 -138.803 70
      vertex 99.4445 -134.085 69.675
      vertex 92.7455 -138.803 69.675
    endloop
  endfacet
  facet normal -0.65313 0.757246 0
    outer loop
      vertex 112.108 -123.693 69.675
      vertex 105.904 -129.044 70
      vertex 112.108 -123.693 70
    endloop
  endfacet
  facet normal -0.65313 0.757246 0
    outer loop
      vertex 105.904 -129.044 70
      vertex 112.108 -123.693 69.675
      vertex 105.904 -129.044 69.675
    endloop
  endfacet
  facet normal -0.492931 0.870068 0
    outer loop
      vertex 85.823 -143.187 69.675
      vertex 78.6938 -147.226 70
      vertex 85.823 -143.187 70
    endloop
  endfacet
  facet normal -0.492931 0.870068 0
    outer loop
      vertex 78.6938 -147.226 70
      vertex 85.823 -143.187 69.675
      vertex 78.6938 -147.226 69.675
    endloop
  endfacet
  facet normal -0.405196 0.91423 0
    outer loop
      vertex 71.375 -150.91 69.675
      vertex 63.8842 -154.23 70
      vertex 71.375 -150.91 70
    endloop
  endfacet
  facet normal -0.405196 0.91423 0
    outer loop
      vertex 63.8842 -154.23 70
      vertex 71.375 -150.91 69.675
      vertex 63.8842 -154.23 69.675
    endloop
  endfacet
  facet normal -0.724283 0.689503 0
    outer loop
      vertex 118.043 -118.043 69.675
      vertex 123.693 -112.108 70
      vertex 123.693 -112.108 69.675
    endloop
  endfacet
  facet normal -0.724283 0.689503 0
    outer loop
      vertex 123.693 -112.108 70
      vertex 118.043 -118.043 69.675
      vertex 118.043 -118.043 70
    endloop
  endfacet
  facet normal -0.788349 0.615228 0
    outer loop
      vertex 129.044 -105.904 69.675
      vertex 134.085 -99.4445 70
      vertex 134.085 -99.4445 69.675
    endloop
  endfacet
  facet normal -0.788349 0.615228 0
    outer loop
      vertex 134.085 -99.4445 70
      vertex 129.044 -105.904 69.675
      vertex 129.044 -105.904 70
    endloop
  endfacet
  facet normal -0.844833 0.53503 0
    outer loop
      vertex 138.803 -92.7455 69.675
      vertex 143.187 -85.823 70
      vertex 143.187 -85.823 69.675
    endloop
  endfacet
  facet normal -0.844833 0.53503 0
    outer loop
      vertex 143.187 -85.823 70
      vertex 138.803 -92.7455 69.675
      vertex 138.803 -92.7455 70
    endloop
  endfacet
  facet normal -0.949535 0.31366 0
    outer loop
      vertex 157.179 -56.2395 69.675
      vertex 159.749 -48.4594 70
      vertex 159.749 -48.4594 69.675
    endloop
  endfacet
  facet normal -0.949535 0.31366 0
    outer loop
      vertex 159.749 -48.4594 70
      vertex 157.179 -56.2395 69.675
      vertex 157.179 -56.2395 70
    endloop
  endfacet
  facet normal -0.975709 0.219072 0
    outer loop
      vertex 161.935 -40.5625 69.675
      vertex 163.73 -32.5679 70
      vertex 163.73 -32.5679 69.675
    endloop
  endfacet
  facet normal -0.975709 0.219072 0
    outer loop
      vertex 163.73 -32.5679 70
      vertex 161.935 -40.5625 69.675
      vertex 161.935 -40.5625 70
    endloop
  endfacet
  facet normal -0.359907 0.932988 0
    outer loop
      vertex 63.8842 -154.23 69.675
      vertex 56.2395 -157.179 70
      vertex 63.8842 -154.23 70
    endloop
  endfacet
  facet normal -0.359907 0.932988 0
    outer loop
      vertex 56.2395 -157.179 70
      vertex 63.8842 -154.23 69.675
      vertex 56.2395 -157.179 69.675
    endloop
  endfacet
  facet normal -0.615228 0.788349 0
    outer loop
      vertex 105.904 -129.044 69.675
      vertex 99.4445 -134.085 70
      vertex 105.904 -129.044 70
    endloop
  endfacet
  facet normal -0.615228 0.788349 0
    outer loop
      vertex 99.4445 -134.085 70
      vertex 105.904 -129.044 69.675
      vertex 99.4445 -134.085 69.675
    endloop
  endfacet
  facet normal -0.689503 0.724283 0
    outer loop
      vertex 118.043 -118.043 69.675
      vertex 112.108 -123.693 70
      vertex 118.043 -118.043 70
    endloop
  endfacet
  facet normal -0.689503 0.724283 0
    outer loop
      vertex 112.108 -123.693 70
      vertex 118.043 -118.043 69.675
      vertex 112.108 -123.693 69.675
    endloop
  endfacet
  facet normal -0.449614 0.893223 0
    outer loop
      vertex 78.6938 -147.226 69.675
      vertex 71.375 -150.91 70
      vertex 78.6938 -147.226 70
    endloop
  endfacet
  facet normal -0.449614 0.893223 0
    outer loop
      vertex 71.375 -150.91 70
      vertex 78.6938 -147.226 69.675
      vertex 71.375 -150.91 69.675
    endloop
  endfacet
  facet normal -0.757246 0.65313 0
    outer loop
      vertex 123.693 -112.108 69.675
      vertex 129.044 -105.904 70
      vertex 129.044 -105.904 69.675
    endloop
  endfacet
  facet normal -0.757246 0.65313 0
    outer loop
      vertex 129.044 -105.904 70
      vertex 123.693 -112.108 69.675
      vertex 123.693 -112.108 70
    endloop
  endfacet
  facet normal -0.817583 0.575811 0
    outer loop
      vertex 134.085 -99.4445 69.675
      vertex 138.803 -92.7455 70
      vertex 138.803 -92.7455 69.675
    endloop
  endfacet
  facet normal -0.817583 0.575811 0
    outer loop
      vertex 138.803 -92.7455 70
      vertex 134.085 -99.4445 69.675
      vertex 134.085 -99.4445 70
    endloop
  endfacet
  facet normal -0.932988 0.359907 0
    outer loop
      vertex 154.23 -63.8842 69.675
      vertex 157.179 -56.2395 70
      vertex 157.179 -56.2395 69.675
    endloop
  endfacet
  facet normal -0.932988 0.359907 0
    outer loop
      vertex 157.179 -56.2395 70
      vertex 154.23 -63.8842 69.675
      vertex 154.23 -63.8842 70
    endloop
  endfacet
  facet normal -0.893223 0.449614 0
    outer loop
      vertex 147.226 -78.6938 69.675
      vertex 150.91 -71.375 70
      vertex 150.91 -71.375 69.675
    endloop
  endfacet
  facet normal -0.893223 0.449614 0
    outer loop
      vertex 150.91 -71.375 70
      vertex 147.226 -78.6938 69.675
      vertex 147.226 -78.6938 70
    endloop
  endfacet
  facet normal -0.91423 0.405196 0
    outer loop
      vertex 150.91 -71.375 69.675
      vertex 154.23 -63.8842 70
      vertex 154.23 -63.8842 69.675
    endloop
  endfacet
  facet normal -0.91423 0.405196 0
    outer loop
      vertex 154.23 -63.8842 70
      vertex 150.91 -71.375 69.675
      vertex 150.91 -71.375 70
    endloop
  endfacet
  facet normal -0.870068 0.492931 0
    outer loop
      vertex 143.187 -85.823 69.675
      vertex 147.226 -78.6938 70
      vertex 147.226 -78.6938 69.675
    endloop
  endfacet
  facet normal -0.870068 0.492931 0
    outer loop
      vertex 147.226 -78.6938 70
      vertex 143.187 -85.823 69.675
      vertex 143.187 -85.823 70
    endloop
  endfacet
  facet normal -0.963756 0.266785 0
    outer loop
      vertex 159.749 -48.4594 69.675
      vertex 161.935 -40.5625 70
      vertex 161.935 -40.5625 69.675
    endloop
  endfacet
  facet normal -0.963756 0.266785 0
    outer loop
      vertex 161.935 -40.5625 70
      vertex 159.749 -48.4594 69.675
      vertex 159.749 -48.4594 70
    endloop
  endfacet
  facet normal -0.997297 0.0734718 0
    outer loop
      vertex 166.134 -16.3627 69.675
      vertex 166.736 -8.19123 70
      vertex 166.736 -8.19123 69.675
    endloop
  endfacet
  facet normal -0.997297 0.0734718 0
    outer loop
      vertex 166.736 -8.19123 70
      vertex 166.134 -16.3627 69.675
      vertex 166.134 -16.3627 70
    endloop
  endfacet
  facet normal -0.99248 0.122411 0
    outer loop
      vertex 165.131 -24.4948 69.675
      vertex 166.134 -16.3627 70
      vertex 166.134 -16.3627 69.675
    endloop
  endfacet
  facet normal -0.99248 0.122411 0
    outer loop
      vertex 166.134 -16.3627 70
      vertex 165.131 -24.4948 69.675
      vertex 165.131 -24.4948 70
    endloop
  endfacet
  facet normal -0.999698 0.0245947 0
    outer loop
      vertex 169.614 -8.33261 0
      vertex 169.819 0 5.1625
      vertex 169.819 0 0
    endloop
  endfacet
  facet normal -0.999698 0.0245947 0
    outer loop
      vertex 169.819 0 5.1625
      vertex 169.614 -8.33261 0
      vertex 169.614 -8.33261 5.1625
    endloop
  endfacet
  facet normal -0.949548 0.313621 0
    outer loop
      vertex 159.892 -57.2102 0
      vertex 162.506 -49.2958 5.1625
      vertex 162.506 -49.2958 0
    endloop
  endfacet
  facet normal -0.949548 0.313621 0
    outer loop
      vertex 162.506 -49.2958 5.1625
      vertex 159.892 -57.2102 0
      vertex 159.892 -57.2102 5.1625
    endloop
  endfacet
  facet normal -0.35992 0.932983 0
    outer loop
      vertex 64.9868 -156.892 0
      vertex 57.2102 -159.892 5.1625
      vertex 64.9868 -156.892 5.1625
    endloop
  endfacet
  facet normal -0.35992 0.932983 0
    outer loop
      vertex 57.2102 -159.892 5.1625
      vertex 64.9868 -156.892 0
      vertex 57.2102 -159.892 0
    endloop
  endfacet
  facet normal -0.975683 0.219188 0
    outer loop
      vertex 164.729 -41.2626 0
      vertex 166.556 -33.13 5.1625
      vertex 166.556 -33.13 0
    endloop
  endfacet
  facet normal -0.975683 0.219188 0
    outer loop
      vertex 166.556 -33.13 5.1625
      vertex 164.729 -41.2626 0
      vertex 164.729 -41.2626 5.1625
    endloop
  endfacet
  facet normal -0.997292 0.0735447 0
    outer loop
      vertex 169.001 -16.6451 0
      vertex 169.614 -8.33261 5.1625
      vertex 169.614 -8.33261 0
    endloop
  endfacet
  facet normal -0.997292 0.0735447 0
    outer loop
      vertex 169.614 -8.33261 5.1625
      vertex 169.001 -16.6451 0
      vertex 169.001 -16.6451 5.1625
    endloop
  endfacet
  facet normal -0.405266 0.914199 0
    outer loop
      vertex 72.6069 -153.514 0
      vertex 64.9868 -156.892 5.1625
      vertex 72.6069 -153.514 5.1625
    endloop
  endfacet
  facet normal -0.405266 0.914199 0
    outer loop
      vertex 64.9868 -156.892 5.1625
      vertex 72.6069 -153.514 0
      vertex 64.9868 -156.892 0
    endloop
  endfacet
  facet normal -0.870055 0.492955 0
    outer loop
      vertex 145.658 -87.3043 0
      vertex 149.767 -80.052 5.1625
      vertex 149.767 -80.052 0
    endloop
  endfacet
  facet normal -0.870055 0.492955 0
    outer loop
      vertex 149.767 -80.052 5.1625
      vertex 145.658 -87.3043 0
      vertex 145.658 -87.3043 5.1625
    endloop
  endfacet
  facet normal -0.78835 0.615227 0
    outer loop
      vertex 131.272 -107.732 0
      vertex 136.4 -101.161 5.1625
      vertex 136.4 -101.161 0
    endloop
  endfacet
  facet normal -0.78835 0.615227 0
    outer loop
      vertex 136.4 -101.161 5.1625
      vertex 131.272 -107.732 0
      vertex 131.272 -107.732 5.1625
    endloop
  endfacet
  facet normal -0.449559 0.893251 0
    outer loop
      vertex 80.052 -149.767 0
      vertex 72.6069 -153.514 5.1625
      vertex 80.052 -149.767 5.1625
    endloop
  endfacet
  facet normal -0.449559 0.893251 0
    outer loop
      vertex 72.6069 -153.514 5.1625
      vertex 80.052 -149.767 0
      vertex 72.6069 -153.514 0
    endloop
  endfacet
  facet normal -0.689496 0.724289 0
    outer loop
      vertex 120.08 -120.08 0
      vertex 114.043 -125.827 5.1625
      vertex 120.08 -120.08 5.1625
    endloop
  endfacet
  facet normal -0.689496 0.724289 0
    outer loop
      vertex 114.043 -125.827 5.1625
      vertex 120.08 -120.08 0
      vertex 114.043 -125.827 0
    endloop
  endfacet
  facet normal -0.985277 0.170963 0
    outer loop
      vertex 166.556 -33.13 0
      vertex 167.981 -24.9176 5.1625
      vertex 167.981 -24.9176 0
    endloop
  endfacet
  facet normal -0.985277 0.170963 0
    outer loop
      vertex 167.981 -24.9176 5.1625
      vertex 166.556 -33.13 0
      vertex 166.556 -33.13 5.1625
    endloop
  endfacet
  facet normal -0.992484 0.122373 0
    outer loop
      vertex 167.981 -24.9176 0
      vertex 169.001 -16.6451 5.1625
      vertex 169.001 -16.6451 0
    endloop
  endfacet
  facet normal -0.992484 0.122373 0
    outer loop
      vertex 169.001 -16.6451 5.1625
      vertex 167.981 -24.9176 0
      vertex 167.981 -24.9176 5.1625
    endloop
  endfacet
  facet normal -0.963779 0.266703 0
    outer loop
      vertex 162.506 -49.2958 0
      vertex 164.729 -41.2626 5.1625
      vertex 164.729 -41.2626 0
    endloop
  endfacet
  facet normal -0.963779 0.266703 0
    outer loop
      vertex 164.729 -41.2626 5.1625
      vertex 162.506 -49.2958 0
      vertex 162.506 -49.2958 5.1625
    endloop
  endfacet
  facet normal -0.757144 0.653248 0
    outer loop
      vertex 125.827 -114.043 0
      vertex 131.272 -107.732 5.1625
      vertex 131.272 -107.732 0
    endloop
  endfacet
  facet normal -0.757144 0.653248 0
    outer loop
      vertex 131.272 -107.732 5.1625
      vertex 125.827 -114.043 0
      vertex 125.827 -114.043 5.1625
    endloop
  endfacet
  facet normal -0.817614 0.575766 0
    outer loop
      vertex 136.4 -101.161 0
      vertex 141.199 -94.3462 5.1625
      vertex 141.199 -94.3462 0
    endloop
  endfacet
  facet normal -0.817614 0.575766 0
    outer loop
      vertex 141.199 -94.3462 5.1625
      vertex 136.4 -101.161 0
      vertex 136.4 -101.161 5.1625
    endloop
  endfacet
  facet normal -0.575766 0.817614 0
    outer loop
      vertex 101.161 -136.4 0
      vertex 94.3462 -141.199 5.1625
      vertex 101.161 -136.4 5.1625
    endloop
  endfacet
  facet normal -0.575766 0.817614 0
    outer loop
      vertex 94.3462 -141.199 5.1625
      vertex 101.161 -136.4 0
      vertex 94.3462 -141.199 0
    endloop
  endfacet
  facet normal -0.615227 0.78835 0
    outer loop
      vertex 107.732 -131.272 0
      vertex 101.161 -136.4 5.1625
      vertex 107.732 -131.272 5.1625
    endloop
  endfacet
  facet normal -0.615227 0.78835 0
    outer loop
      vertex 101.161 -136.4 5.1625
      vertex 107.732 -131.272 0
      vertex 101.161 -136.4 0
    endloop
  endfacet
  facet normal -0.313737 0.94951 0
    outer loop
      vertex 57.2102 -159.892 0
      vertex 52.4617 -161.461 5.1625
      vertex 57.2102 -159.892 5.1625
    endloop
  endfacet
  facet normal -0.313737 0.94951 0
    outer loop
      vertex 52.4617 -161.461 5.1625
      vertex 57.2102 -159.892 0
      vertex 52.4617 -161.461 0
    endloop
  endfacet
  facet normal -0.893251 0.449559 0
    outer loop
      vertex 149.767 -80.052 0
      vertex 153.514 -72.6069 5.1625
      vertex 153.514 -72.6069 0
    endloop
  endfacet
  facet normal -0.893251 0.449559 0
    outer loop
      vertex 153.514 -72.6069 5.1625
      vertex 149.767 -80.052 0
      vertex 149.767 -80.052 5.1625
    endloop
  endfacet
  facet normal -0.932983 0.35992 0
    outer loop
      vertex 156.892 -64.9868 0
      vertex 159.892 -57.2102 5.1625
      vertex 159.892 -57.2102 0
    endloop
  endfacet
  facet normal -0.932983 0.35992 0
    outer loop
      vertex 159.892 -57.2102 5.1625
      vertex 156.892 -64.9868 0
      vertex 156.892 -64.9868 5.1625
    endloop
  endfacet
  facet normal -0.914199 0.405266 0
    outer loop
      vertex 153.514 -72.6069 0
      vertex 156.892 -64.9868 5.1625
      vertex 156.892 -64.9868 0
    endloop
  endfacet
  facet normal -0.914199 0.405266 0
    outer loop
      vertex 156.892 -64.9868 5.1625
      vertex 153.514 -72.6069 0
      vertex 153.514 -72.6069 5.1625
    endloop
  endfacet
  facet normal -0.844866 0.534978 0
    outer loop
      vertex 141.199 -94.3462 0
      vertex 145.658 -87.3043 5.1625
      vertex 145.658 -87.3043 0
    endloop
  endfacet
  facet normal -0.844866 0.534978 0
    outer loop
      vertex 145.658 -87.3043 5.1625
      vertex 141.199 -94.3462 0
      vertex 141.199 -94.3462 5.1625
    endloop
  endfacet
  facet normal -0.492955 0.870055 0
    outer loop
      vertex 87.3043 -145.658 0
      vertex 80.052 -149.767 5.1625
      vertex 87.3043 -145.658 5.1625
    endloop
  endfacet
  facet normal -0.492955 0.870055 0
    outer loop
      vertex 80.052 -149.767 5.1625
      vertex 87.3043 -145.658 0
      vertex 80.052 -149.767 0
    endloop
  endfacet
  facet normal -0.534978 0.844866 0
    outer loop
      vertex 94.3462 -141.199 0
      vertex 87.3043 -145.658 5.1625
      vertex 94.3462 -141.199 5.1625
    endloop
  endfacet
  facet normal -0.534978 0.844866 0
    outer loop
      vertex 87.3043 -145.658 5.1625
      vertex 94.3462 -141.199 0
      vertex 87.3043 -145.658 0
    endloop
  endfacet
  facet normal -0.724289 0.689496 0
    outer loop
      vertex 120.08 -120.08 0
      vertex 125.827 -114.043 5.1625
      vertex 125.827 -114.043 0
    endloop
  endfacet
  facet normal -0.724289 0.689496 0
    outer loop
      vertex 125.827 -114.043 5.1625
      vertex 120.08 -120.08 0
      vertex 120.08 -120.08 5.1625
    endloop
  endfacet
  facet normal -0.653248 0.757144 0
    outer loop
      vertex 114.043 -125.827 0
      vertex 107.732 -131.272 5.1625
      vertex 114.043 -125.827 5.1625
    endloop
  endfacet
  facet normal -0.653248 0.757144 0
    outer loop
      vertex 107.732 -131.272 5.1625
      vertex 114.043 -125.827 0
      vertex 107.732 -131.272 0
    endloop
  endfacet
  facet normal -0.94955 0.313617 0
    outer loop
      vertex 158.121 -56.5764 15.1625
      vertex 160.706 -48.7497 59.675
      vertex 160.706 -48.7497 15.1625
    endloop
  endfacet
  facet normal -0.94955 0.313617 0
    outer loop
      vertex 160.706 -48.7497 59.675
      vertex 158.121 -56.5764 15.1625
      vertex 158.121 -56.5764 59.675
    endloop
  endfacet
  facet normal -0.689482 0.724302 0
    outer loop
      vertex 118.75 -118.75 15.1625
      vertex 112.78 -124.433 59.675
      vertex 118.75 -118.75 59.675
    endloop
  endfacet
  facet normal -0.689482 0.724302 0
    outer loop
      vertex 112.78 -124.433 59.675
      vertex 118.75 -118.75 15.1625
      vertex 112.78 -124.433 15.1625
    endloop
  endfacet
  facet normal -0.999697 0.0246276 0
    outer loop
      vertex 167.735 -8.2403 15.1625
      vertex 167.938 0 59.675
      vertex 167.938 0 15.1625
    endloop
  endfacet
  facet normal -0.999697 0.0246276 0
    outer loop
      vertex 167.938 0 59.675
      vertex 167.735 -8.2403 15.1625
      vertex 167.735 -8.2403 59.675
    endloop
  endfacet
  facet normal -0.997294 0.0735187 0
    outer loop
      vertex 167.129 -16.4608 15.1625
      vertex 167.735 -8.2403 59.675
      vertex 167.735 -8.2403 15.1625
    endloop
  endfacet
  facet normal -0.997294 0.0735187 0
    outer loop
      vertex 167.735 -8.2403 59.675
      vertex 167.129 -16.4608 15.1625
      vertex 167.129 -16.4608 59.675
    endloop
  endfacet
  facet normal -0.975702 0.219101 0
    outer loop
      vertex 162.905 -40.8055 15.1625
      vertex 164.711 -32.763 59.675
      vertex 164.711 -32.763 15.1625
    endloop
  endfacet
  facet normal -0.975702 0.219101 0
    outer loop
      vertex 164.711 -32.763 59.675
      vertex 162.905 -40.8055 15.1625
      vertex 162.905 -40.8055 59.675
    endloop
  endfacet
  facet normal -0.932975 0.359942 0
    outer loop
      vertex 155.154 -64.2669 15.1625
      vertex 158.121 -56.5764 59.675
      vertex 158.121 -56.5764 15.1625
    endloop
  endfacet
  facet normal -0.932975 0.359942 0
    outer loop
      vertex 158.121 -56.5764 59.675
      vertex 155.154 -64.2669 15.1625
      vertex 155.154 -64.2669 59.675
    endloop
  endfacet
  facet normal -0.757232 0.653146 0
    outer loop
      vertex 124.433 -112.78 15.1625
      vertex 129.817 -106.538 59.675
      vertex 129.817 -106.538 15.1625
    endloop
  endfacet
  facet normal -0.757232 0.653146 0
    outer loop
      vertex 129.817 -106.538 59.675
      vertex 124.433 -112.78 15.1625
      vertex 124.433 -112.78 59.675
    endloop
  endfacet
  facet normal -0.788293 0.6153 0
    outer loop
      vertex 129.817 -106.538 15.1625
      vertex 134.889 -100.04 59.675
      vertex 134.889 -100.04 15.1625
    endloop
  endfacet
  facet normal -0.788293 0.6153 0
    outer loop
      vertex 134.889 -100.04 59.675
      vertex 129.817 -106.538 15.1625
      vertex 129.817 -106.538 59.675
    endloop
  endfacet
  facet normal -0.359942 0.932975 0
    outer loop
      vertex 64.2669 -155.154 15.1625
      vertex 56.5764 -158.121 59.675
      vertex 64.2669 -155.154 59.675
    endloop
  endfacet
  facet normal -0.359942 0.932975 0
    outer loop
      vertex 56.5764 -158.121 59.675
      vertex 64.2669 -155.154 15.1625
      vertex 56.5764 -158.121 15.1625
    endloop
  endfacet
  facet normal -0.724302 0.689482 0
    outer loop
      vertex 118.75 -118.75 15.1625
      vertex 124.433 -112.78 59.675
      vertex 124.433 -112.78 15.1625
    endloop
  endfacet
  facet normal -0.724302 0.689482 0
    outer loop
      vertex 124.433 -112.78 59.675
      vertex 118.75 -118.75 15.1625
      vertex 118.75 -118.75 59.675
    endloop
  endfacet
  facet normal -0.6153 0.788293 0
    outer loop
      vertex 106.538 -129.817 15.1625
      vertex 100.04 -134.889 59.675
      vertex 106.538 -129.817 59.675
    endloop
  endfacet
  facet normal -0.6153 0.788293 0
    outer loop
      vertex 100.04 -134.889 59.675
      vertex 106.538 -129.817 15.1625
      vertex 100.04 -134.889 15.1625
    endloop
  endfacet
  facet normal -0.535006 0.844848 0
    outer loop
      vertex 93.3011 -139.635 15.1625
      vertex 86.3371 -144.045 59.675
      vertex 93.3011 -139.635 59.675
    endloop
  endfacet
  facet normal -0.535006 0.844848 0
    outer loop
      vertex 86.3371 -144.045 59.675
      vertex 93.3011 -139.635 15.1625
      vertex 86.3371 -144.045 15.1625
    endloop
  endfacet
  facet normal -0.449604 0.893228 0
    outer loop
      vertex 79.1652 -148.108 15.1625
      vertex 71.8025 -151.814 59.675
      vertex 79.1652 -148.108 59.675
    endloop
  endfacet
  facet normal -0.449604 0.893228 0
    outer loop
      vertex 71.8025 -151.814 59.675
      vertex 79.1652 -148.108 15.1625
      vertex 71.8025 -151.814 15.1625
    endloop
  endfacet
  facet normal -0.575803 0.817589 0
    outer loop
      vertex 100.04 -134.889 15.1625
      vertex 93.3011 -139.635 59.675
      vertex 100.04 -134.889 59.675
    endloop
  endfacet
  facet normal -0.575803 0.817589 0
    outer loop
      vertex 93.3011 -139.635 59.675
      vertex 100.04 -134.889 15.1625
      vertex 93.3011 -139.635 15.1625
    endloop
  endfacet
  facet normal -0.992479 0.122411 0
    outer loop
      vertex 166.12 -24.6415 15.1625
      vertex 167.129 -16.4608 59.675
      vertex 167.129 -16.4608 15.1625
    endloop
  endfacet
  facet normal -0.992479 0.122411 0
    outer loop
      vertex 167.129 -16.4608 59.675
      vertex 166.12 -24.6415 15.1625
      vertex 166.12 -24.6415 59.675
    endloop
  endfacet
  facet normal -0.963759 0.266774 0
    outer loop
      vertex 160.706 -48.7497 15.1625
      vertex 162.905 -40.8055 59.675
      vertex 162.905 -40.8055 15.1625
    endloop
  endfacet
  facet normal -0.963759 0.266774 0
    outer loop
      vertex 162.905 -40.8055 59.675
      vertex 160.706 -48.7497 15.1625
      vertex 160.706 -48.7497 59.675
    endloop
  endfacet
  facet normal -0.844848 0.535006 0
    outer loop
      vertex 139.635 -93.3011 15.1625
      vertex 144.045 -86.3371 59.675
      vertex 144.045 -86.3371 15.1625
    endloop
  endfacet
  facet normal -0.844848 0.535006 0
    outer loop
      vertex 144.045 -86.3371 59.675
      vertex 139.635 -93.3011 15.1625
      vertex 139.635 -93.3011 59.675
    endloop
  endfacet
  facet normal -0.893228 0.449604 0
    outer loop
      vertex 148.108 -79.1652 15.1625
      vertex 151.814 -71.8025 59.675
      vertex 151.814 -71.8025 15.1625
    endloop
  endfacet
  facet normal -0.893228 0.449604 0
    outer loop
      vertex 151.814 -71.8025 59.675
      vertex 148.108 -79.1652 15.1625
      vertex 148.108 -79.1652 59.675
    endloop
  endfacet
  facet normal -0.313624 0.949547 0
    outer loop
      vertex 56.5764 -158.121 15.1625
      vertex 51.8805 -159.672 59.675
      vertex 56.5764 -158.121 59.675
    endloop
  endfacet
  facet normal -0.313624 0.949547 0
    outer loop
      vertex 51.8805 -159.672 59.675
      vertex 56.5764 -158.121 15.1625
      vertex 51.8805 -159.672 15.1625
    endloop
  endfacet
  facet normal -0.405211 0.914223 0
    outer loop
      vertex 71.8025 -151.814 15.1625
      vertex 64.2669 -155.154 59.675
      vertex 71.8025 -151.814 59.675
    endloop
  endfacet
  facet normal -0.405211 0.914223 0
    outer loop
      vertex 64.2669 -155.154 59.675
      vertex 71.8025 -151.814 15.1625
      vertex 64.2669 -155.154 15.1625
    endloop
  endfacet
  facet normal -0.653146 0.757232 0
    outer loop
      vertex 112.78 -124.433 15.1625
      vertex 106.538 -129.817 59.675
      vertex 112.78 -124.433 59.675
    endloop
  endfacet
  facet normal -0.653146 0.757232 0
    outer loop
      vertex 106.538 -129.817 59.675
      vertex 112.78 -124.433 15.1625
      vertex 106.538 -129.817 15.1625
    endloop
  endfacet
  facet normal -0.492914 0.870078 0
    outer loop
      vertex 86.3371 -144.045 15.1625
      vertex 79.1652 -148.108 59.675
      vertex 86.3371 -144.045 59.675
    endloop
  endfacet
  facet normal -0.492914 0.870078 0
    outer loop
      vertex 79.1652 -148.108 59.675
      vertex 86.3371 -144.045 15.1625
      vertex 79.1652 -148.108 15.1625
    endloop
  endfacet
  facet normal -0.985282 0.170937 0
    outer loop
      vertex 164.711 -32.763 15.1625
      vertex 166.12 -24.6415 59.675
      vertex 166.12 -24.6415 15.1625
    endloop
  endfacet
  facet normal -0.985282 0.170937 0
    outer loop
      vertex 166.12 -24.6415 59.675
      vertex 164.711 -32.763 15.1625
      vertex 164.711 -32.763 59.675
    endloop
  endfacet
  facet normal -0.914223 0.405211 0
    outer loop
      vertex 151.814 -71.8025 15.1625
      vertex 155.154 -64.2669 59.675
      vertex 155.154 -64.2669 15.1625
    endloop
  endfacet
  facet normal -0.914223 0.405211 0
    outer loop
      vertex 155.154 -64.2669 59.675
      vertex 151.814 -71.8025 15.1625
      vertex 151.814 -71.8025 59.675
    endloop
  endfacet
  facet normal -0.817589 0.575803 0
    outer loop
      vertex 134.889 -100.04 15.1625
      vertex 139.635 -93.3011 59.675
      vertex 139.635 -93.3011 15.1625
    endloop
  endfacet
  facet normal -0.817589 0.575803 0
    outer loop
      vertex 139.635 -93.3011 59.675
      vertex 134.889 -100.04 15.1625
      vertex 134.889 -100.04 59.675
    endloop
  endfacet
  facet normal -0.870078 0.492914 0
    outer loop
      vertex 144.045 -86.3371 15.1625
      vertex 148.108 -79.1652 59.675
      vertex 148.108 -79.1652 15.1625
    endloop
  endfacet
  facet normal -0.870078 0.492914 0
    outer loop
      vertex 148.108 -79.1652 59.675
      vertex 144.045 -86.3371 15.1625
      vertex 144.045 -86.3371 59.675
    endloop
  endfacet
  facet normal -0 0 1
    outer loop
      vertex 168.665 -8.286 66.425
      vertex 171.243 -8.41265 66.425
      vertex 171.45 0 66.425
    endloop
  endfacet
  facet normal 0 0 1
    outer loop
      vertex 171.243 -8.41265 66.425
      vertex 168.665 -8.286 66.425
      vertex 170.624 -16.805 66.425
    endloop
  endfacet
  facet normal 0 0 1
    outer loop
      vertex 168.665 -8.286 66.425
      vertex 171.45 0 66.425
      vertex 168.869 0 66.425
    endloop
  endfacet
  facet normal -0 0 1
    outer loop
      vertex 168.056 -16.552 66.425
      vertex 170.624 -16.805 66.425
      vertex 168.665 -8.286 66.425
    endloop
  endfacet
  facet normal 0 0 1
    outer loop
      vertex 170.624 -16.805 66.425
      vertex 168.056 -16.552 66.425
      vertex 169.594 -25.1569 66.425
    endloop
  endfacet
  facet normal -0 0 1
    outer loop
      vertex 167.041 -24.7782 66.425
      vertex 169.594 -25.1569 66.425
      vertex 168.056 -16.552 66.425
    endloop
  endfacet
  facet normal 0 0 1
    outer loop
      vertex 169.594 -25.1569 66.425
      vertex 167.041 -24.7782 66.425
      vertex 168.156 -33.4482 66.425
    endloop
  endfacet
  facet normal -0 0 1
    outer loop
      vertex 165.624 -32.9447 66.425
      vertex 168.156 -33.4482 66.425
      vertex 167.041 -24.7782 66.425
    endloop
  endfacet
  facet normal 0 0 1
    outer loop
      vertex 168.156 -33.4482 66.425
      vertex 165.624 -32.9447 66.425
      vertex 166.312 -41.659 66.425
    endloop
  endfacet
  facet normal -0 0 1
    outer loop
      vertex 163.808 -41.0318 66.425
      vertex 166.312 -41.659 66.425
      vertex 165.624 -32.9447 66.425
    endloop
  endfacet
  facet normal 0 0 1
    outer loop
      vertex 166.312 -41.659 66.425
      vertex 163.808 -41.0318 66.425
      vertex 164.067 -49.7693 66.425
    endloop
  endfacet
  facet normal -0 0 1
    outer loop
      vertex 161.597 -49.02 66.425
      vertex 164.067 -49.7693 66.425
      vertex 163.808 -41.0318 66.425
    endloop
  endfacet
  facet normal 0 0 1
    outer loop
      vertex 161.597 -49.02 66.425
      vertex 161.428 -57.7598 66.425
      vertex 164.067 -49.7693 66.425
    endloop
  endfacet
  facet normal -0 0 1
    outer loop
      vertex 158.997 -56.8902 66.425
      vertex 161.428 -57.7598 66.425
      vertex 161.597 -49.02 66.425
    endloop
  endfacet
  facet normal 0 0 1
    outer loop
      vertex 158.997 -56.8902 66.425
      vertex 158.399 -65.6111 66.425
      vertex 161.428 -57.7598 66.425
    endloop
  endfacet
  facet normal -0 0 1
    outer loop
      vertex 156.014 -64.6233 66.425
      vertex 158.399 -65.6111 66.425
      vertex 158.997 -56.8902 66.425
    endloop
  endfacet
  facet normal 0 0 1
    outer loop
      vertex 156.014 -64.6233 66.425
      vertex 154.989 -73.3043 66.425
      vertex 158.399 -65.6111 66.425
    endloop
  endfacet
  facet normal -0 0 1
    outer loop
      vertex 152.656 -72.2007 66.425
      vertex 154.989 -73.3043 66.425
      vertex 156.014 -64.6233 66.425
    endloop
  endfacet
  facet normal 0 0 1
    outer loop
      vertex 152.656 -72.2007 66.425
      vertex 151.205 -80.821 66.425
      vertex 154.989 -73.3043 66.425
    endloop
  endfacet
  facet normal -0 0 1
    outer loop
      vertex 148.929 -79.6042 66.425
      vertex 151.205 -80.821 66.425
      vertex 152.656 -72.2007 66.425
    endloop
  endfacet
  facet normal 0 0 1
    outer loop
      vertex 148.929 -79.6042 66.425
      vertex 147.058 -88.1429 66.425
      vertex 151.205 -80.821 66.425
    endloop
  endfacet
  facet normal -0 0 1
    outer loop
      vertex 144.844 -86.8159 66.425
      vertex 147.058 -88.1429 66.425
      vertex 148.929 -79.6042 66.425
    endloop
  endfacet
  facet normal 0 0 1
    outer loop
      vertex 144.844 -86.8159 66.425
      vertex 142.555 -95.2525 66.425
      vertex 147.058 -88.1429 66.425
    endloop
  endfacet
  facet normal -0 0 1
    outer loop
      vertex 140.409 -93.8185 66.425
      vertex 142.555 -95.2525 66.425
      vertex 144.844 -86.8159 66.425
    endloop
  endfacet
  facet normal 0 0 1
    outer loop
      vertex 140.409 -93.8185 66.425
      vertex 137.71 -102.133 66.425
      vertex 142.555 -95.2525 66.425
    endloop
  endfacet
  facet normal -0 0 1
    outer loop
      vertex 135.637 -100.595 66.425
      vertex 137.71 -102.133 66.425
      vertex 140.409 -93.8185 66.425
    endloop
  endfacet
  facet normal 0 0 1
    outer loop
      vertex 135.637 -100.595 66.425
      vertex 132.533 -108.767 66.425
      vertex 137.71 -102.133 66.425
    endloop
  endfacet
  facet normal -0 0 1
    outer loop
      vertex 130.537 -107.129 66.425
      vertex 132.533 -108.767 66.425
      vertex 135.637 -100.595 66.425
    endloop
  endfacet
  facet normal 0 0 1
    outer loop
      vertex 130.537 -107.129 66.425
      vertex 127.036 -115.139 66.425
      vertex 132.533 -108.767 66.425
    endloop
  endfacet
  facet normal -0 0 1
    outer loop
      vertex 125.123 -113.405 66.425
      vertex 127.036 -115.139 66.425
      vertex 130.537 -107.129 66.425
    endloop
  endfacet
  facet normal 0 0 1
    outer loop
      vertex 125.123 -113.405 66.425
      vertex 121.233 -121.233 66.425
      vertex 127.036 -115.139 66.425
    endloop
  endfacet
  facet normal -0 0 1
    outer loop
      vertex 119.408 -119.408 66.425
      vertex 121.233 -121.233 66.425
      vertex 125.123 -113.405 66.425
    endloop
  endfacet
  facet normal 0 0 1
    outer loop
      vertex 119.408 -119.408 66.425
      vertex 115.139 -127.036 66.425
      vertex 121.233 -121.233 66.425
    endloop
  endfacet
  facet normal -0 0 1
    outer loop
      vertex 113.405 -125.123 66.425
      vertex 115.139 -127.036 66.425
      vertex 119.408 -119.408 66.425
    endloop
  endfacet
  facet normal 0 0 1
    outer loop
      vertex 113.405 -125.123 66.425
      vertex 108.767 -132.533 66.425
      vertex 115.139 -127.036 66.425
    endloop
  endfacet
  facet normal -0 0 1
    outer loop
      vertex 107.129 -130.537 66.425
      vertex 108.767 -132.533 66.425
      vertex 113.405 -125.123 66.425
    endloop
  endfacet
  facet normal 0 0 1
    outer loop
      vertex 107.129 -130.537 66.425
      vertex 102.133 -137.71 66.425
      vertex 108.767 -132.533 66.425
    endloop
  endfacet
  facet normal -0 0 1
    outer loop
      vertex 100.595 -135.637 66.425
      vertex 102.133 -137.71 66.425
      vertex 107.129 -130.537 66.425
    endloop
  endfacet
  facet normal 0 0 1
    outer loop
      vertex 100.595 -135.637 66.425
      vertex 95.2525 -142.555 66.425
      vertex 102.133 -137.71 66.425
    endloop
  endfacet
  facet normal -0 0 1
    outer loop
      vertex 93.8185 -140.409 66.425
      vertex 95.2525 -142.555 66.425
      vertex 100.595 -135.637 66.425
    endloop
  endfacet
  facet normal 0 0 1
    outer loop
      vertex 93.8185 -140.409 66.425
      vertex 88.1429 -147.058 66.425
      vertex 95.2525 -142.555 66.425
    endloop
  endfacet
  facet normal -0 0 1
    outer loop
      vertex 86.8159 -144.844 66.425
      vertex 88.1429 -147.058 66.425
      vertex 93.8185 -140.409 66.425
    endloop
  endfacet
  facet normal 0 0 1
    outer loop
      vertex 86.8159 -144.844 66.425
      vertex 80.821 -151.205 66.425
      vertex 88.1429 -147.058 66.425
    endloop
  endfacet
  facet normal -0 0 1
    outer loop
      vertex 79.6042 -148.929 66.425
      vertex 80.821 -151.205 66.425
      vertex 86.8159 -144.844 66.425
    endloop
  endfacet
  facet normal 0 0 1
    outer loop
      vertex 79.6042 -148.929 66.425
      vertex 73.3043 -154.989 66.425
      vertex 80.821 -151.205 66.425
    endloop
  endfacet
  facet normal -0 0 1
    outer loop
      vertex 72.2007 -152.656 66.425
      vertex 73.3043 -154.989 66.425
      vertex 79.6042 -148.929 66.425
    endloop
  endfacet
  facet normal 0 0 1
    outer loop
      vertex 72.2007 -152.656 66.425
      vertex 65.6111 -158.399 66.425
      vertex 73.3043 -154.989 66.425
    endloop
  endfacet
  facet normal -0 0 1
    outer loop
      vertex 64.6233 -156.014 66.425
      vertex 65.6111 -158.399 66.425
      vertex 72.2007 -152.656 66.425
    endloop
  endfacet
  facet normal 0 0 1
    outer loop
      vertex 64.6233 -156.014 66.425
      vertex 57.7598 -161.428 66.425
      vertex 65.6111 -158.399 66.425
    endloop
  endfacet
  facet normal -0 0 1
    outer loop
      vertex 56.8902 -158.997 66.425
      vertex 57.7598 -161.428 66.425
      vertex 64.6233 -156.014 66.425
    endloop
  endfacet
  facet normal 0 0 1
    outer loop
      vertex 56.8902 -158.997 66.425
      vertex 52.9656 -163.011 66.425
      vertex 57.7598 -161.428 66.425
    endloop
  endfacet
  facet normal 0 -0 1
    outer loop
      vertex 52.9656 -163.011 66.425
      vertex 56.8902 -158.997 66.425
      vertex 52.1682 -160.557 66.425
    endloop
  endfacet
  facet normal 0.870107 -0.492864 0
    outer loop
      vertex 144.844 -86.8159 70
      vertex 148.929 -79.6042 66.425
      vertex 148.929 -79.6042 70
    endloop
  endfacet
  facet normal 0.870107 -0.492864 0
    outer loop
      vertex 148.929 -79.6042 66.425
      vertex 144.844 -86.8159 70
      vertex 144.844 -86.8159 66.425
    endloop
  endfacet
  facet normal 0.68952 -0.724267 0
    outer loop
      vertex 113.405 -125.123 66.425
      vertex 119.408 -119.408 70
      vertex 113.405 -125.123 70
    endloop
  endfacet
  facet normal 0.68952 -0.724267 0
    outer loop
      vertex 119.408 -119.408 70
      vertex 113.405 -125.123 66.425
      vertex 119.408 -119.408 66.425
    endloop
  endfacet
  facet normal 0.999697 -0.0246124 0
    outer loop
      vertex 168.665 -8.286 70
      vertex 168.869 0 66.425
      vertex 168.869 0 70
    endloop
  endfacet
  facet normal 0.999697 -0.0246124 0
    outer loop
      vertex 168.869 0 66.425
      vertex 168.665 -8.286 70
      vertex 168.665 -8.286 66.425
    endloop
  endfacet
  facet normal 0.985278 -0.170959 0
    outer loop
      vertex 165.624 -32.9447 70
      vertex 167.041 -24.7782 66.425
      vertex 167.041 -24.7782 70
    endloop
  endfacet
  facet normal 0.985278 -0.170959 0
    outer loop
      vertex 167.041 -24.7782 66.425
      vertex 165.624 -32.9447 70
      vertex 165.624 -32.9447 66.425
    endloop
  endfacet
  facet normal 0.359897 -0.932992 0
    outer loop
      vertex 56.8902 -158.997 66.425
      vertex 64.6233 -156.014 70
      vertex 56.8902 -158.997 70
    endloop
  endfacet
  facet normal 0.359897 -0.932992 0
    outer loop
      vertex 64.6233 -156.014 70
      vertex 56.8902 -158.997 66.425
      vertex 64.6233 -156.014 66.425
    endloop
  endfacet
  facet normal 0.405158 -0.914247 0
    outer loop
      vertex 64.6233 -156.014 66.425
      vertex 72.2007 -152.656 70
      vertex 64.6233 -156.014 70
    endloop
  endfacet
  facet normal 0.405158 -0.914247 0
    outer loop
      vertex 72.2007 -152.656 70
      vertex 64.6233 -156.014 66.425
      vertex 72.2007 -152.656 66.425
    endloop
  endfacet
  facet normal 0.724267 -0.68952 0
    outer loop
      vertex 119.408 -119.408 70
      vertex 125.123 -113.405 66.425
      vertex 125.123 -113.405 70
    endloop
  endfacet
  facet normal 0.724267 -0.68952 0
    outer loop
      vertex 125.123 -113.405 66.425
      vertex 119.408 -119.408 70
      vertex 119.408 -119.408 66.425
    endloop
  endfacet
  facet normal 0.615293 -0.788299 0
    outer loop
      vertex 100.595 -135.637 66.425
      vertex 107.129 -130.537 70
      vertex 100.595 -135.637 70
    endloop
  endfacet
  facet normal 0.615293 -0.788299 0
    outer loop
      vertex 107.129 -130.537 70
      vertex 100.595 -135.637 66.425
      vertex 107.129 -130.537 66.425
    endloop
  endfacet
  facet normal 0.535054 -0.844818 0
    outer loop
      vertex 86.8159 -144.844 66.425
      vertex 93.8185 -140.409 70
      vertex 86.8159 -144.844 70
    endloop
  endfacet
  facet normal 0.535054 -0.844818 0
    outer loop
      vertex 93.8185 -140.409 70
      vertex 86.8159 -144.844 66.425
      vertex 93.8185 -140.409 66.425
    endloop
  endfacet
  facet normal 0.449649 -0.893205 0
    outer loop
      vertex 72.2007 -152.656 66.425
      vertex 79.6042 -148.929 70
      vertex 72.2007 -152.656 70
    endloop
  endfacet
  facet normal 0.449649 -0.893205 0
    outer loop
      vertex 79.6042 -148.929 70
      vertex 72.2007 -152.656 66.425
      vertex 79.6042 -148.929 66.425
    endloop
  endfacet
  facet normal 0.757192 -0.653193 0
    outer loop
      vertex 125.123 -113.405 70
      vertex 130.537 -107.129 66.425
      vertex 130.537 -107.129 70
    endloop
  endfacet
  facet normal 0.757192 -0.653193 0
    outer loop
      vertex 130.537 -107.129 66.425
      vertex 125.123 -113.405 70
      vertex 125.123 -113.405 66.425
    endloop
  endfacet
  facet normal 0.817616 -0.575764 0
    outer loop
      vertex 135.637 -100.595 70
      vertex 140.409 -93.8185 66.425
      vertex 140.409 -93.8185 70
    endloop
  endfacet
  facet normal 0.817616 -0.575764 0
    outer loop
      vertex 140.409 -93.8185 66.425
      vertex 135.637 -100.595 70
      vertex 135.637 -100.595 66.425
    endloop
  endfacet
  facet normal 0.914247 -0.405158 0
    outer loop
      vertex 152.656 -72.2007 70
      vertex 156.014 -64.6233 66.425
      vertex 156.014 -64.6233 70
    endloop
  endfacet
  facet normal 0.914247 -0.405158 0
    outer loop
      vertex 156.014 -64.6233 66.425
      vertex 152.656 -72.2007 70
      vertex 152.656 -72.2007 66.425
    endloop
  endfacet
  facet normal 0.949527 -0.313686 0
    outer loop
      vertex 158.997 -56.8902 70
      vertex 161.597 -49.02 66.425
      vertex 161.597 -49.02 70
    endloop
  endfacet
  facet normal 0.949527 -0.313686 0
    outer loop
      vertex 161.597 -49.02 66.425
      vertex 158.997 -56.8902 70
      vertex 158.997 -56.8902 66.425
    endloop
  endfacet
  facet normal 0.992474 -0.122458 0
    outer loop
      vertex 167.041 -24.7782 70
      vertex 168.056 -16.552 66.425
      vertex 168.056 -16.552 70
    endloop
  endfacet
  facet normal 0.992474 -0.122458 0
    outer loop
      vertex 168.056 -16.552 66.425
      vertex 167.041 -24.7782 70
      vertex 167.041 -24.7782 66.425
    endloop
  endfacet
  facet normal 0.997297 -0.0734762 0
    outer loop
      vertex 168.056 -16.552 70
      vertex 168.665 -8.286 66.425
      vertex 168.665 -8.286 70
    endloop
  endfacet
  facet normal 0.997297 -0.0734762 0
    outer loop
      vertex 168.665 -8.286 66.425
      vertex 168.056 -16.552 70
      vertex 168.056 -16.552 66.425
    endloop
  endfacet
  facet normal 0.975703 -0.219099 0
    outer loop
      vertex 163.808 -41.0318 70
      vertex 165.624 -32.9447 66.425
      vertex 165.624 -32.9447 70
    endloop
  endfacet
  facet normal 0.975703 -0.219099 0
    outer loop
      vertex 165.624 -32.9447 66.425
      vertex 163.808 -41.0318 70
      vertex 163.808 -41.0318 66.425
    endloop
  endfacet
  facet normal 0.313693 -0.949524 0
    outer loop
      vertex 52.1682 -160.557 66.425
      vertex 56.8902 -158.997 70
      vertex 52.1682 -160.557 70
    endloop
  endfacet
  facet normal 0.313693 -0.949524 0
    outer loop
      vertex 56.8902 -158.997 70
      vertex 52.1682 -160.557 66.425
      vertex 56.8902 -158.997 66.425
    endloop
  endfacet
  facet normal 0.653193 -0.757192 0
    outer loop
      vertex 107.129 -130.537 66.425
      vertex 113.405 -125.123 70
      vertex 107.129 -130.537 70
    endloop
  endfacet
  facet normal 0.653193 -0.757192 0
    outer loop
      vertex 113.405 -125.123 70
      vertex 107.129 -130.537 66.425
      vertex 113.405 -125.123 66.425
    endloop
  endfacet
  facet normal 0.492864 -0.870107 0
    outer loop
      vertex 79.6042 -148.929 66.425
      vertex 86.8159 -144.844 70
      vertex 79.6042 -148.929 70
    endloop
  endfacet
  facet normal 0.492864 -0.870107 0
    outer loop
      vertex 86.8159 -144.844 70
      vertex 79.6042 -148.929 66.425
      vertex 86.8159 -144.844 66.425
    endloop
  endfacet
  facet normal 0.575764 -0.817616 0
    outer loop
      vertex 93.8185 -140.409 66.425
      vertex 100.595 -135.637 70
      vertex 93.8185 -140.409 70
    endloop
  endfacet
  facet normal 0.575764 -0.817616 0
    outer loop
      vertex 100.595 -135.637 70
      vertex 93.8185 -140.409 66.425
      vertex 100.595 -135.637 66.425
    endloop
  endfacet
  facet normal 0.844818 -0.535054 0
    outer loop
      vertex 140.409 -93.8185 70
      vertex 144.844 -86.8159 66.425
      vertex 144.844 -86.8159 70
    endloop
  endfacet
  facet normal 0.844818 -0.535054 0
    outer loop
      vertex 144.844 -86.8159 66.425
      vertex 140.409 -93.8185 70
      vertex 140.409 -93.8185 66.425
    endloop
  endfacet
  facet normal 0.893205 -0.449649 0
    outer loop
      vertex 148.929 -79.6042 70
      vertex 152.656 -72.2007 66.425
      vertex 152.656 -72.2007 70
    endloop
  endfacet
  facet normal 0.893205 -0.449649 0
    outer loop
      vertex 152.656 -72.2007 66.425
      vertex 148.929 -79.6042 70
      vertex 148.929 -79.6042 66.425
    endloop
  endfacet
  facet normal 0.932992 -0.359897 0
    outer loop
      vertex 156.014 -64.6233 70
      vertex 158.997 -56.8902 66.425
      vertex 158.997 -56.8902 70
    endloop
  endfacet
  facet normal 0.932992 -0.359897 0
    outer loop
      vertex 158.997 -56.8902 66.425
      vertex 156.014 -64.6233 70
      vertex 156.014 -64.6233 66.425
    endloop
  endfacet
  facet normal 0.963765 -0.266754 0
    outer loop
      vertex 161.597 -49.02 70
      vertex 163.808 -41.0318 66.425
      vertex 163.808 -41.0318 70
    endloop
  endfacet
  facet normal 0.963765 -0.266754 0
    outer loop
      vertex 163.808 -41.0318 66.425
      vertex 161.597 -49.02 70
      vertex 161.597 -49.02 66.425
    endloop
  endfacet
  facet normal 0.788299 -0.615293 0
    outer loop
      vertex 130.537 -107.129 70
      vertex 135.637 -100.595 66.425
      vertex 135.637 -100.595 70
    endloop
  endfacet
  facet normal 0.788299 -0.615293 0
    outer loop
      vertex 135.637 -100.595 66.425
      vertex 130.537 -107.129 70
      vertex 130.537 -107.129 66.425
    endloop
  endfacet
  facet normal 0.985291 -0.170884 0
    outer loop
      vertex 168.156 -33.4482 66.425
      vertex 169.594 -25.1569 0
      vertex 169.594 -25.1569 66.425
    endloop
  endfacet
  facet normal 0.985291 -0.170884 0
    outer loop
      vertex 169.594 -25.1569 0
      vertex 168.156 -33.4482 66.425
      vertex 168.156 -33.4482 0
    endloop
  endfacet
  facet normal 0.535074 -0.844805 0
    outer loop
      vertex 88.1429 -147.058 0
      vertex 95.2525 -142.555 66.425
      vertex 88.1429 -147.058 66.425
    endloop
  endfacet
  facet normal 0.535074 -0.844805 0
    outer loop
      vertex 95.2525 -142.555 66.425
      vertex 88.1429 -147.058 0
      vertex 95.2525 -142.555 0
    endloop
  endfacet
  facet normal 0.992481 -0.122398 0
    outer loop
      vertex 169.594 -25.1569 66.425
      vertex 170.624 -16.805 0
      vertex 170.624 -16.805 66.425
    endloop
  endfacet
  facet normal 0.992481 -0.122398 0
    outer loop
      vertex 170.624 -16.805 0
      vertex 169.594 -25.1569 66.425
      vertex 169.594 -25.1569 0
    endloop
  endfacet
  facet normal 0 0 -1
    outer loop
      vertex 169.614 -8.33261 0
      vertex 171.243 -8.41265 0
      vertex 170.624 -16.805 0
    endloop
  endfacet
  facet normal 0 0 -1
    outer loop
      vertex 171.243 -8.41265 0
      vertex 169.614 -8.33261 0
      vertex 171.45 0 0
    endloop
  endfacet
  facet normal -0 0 -1
    outer loop
      vertex 171.45 0 0
      vertex 169.614 -8.33261 0
      vertex 169.819 0 0
    endloop
  endfacet
  facet normal 0 0 -1
    outer loop
      vertex 169.001 -16.6451 0
      vertex 170.624 -16.805 0
      vertex 169.594 -25.1569 0
    endloop
  endfacet
  facet normal 0 0 -1
    outer loop
      vertex 170.624 -16.805 0
      vertex 169.001 -16.6451 0
      vertex 169.614 -8.33261 0
    endloop
  endfacet
  facet normal 0 0 -1
    outer loop
      vertex 167.981 -24.9176 0
      vertex 169.594 -25.1569 0
      vertex 168.156 -33.4482 0
    endloop
  endfacet
  facet normal 0 0 -1
    outer loop
      vertex 169.594 -25.1569 0
      vertex 167.981 -24.9176 0
      vertex 169.001 -16.6451 0
    endloop
  endfacet
  facet normal 0 0 -1
    outer loop
      vertex 168.156 -33.4482 0
      vertex 166.556 -33.13 0
      vertex 167.981 -24.9176 0
    endloop
  endfacet
  facet normal 0 0 -1
    outer loop
      vertex 166.312 -41.659 0
      vertex 166.556 -33.13 0
      vertex 168.156 -33.4482 0
    endloop
  endfacet
  facet normal 0 0 -1
    outer loop
      vertex 166.312 -41.659 0
      vertex 164.729 -41.2626 0
      vertex 166.556 -33.13 0
    endloop
  endfacet
  facet normal 0 0 -1
    outer loop
      vertex 164.067 -49.7693 0
      vertex 164.729 -41.2626 0
      vertex 166.312 -41.659 0
    endloop
  endfacet
  facet normal 0 0 -1
    outer loop
      vertex 164.067 -49.7693 0
      vertex 162.506 -49.2958 0
      vertex 164.729 -41.2626 0
    endloop
  endfacet
  facet normal 0 0 -1
    outer loop
      vertex 161.428 -57.7598 0
      vertex 162.506 -49.2958 0
      vertex 164.067 -49.7693 0
    endloop
  endfacet
  facet normal 0 0 -1
    outer loop
      vertex 161.428 -57.7598 0
      vertex 159.892 -57.2102 0
      vertex 162.506 -49.2958 0
    endloop
  endfacet
  facet normal 0 0 -1
    outer loop
      vertex 158.399 -65.6111 0
      vertex 159.892 -57.2102 0
      vertex 161.428 -57.7598 0
    endloop
  endfacet
  facet normal 0 0 -1
    outer loop
      vertex 158.399 -65.6111 0
      vertex 156.892 -64.9868 0
      vertex 159.892 -57.2102 0
    endloop
  endfacet
  facet normal 0 0 -1
    outer loop
      vertex 154.989 -73.3043 0
      vertex 156.892 -64.9868 0
      vertex 158.399 -65.6111 0
    endloop
  endfacet
  facet normal 0 0 -1
    outer loop
      vertex 154.989 -73.3043 0
      vertex 153.514 -72.6069 0
      vertex 156.892 -64.9868 0
    endloop
  endfacet
  facet normal 0 0 -1
    outer loop
      vertex 151.205 -80.821 0
      vertex 153.514 -72.6069 0
      vertex 154.989 -73.3043 0
    endloop
  endfacet
  facet normal 0 0 -1
    outer loop
      vertex 151.205 -80.821 0
      vertex 149.767 -80.052 0
      vertex 153.514 -72.6069 0
    endloop
  endfacet
  facet normal 0 0 -1
    outer loop
      vertex 147.058 -88.1429 0
      vertex 149.767 -80.052 0
      vertex 151.205 -80.821 0
    endloop
  endfacet
  facet normal 0 0 -1
    outer loop
      vertex 147.058 -88.1429 0
      vertex 145.658 -87.3043 0
      vertex 149.767 -80.052 0
    endloop
  endfacet
  facet normal 0 0 -1
    outer loop
      vertex 142.555 -95.2525 0
      vertex 145.658 -87.3043 0
      vertex 147.058 -88.1429 0
    endloop
  endfacet
  facet normal 0 0 -1
    outer loop
      vertex 142.555 -95.2525 0
      vertex 141.199 -94.3462 0
      vertex 145.658 -87.3043 0
    endloop
  endfacet
  facet normal 0 0 -1
    outer loop
      vertex 137.71 -102.133 0
      vertex 141.199 -94.3462 0
      vertex 142.555 -95.2525 0
    endloop
  endfacet
  facet normal 0 0 -1
    outer loop
      vertex 137.71 -102.133 0
      vertex 136.4 -101.161 0
      vertex 141.199 -94.3462 0
    endloop
  endfacet
  facet normal 0 0 -1
    outer loop
      vertex 132.533 -108.767 0
      vertex 136.4 -101.161 0
      vertex 137.71 -102.133 0
    endloop
  endfacet
  facet normal 0 0 -1
    outer loop
      vertex 132.533 -108.767 0
      vertex 131.272 -107.732 0
      vertex 136.4 -101.161 0
    endloop
  endfacet
  facet normal 0 0 -1
    outer loop
      vertex 127.036 -115.139 0
      vertex 131.272 -107.732 0
      vertex 132.533 -108.767 0
    endloop
  endfacet
  facet normal 0 0 -1
    outer loop
      vertex 127.036 -115.139 0
      vertex 125.827 -114.043 0
      vertex 131.272 -107.732 0
    endloop
  endfacet
  facet normal 0 0 -1
    outer loop
      vertex 121.233 -121.233 0
      vertex 125.827 -114.043 0
      vertex 127.036 -115.139 0
    endloop
  endfacet
  facet normal 0 0 -1
    outer loop
      vertex 121.233 -121.233 0
      vertex 120.08 -120.08 0
      vertex 125.827 -114.043 0
    endloop
  endfacet
  facet normal 0 0 -1
    outer loop
      vertex 115.139 -127.036 0
      vertex 120.08 -120.08 0
      vertex 121.233 -121.233 0
    endloop
  endfacet
  facet normal 0 0 -1
    outer loop
      vertex 115.139 -127.036 0
      vertex 114.043 -125.827 0
      vertex 120.08 -120.08 0
    endloop
  endfacet
  facet normal 0 0 -1
    outer loop
      vertex 108.767 -132.533 0
      vertex 114.043 -125.827 0
      vertex 115.139 -127.036 0
    endloop
  endfacet
  facet normal 0 0 -1
    outer loop
      vertex 108.767 -132.533 0
      vertex 107.732 -131.272 0
      vertex 114.043 -125.827 0
    endloop
  endfacet
  facet normal 0 0 -1
    outer loop
      vertex 102.133 -137.71 0
      vertex 107.732 -131.272 0
      vertex 108.767 -132.533 0
    endloop
  endfacet
  facet normal 0 0 -1
    outer loop
      vertex 102.133 -137.71 0
      vertex 101.161 -136.4 0
      vertex 107.732 -131.272 0
    endloop
  endfacet
  facet normal 0 0 -1
    outer loop
      vertex 95.2525 -142.555 0
      vertex 101.161 -136.4 0
      vertex 102.133 -137.71 0
    endloop
  endfacet
  facet normal 0 0 -1
    outer loop
      vertex 95.2525 -142.555 0
      vertex 94.3462 -141.199 0
      vertex 101.161 -136.4 0
    endloop
  endfacet
  facet normal 0 0 -1
    outer loop
      vertex 88.1429 -147.058 0
      vertex 94.3462 -141.199 0
      vertex 95.2525 -142.555 0
    endloop
  endfacet
  facet normal 0 0 -1
    outer loop
      vertex 88.1429 -147.058 0
      vertex 87.3043 -145.658 0
      vertex 94.3462 -141.199 0
    endloop
  endfacet
  facet normal 0 0 -1
    outer loop
      vertex 80.821 -151.205 0
      vertex 87.3043 -145.658 0
      vertex 88.1429 -147.058 0
    endloop
  endfacet
  facet normal 0 0 -1
    outer loop
      vertex 80.821 -151.205 0
      vertex 80.052 -149.767 0
      vertex 87.3043 -145.658 0
    endloop
  endfacet
  facet normal 0 0 -1
    outer loop
      vertex 73.3043 -154.989 0
      vertex 80.052 -149.767 0
      vertex 80.821 -151.205 0
    endloop
  endfacet
  facet normal 0 0 -1
    outer loop
      vertex 73.3043 -154.989 0
      vertex 72.6069 -153.514 0
      vertex 80.052 -149.767 0
    endloop
  endfacet
  facet normal 0 0 -1
    outer loop
      vertex 65.6111 -158.399 0
      vertex 72.6069 -153.514 0
      vertex 73.3043 -154.989 0
    endloop
  endfacet
  facet normal 0 0 -1
    outer loop
      vertex 65.6111 -158.399 0
      vertex 64.9868 -156.892 0
      vertex 72.6069 -153.514 0
    endloop
  endfacet
  facet normal 0 0 -1
    outer loop
      vertex 57.7598 -161.428 0
      vertex 64.9868 -156.892 0
      vertex 65.6111 -158.399 0
    endloop
  endfacet
  facet normal 0 0 -1
    outer loop
      vertex 57.7598 -161.428 0
      vertex 57.2102 -159.892 0
      vertex 64.9868 -156.892 0
    endloop
  endfacet
  facet normal 0 0 -1
    outer loop
      vertex 52.9656 -163.011 0
      vertex 57.2102 -159.892 0
      vertex 57.7598 -161.428 0
    endloop
  endfacet
  facet normal 0 0 -1
    outer loop
      vertex 57.2102 -159.892 0
      vertex 52.9656 -163.011 0
      vertex 52.4617 -161.461 0
    endloop
  endfacet
  facet normal -0 0 1
    outer loop
      vertex 166.736 -8.19123 70
      vertex 168.665 -8.286 70
      vertex 168.869 0 70
    endloop
  endfacet
  facet normal 0 0 1
    outer loop
      vertex 168.665 -8.286 70
      vertex 166.736 -8.19123 70
      vertex 168.056 -16.552 70
    endloop
  endfacet
  facet normal 0 0 1
    outer loop
      vertex 166.736 -8.19123 70
      vertex 168.869 0 70
      vertex 166.938 0 70
    endloop
  endfacet
  facet normal -0 0 1
    outer loop
      vertex 166.134 -16.3627 70
      vertex 168.056 -16.552 70
      vertex 166.736 -8.19123 70
    endloop
  endfacet
  facet normal 0 0 1
    outer loop
      vertex 168.056 -16.552 70
      vertex 166.134 -16.3627 70
      vertex 167.041 -24.7782 70
    endloop
  endfacet
  facet normal -0 0 1
    outer loop
      vertex 165.131 -24.4948 70
      vertex 167.041 -24.7782 70
      vertex 166.134 -16.3627 70
    endloop
  endfacet
  facet normal 0 0 1
    outer loop
      vertex 167.041 -24.7782 70
      vertex 165.131 -24.4948 70
      vertex 165.624 -32.9447 70
    endloop
  endfacet
  facet normal -0 0 1
    outer loop
      vertex 163.73 -32.5679 70
      vertex 165.624 -32.9447 70
      vertex 165.131 -24.4948 70
    endloop
  endfacet
  facet normal 0 0 1
    outer loop
      vertex 165.624 -32.9447 70
      vertex 163.73 -32.5679 70
      vertex 163.808 -41.0318 70
    endloop
  endfacet
  facet normal -0 0 1
    outer loop
      vertex 161.935 -40.5625 70
      vertex 163.808 -41.0318 70
      vertex 163.73 -32.5679 70
    endloop
  endfacet
  facet normal 0 0 1
    outer loop
      vertex 161.935 -40.5625 70
      vertex 161.597 -49.02 70
      vertex 163.808 -41.0318 70
    endloop
  endfacet
  facet normal -0 0 1
    outer loop
      vertex 159.749 -48.4594 70
      vertex 161.597 -49.02 70
      vertex 161.935 -40.5625 70
    endloop
  endfacet
  facet normal 0 0 1
    outer loop
      vertex 159.749 -48.4594 70
      vertex 158.997 -56.8902 70
      vertex 161.597 -49.02 70
    endloop
  endfacet
  facet normal -0 0 1
    outer loop
      vertex 157.179 -56.2395 70
      vertex 158.997 -56.8902 70
      vertex 159.749 -48.4594 70
    endloop
  endfacet
  facet normal 0 0 1
    outer loop
      vertex 157.179 -56.2395 70
      vertex 156.014 -64.6233 70
      vertex 158.997 -56.8902 70
    endloop
  endfacet
  facet normal -0 0 1
    outer loop
      vertex 154.23 -63.8842 70
      vertex 156.014 -64.6233 70
      vertex 157.179 -56.2395 70
    endloop
  endfacet
  facet normal 0 0 1
    outer loop
      vertex 154.23 -63.8842 70
      vertex 152.656 -72.2007 70
      vertex 156.014 -64.6233 70
    endloop
  endfacet
  facet normal -0 0 1
    outer loop
      vertex 150.91 -71.375 70
      vertex 152.656 -72.2007 70
      vertex 154.23 -63.8842 70
    endloop
  endfacet
  facet normal 0 0 1
    outer loop
      vertex 150.91 -71.375 70
      vertex 148.929 -79.6042 70
      vertex 152.656 -72.2007 70
    endloop
  endfacet
  facet normal -0 0 1
    outer loop
      vertex 147.226 -78.6938 70
      vertex 148.929 -79.6042 70
      vertex 150.91 -71.375 70
    endloop
  endfacet
  facet normal 0 0 1
    outer loop
      vertex 147.226 -78.6938 70
      vertex 144.844 -86.8159 70
      vertex 148.929 -79.6042 70
    endloop
  endfacet
  facet normal -0 0 1
    outer loop
      vertex 143.187 -85.823 70
      vertex 144.844 -86.8159 70
      vertex 147.226 -78.6938 70
    endloop
  endfacet
  facet normal 0 0 1
    outer loop
      vertex 143.187 -85.823 70
      vertex 140.409 -93.8185 70
      vertex 144.844 -86.8159 70
    endloop
  endfacet
  facet normal -0 0 1
    outer loop
      vertex 138.803 -92.7455 70
      vertex 140.409 -93.8185 70
      vertex 143.187 -85.823 70
    endloop
  endfacet
  facet normal 0 0 1
    outer loop
      vertex 138.803 -92.7455 70
      vertex 135.637 -100.595 70
      vertex 140.409 -93.8185 70
    endloop
  endfacet
  facet normal -0 0 1
    outer loop
      vertex 134.085 -99.4445 70
      vertex 135.637 -100.595 70
      vertex 138.803 -92.7455 70
    endloop
  endfacet
  facet normal 0 0 1
    outer loop
      vertex 134.085 -99.4445 70
      vertex 130.537 -107.129 70
      vertex 135.637 -100.595 70
    endloop
  endfacet
  facet normal -0 0 1
    outer loop
      vertex 129.044 -105.904 70
      vertex 130.537 -107.129 70
      vertex 134.085 -99.4445 70
    endloop
  endfacet
  facet normal 0 0 1
    outer loop
      vertex 129.044 -105.904 70
      vertex 125.123 -113.405 70
      vertex 130.537 -107.129 70
    endloop
  endfacet
  facet normal -0 0 1
    outer loop
      vertex 123.693 -112.108 70
      vertex 125.123 -113.405 70
      vertex 129.044 -105.904 70
    endloop
  endfacet
  facet normal 0 0 1
    outer loop
      vertex 123.693 -112.108 70
      vertex 119.408 -119.408 70
      vertex 125.123 -113.405 70
    endloop
  endfacet
  facet normal -0 0 1
    outer loop
      vertex 118.043 -118.043 70
      vertex 119.408 -119.408 70
      vertex 123.693 -112.108 70
    endloop
  endfacet
  facet normal 0 0 1
    outer loop
      vertex 118.043 -118.043 70
      vertex 113.405 -125.123 70
      vertex 119.408 -119.408 70
    endloop
  endfacet
  facet normal -0 0 1
    outer loop
      vertex 112.108 -123.693 70
      vertex 113.405 -125.123 70
      vertex 118.043 -118.043 70
    endloop
  endfacet
  facet normal 0 0 1
    outer loop
      vertex 112.108 -123.693 70
      vertex 107.129 -130.537 70
      vertex 113.405 -125.123 70
    endloop
  endfacet
  facet normal -0 0 1
    outer loop
      vertex 105.904 -129.044 70
      vertex 107.129 -130.537 70
      vertex 112.108 -123.693 70
    endloop
  endfacet
  facet normal 0 0 1
    outer loop
      vertex 105.904 -129.044 70
      vertex 100.595 -135.637 70
      vertex 107.129 -130.537 70
    endloop
  endfacet
  facet normal -0 0 1
    outer loop
      vertex 99.4445 -134.085 70
      vertex 100.595 -135.637 70
      vertex 105.904 -129.044 70
    endloop
  endfacet
  facet normal 0 0 1
    outer loop
      vertex 99.4445 -134.085 70
      vertex 93.8185 -140.409 70
      vertex 100.595 -135.637 70
    endloop
  endfacet
  facet normal -0 0 1
    outer loop
      vertex 92.7455 -138.803 70
      vertex 93.8185 -140.409 70
      vertex 99.4445 -134.085 70
    endloop
  endfacet
  facet normal 0 0 1
    outer loop
      vertex 92.7455 -138.803 70
      vertex 86.8159 -144.844 70
      vertex 93.8185 -140.409 70
    endloop
  endfacet
  facet normal -0 0 1
    outer loop
      vertex 85.823 -143.187 70
      vertex 86.8159 -144.844 70
      vertex 92.7455 -138.803 70
    endloop
  endfacet
  facet normal 0 0 1
    outer loop
      vertex 85.823 -143.187 70
      vertex 79.6042 -148.929 70
      vertex 86.8159 -144.844 70
    endloop
  endfacet
  facet normal -0 0 1
    outer loop
      vertex 78.6938 -147.226 70
      vertex 79.6042 -148.929 70
      vertex 85.823 -143.187 70
    endloop
  endfacet
  facet normal 0 0 1
    outer loop
      vertex 78.6938 -147.226 70
      vertex 72.2007 -152.656 70
      vertex 79.6042 -148.929 70
    endloop
  endfacet
  facet normal -0 0 1
    outer loop
      vertex 71.375 -150.91 70
      vertex 72.2007 -152.656 70
      vertex 78.6938 -147.226 70
    endloop
  endfacet
  facet normal 0 0 1
    outer loop
      vertex 71.375 -150.91 70
      vertex 64.6233 -156.014 70
      vertex 72.2007 -152.656 70
    endloop
  endfacet
  facet normal -0 0 1
    outer loop
      vertex 63.8842 -154.23 70
      vertex 64.6233 -156.014 70
      vertex 71.375 -150.91 70
    endloop
  endfacet
  facet normal 0 0 1
    outer loop
      vertex 63.8842 -154.23 70
      vertex 56.8902 -158.997 70
      vertex 64.6233 -156.014 70
    endloop
  endfacet
  facet normal -0 0 1
    outer loop
      vertex 56.2395 -157.179 70
      vertex 56.8902 -158.997 70
      vertex 63.8842 -154.23 70
    endloop
  endfacet
  facet normal 0 0 1
    outer loop
      vertex 56.2395 -157.179 70
      vertex 52.1682 -160.557 70
      vertex 56.8902 -158.997 70
    endloop
  endfacet
  facet normal 0 -0 1
    outer loop
      vertex 52.1682 -160.557 70
      vertex 56.2395 -157.179 70
      vertex 51.5716 -158.721 70
    endloop
  endfacet
  facet normal 0.313541 -0.949575 0
    outer loop
      vertex 52.9656 -163.011 0
      vertex 57.7598 -161.428 66.425
      vertex 52.9656 -163.011 66.425
    endloop
  endfacet
  facet normal 0.313541 -0.949575 0
    outer loop
      vertex 57.7598 -161.428 66.425
      vertex 52.9656 -163.011 0
      vertex 57.7598 -161.428 0
    endloop
  endfacet
  facet normal 0.575745 -0.817629 0
    outer loop
      vertex 95.2525 -142.555 0
      vertex 102.133 -137.71 66.425
      vertex 95.2525 -142.555 66.425
    endloop
  endfacet
  facet normal 0.575745 -0.817629 0
    outer loop
      vertex 102.133 -137.71 66.425
      vertex 95.2525 -142.555 0
      vertex 102.133 -137.71 0
    endloop
  endfacet
  facet normal 0.653205 -0.757181 0
    outer loop
      vertex 108.767 -132.533 0
      vertex 115.139 -127.036 66.425
      vertex 108.767 -132.533 66.425
    endloop
  endfacet
  facet normal 0.653205 -0.757181 0
    outer loop
      vertex 115.139 -127.036 66.425
      vertex 108.767 -132.533 0
      vertex 115.139 -127.036 0
    endloop
  endfacet
  facet normal 0.492826 -0.870128 0
    outer loop
      vertex 80.821 -151.205 0
      vertex 88.1429 -147.058 66.425
      vertex 80.821 -151.205 66.425
    endloop
  endfacet
  facet normal 0.492826 -0.870128 0
    outer loop
      vertex 88.1429 -147.058 66.425
      vertex 80.821 -151.205 0
      vertex 88.1429 -147.058 0
    endloop
  endfacet
  facet normal 0.405225 -0.914217 0
    outer loop
      vertex 65.6111 -158.399 0
      vertex 73.3043 -154.989 66.425
      vertex 65.6111 -158.399 66.425
    endloop
  endfacet
  facet normal 0.405225 -0.914217 0
    outer loop
      vertex 73.3043 -154.989 66.425
      vertex 65.6111 -158.399 0
      vertex 73.3043 -154.989 0
    endloop
  endfacet
  facet normal 0.724186 -0.689605 0
    outer loop
      vertex 121.233 -121.233 66.425
      vertex 127.036 -115.139 0
      vertex 127.036 -115.139 66.425
    endloop
  endfacet
  facet normal 0.724186 -0.689605 0
    outer loop
      vertex 127.036 -115.139 0
      vertex 121.233 -121.233 66.425
      vertex 121.233 -121.233 0
    endloop
  endfacet
  facet normal 0.788359 -0.615215 0
    outer loop
      vertex 132.533 -108.767 66.425
      vertex 137.71 -102.133 0
      vertex 137.71 -102.133 66.425
    endloop
  endfacet
  facet normal 0.788359 -0.615215 0
    outer loop
      vertex 137.71 -102.133 0
      vertex 132.533 -108.767 66.425
      vertex 132.533 -108.767 0
    endloop
  endfacet
  facet normal 0.914217 -0.405225 0
    outer loop
      vertex 154.989 -73.3043 66.425
      vertex 158.399 -65.6111 0
      vertex 158.399 -65.6111 66.425
    endloop
  endfacet
  facet normal 0.914217 -0.405225 0
    outer loop
      vertex 158.399 -65.6111 0
      vertex 154.989 -73.3043 66.425
      vertex 154.989 -73.3043 0
    endloop
  endfacet
  facet normal 0.844805 -0.535074 0
    outer loop
      vertex 142.555 -95.2525 66.425
      vertex 147.058 -88.1429 0
      vertex 147.058 -88.1429 66.425
    endloop
  endfacet
  facet normal 0.844805 -0.535074 0
    outer loop
      vertex 147.058 -88.1429 0
      vertex 142.555 -95.2525 66.425
      vertex 142.555 -95.2525 0
    endloop
  endfacet
  facet normal 0.949553 -0.313606 0
    outer loop
      vertex 161.428 -57.7598 66.425
      vertex 164.067 -49.7693 0
      vertex 164.067 -49.7693 66.425
    endloop
  endfacet
  facet normal 0.949553 -0.313606 0
    outer loop
      vertex 164.067 -49.7693 0
      vertex 161.428 -57.7598 66.425
      vertex 161.428 -57.7598 0
    endloop
  endfacet
  facet normal 0.975697 -0.219124 0
    outer loop
      vertex 166.312 -41.659 66.425
      vertex 168.156 -33.4482 0
      vertex 168.156 -33.4482 66.425
    endloop
  endfacet
  facet normal 0.975697 -0.219124 0
    outer loop
      vertex 168.156 -33.4482 0
      vertex 166.312 -41.659 66.425
      vertex 166.312 -41.659 0
    endloop
  endfacet
  facet normal 0.359938 -0.932976 0
    outer loop
      vertex 57.7598 -161.428 0
      vertex 65.6111 -158.399 66.425
      vertex 57.7598 -161.428 66.425
    endloop
  endfacet
  facet normal 0.359938 -0.932976 0
    outer loop
      vertex 65.6111 -158.399 66.425
      vertex 57.7598 -161.428 0
      vertex 65.6111 -158.399 0
    endloop
  endfacet
  facet normal 0.615215 -0.788359 0
    outer loop
      vertex 102.133 -137.71 0
      vertex 108.767 -132.533 66.425
      vertex 102.133 -137.71 66.425
    endloop
  endfacet
  facet normal 0.615215 -0.788359 0
    outer loop
      vertex 108.767 -132.533 66.425
      vertex 102.133 -137.71 0
      vertex 108.767 -132.533 0
    endloop
  endfacet
  facet normal 0.689605 -0.724186 0
    outer loop
      vertex 115.139 -127.036 0
      vertex 121.233 -121.233 66.425
      vertex 115.139 -127.036 66.425
    endloop
  endfacet
  facet normal 0.689605 -0.724186 0
    outer loop
      vertex 121.233 -121.233 66.425
      vertex 115.139 -127.036 0
      vertex 121.233 -121.233 0
    endloop
  endfacet
  facet normal 0.44965 -0.893205 0
    outer loop
      vertex 73.3043 -154.989 0
      vertex 80.821 -151.205 66.425
      vertex 73.3043 -154.989 66.425
    endloop
  endfacet
  facet normal 0.44965 -0.893205 0
    outer loop
      vertex 80.821 -151.205 66.425
      vertex 73.3043 -154.989 0
      vertex 80.821 -151.205 0
    endloop
  endfacet
  facet normal 0.757181 -0.653205 0
    outer loop
      vertex 127.036 -115.139 66.425
      vertex 132.533 -108.767 0
      vertex 132.533 -108.767 66.425
    endloop
  endfacet
  facet normal 0.757181 -0.653205 0
    outer loop
      vertex 132.533 -108.767 0
      vertex 127.036 -115.139 66.425
      vertex 127.036 -115.139 0
    endloop
  endfacet
  facet normal 0.817629 -0.575745 0
    outer loop
      vertex 137.71 -102.133 66.425
      vertex 142.555 -95.2525 0
      vertex 142.555 -95.2525 66.425
    endloop
  endfacet
  facet normal 0.817629 -0.575745 0
    outer loop
      vertex 142.555 -95.2525 0
      vertex 137.71 -102.133 66.425
      vertex 137.71 -102.133 0
    endloop
  endfacet
  facet normal 0.932976 -0.359938 0
    outer loop
      vertex 158.399 -65.6111 66.425
      vertex 161.428 -57.7598 0
      vertex 161.428 -57.7598 66.425
    endloop
  endfacet
  facet normal 0.932976 -0.359938 0
    outer loop
      vertex 161.428 -57.7598 0
      vertex 158.399 -65.6111 66.425
      vertex 158.399 -65.6111 0
    endloop
  endfacet
  facet normal 0.893205 -0.44965 0
    outer loop
      vertex 151.205 -80.821 66.425
      vertex 154.989 -73.3043 0
      vertex 154.989 -73.3043 66.425
    endloop
  endfacet
  facet normal 0.893205 -0.44965 0
    outer loop
      vertex 154.989 -73.3043 0
      vertex 151.205 -80.821 66.425
      vertex 151.205 -80.821 0
    endloop
  endfacet
  facet normal 0.963758 -0.266777 0
    outer loop
      vertex 164.067 -49.7693 66.425
      vertex 166.312 -41.659 0
      vertex 166.312 -41.659 66.425
    endloop
  endfacet
  facet normal 0.963758 -0.266777 0
    outer loop
      vertex 166.312 -41.659 0
      vertex 164.067 -49.7693 66.425
      vertex 164.067 -49.7693 0
    endloop
  endfacet
  facet normal 0.997291 -0.0735578 0
    outer loop
      vertex 170.624 -16.805 66.425
      vertex 171.243 -8.41265 0
      vertex 171.243 -8.41265 66.425
    endloop
  endfacet
  facet normal 0.997291 -0.0735578 0
    outer loop
      vertex 171.243 -8.41265 0
      vertex 170.624 -16.805 66.425
      vertex 170.624 -16.805 0
    endloop
  endfacet
  facet normal 0.870128 -0.492826 0
    outer loop
      vertex 147.058 -88.1429 66.425
      vertex 151.205 -80.821 0
      vertex 151.205 -80.821 66.425
    endloop
  endfacet
  facet normal 0.870128 -0.492826 0
    outer loop
      vertex 151.205 -80.821 0
      vertex 147.058 -88.1429 66.425
      vertex 147.058 -88.1429 0
    endloop
  endfacet
  facet normal 0.999697 -0.0245984 0
    outer loop
      vertex 171.243 -8.41265 66.425
      vertex 171.45 0 0
      vertex 171.45 0 66.425
    endloop
  endfacet
  facet normal 0.999697 -0.0245984 0
    outer loop
      vertex 171.45 0 0
      vertex 171.243 -8.41265 66.425
      vertex 171.243 -8.41265 0
    endloop
  endfacet
  facet normal -0.898457 0.398287 -0.184776
    outer loop
      vertex 156.892 -64.9868 5.1625
      vertex 153.514 -72.6069 5.1625
      vertex 151.814 -71.8025 15.1625
    endloop
  endfacet
  facet normal -0.774698 0.604689 -0.184918
    outer loop
      vertex 134.889 -100.04 15.1625
      vertex 131.272 -107.732 5.1625
      vertex 129.817 -106.538 15.1625
    endloop
  endfacet
  facet normal -0.975383 0.120303 -0.184809
    outer loop
      vertex 167.129 -16.4608 15.1625
      vertex 169.001 -16.6451 5.1625
      vertex 166.12 -24.6415 15.1625
    endloop
  endfacet
  facet normal -0.933192 0.308219 -0.184806
    outer loop
      vertex 160.706 -48.7497 15.1625
      vertex 162.506 -49.2958 5.1625
      vertex 159.892 -57.2102 5.1625
    endloop
  endfacet
  facet normal -0.947158 0.262179 -0.184806
    outer loop
      vertex 162.905 -40.8055 15.1625
      vertex 162.506 -49.2958 5.1625
      vertex 160.706 -48.7497 15.1625
    endloop
  endfacet
  facet normal -0.308331 0.933149 -0.184836
    outer loop
      vertex 57.2102 -159.892 5.1625
      vertex 52.4617 -161.461 5.1625
      vertex 52.1115 -160.383 11.189
    endloop
  endfacet
  facet normal -0.982478 0.0241711 -0.184804
    outer loop
      vertex 169.819 0 5.1625
      vertex 169.614 -8.33261 5.1625
      vertex 167.938 0 15.1625
    endloop
  endfacet
  facet normal -0.958887 0.215415 -0.184748
    outer loop
      vertex 166.556 -33.13 5.1625
      vertex 164.729 -41.2626 5.1625
      vertex 162.905 -40.8055 15.1625
    endloop
  endfacet
  facet normal -0.91691 0.353719 -0.184823
    outer loop
      vertex 159.892 -57.2102 5.1625
      vertex 156.892 -64.9868 5.1625
      vertex 155.154 -64.2669 15.1625
    endloop
  endfacet
  facet normal -0.975382 0.120265 -0.184839
    outer loop
      vertex 169.001 -16.6451 5.1625
      vertex 167.981 -24.9176 5.1625
      vertex 166.12 -24.6415 15.1625
    endloop
  endfacet
  facet normal -0.9683 0.168018 -0.18484
    outer loop
      vertex 167.981 -24.9176 5.1625
      vertex 166.556 -33.13 5.1625
      vertex 166.12 -24.6415 15.1625
    endloop
  endfacet
  facet normal -0.933194 0.308215 -0.184803
    outer loop
      vertex 160.706 -48.7497 15.1625
      vertex 159.892 -57.2102 5.1625
      vertex 158.121 -56.5764 15.1625
    endloop
  endfacet
  facet normal -0.677608 0.711828 -0.184795
    outer loop
      vertex 118.75 -118.75 15.1625
      vertex 120.08 -120.08 5.1625
      vertex 112.78 -124.433 15.1625
    endloop
  endfacet
  facet normal -0.484422 0.855089 -0.184818
    outer loop
      vertex 86.3371 -144.045 15.1625
      vertex 80.052 -149.767 5.1625
      vertex 79.1652 -148.108 15.1625
    endloop
  endfacet
  facet normal -0.565845 0.803525 -0.184844
    outer loop
      vertex 100.04 -134.889 15.1625
      vertex 101.161 -136.4 5.1625
      vertex 94.3462 -141.199 5.1625
    endloop
  endfacet
  facet normal -0.677619 0.711813 -0.18481
    outer loop
      vertex 120.08 -120.08 5.1625
      vertex 114.043 -125.827 5.1625
      vertex 112.78 -124.433 15.1625
    endloop
  endfacet
  facet normal -0.898473 0.39823 -0.184823
    outer loop
      vertex 155.154 -64.2669 15.1625
      vertex 156.892 -64.9868 5.1625
      vertex 151.814 -71.8025 15.1625
    endloop
  endfacet
  facet normal -0.830317 0.525765 -0.184782
    outer loop
      vertex 144.045 -86.3371 15.1625
      vertex 145.658 -87.3043 5.1625
      vertex 141.199 -94.3462 5.1625
    endloop
  endfacet
  facet normal -0.980113 0.0722779 -0.184809
    outer loop
      vertex 169.614 -8.33261 5.1625
      vertex 169.001 -16.6451 5.1625
      vertex 167.129 -16.4608 15.1625
    endloop
  endfacet
  facet normal -0.980111 0.072252 -0.18483
    outer loop
      vertex 167.735 -8.2403 15.1625
      vertex 169.614 -8.33261 5.1625
      vertex 167.129 -16.4608 15.1625
    endloop
  endfacet
  facet normal -0.947188 0.262112 -0.184748
    outer loop
      vertex 162.905 -40.8055 15.1625
      vertex 164.729 -41.2626 5.1625
      vertex 162.506 -49.2958 5.1625
    endloop
  endfacet
  facet normal -0.916904 0.353742 -0.184804
    outer loop
      vertex 158.121 -56.5764 15.1625
      vertex 159.892 -57.2102 5.1625
      vertex 155.154 -64.2669 15.1625
    endloop
  endfacet
  facet normal -0.353719 0.91691 -0.184823
    outer loop
      vertex 64.2669 -155.154 15.1625
      vertex 64.9868 -156.892 5.1625
      vertex 57.2102 -159.892 5.1625
    endloop
  endfacet
  facet normal -0.525765 0.830317 -0.184782
    outer loop
      vertex 94.3462 -141.199 5.1625
      vertex 87.3043 -145.658 5.1625
      vertex 86.3371 -144.045 15.1625
    endloop
  endfacet
  facet normal -0.484466 0.855072 -0.184781
    outer loop
      vertex 86.3371 -144.045 15.1625
      vertex 87.3043 -145.658 5.1625
      vertex 80.052 -149.767 5.1625
    endloop
  endfacet
  facet normal -0.39823 0.898473 -0.184823
    outer loop
      vertex 71.8025 -151.814 15.1625
      vertex 64.9868 -156.892 5.1625
      vertex 64.2669 -155.154 15.1625
    endloop
  endfacet
  facet normal -0.441818 0.877869 -0.184778
    outer loop
      vertex 80.052 -149.767 5.1625
      vertex 72.6069 -153.514 5.1625
      vertex 71.8025 -151.814 15.1625
    endloop
  endfacet
  facet normal -0.52579 0.830295 -0.184809
    outer loop
      vertex 93.3011 -139.635 15.1625
      vertex 94.3462 -141.199 5.1625
      vertex 86.3371 -144.045 15.1625
    endloop
  endfacet
  facet normal -0.565884 0.803505 -0.184809
    outer loop
      vertex 100.04 -134.889 15.1625
      vertex 94.3462 -141.199 5.1625
      vertex 93.3011 -139.635 15.1625
    endloop
  endfacet
  facet normal -0.604625 0.774765 -0.184845
    outer loop
      vertex 107.732 -131.272 5.1625
      vertex 101.161 -136.4 5.1625
      vertex 100.04 -134.889 15.1625
    endloop
  endfacet
  facet normal -0.604689 0.774698 -0.184918
    outer loop
      vertex 106.538 -129.817 15.1625
      vertex 107.732 -131.272 5.1625
      vertex 100.04 -134.889 15.1625
    endloop
  endfacet
  facet normal -0.641982 0.744086 -0.184917
    outer loop
      vertex 114.043 -125.827 5.1625
      vertex 107.732 -131.272 5.1625
      vertex 106.538 -129.817 15.1625
    endloop
  endfacet
  facet normal -0.855089 0.484422 -0.184818
    outer loop
      vertex 148.108 -79.1652 15.1625
      vertex 149.767 -80.052 5.1625
      vertex 144.045 -86.3371 15.1625
    endloop
  endfacet
  facet normal -0.877869 0.441818 -0.184778
    outer loop
      vertex 151.814 -71.8025 15.1625
      vertex 153.514 -72.6069 5.1625
      vertex 149.767 -80.052 5.1625
    endloop
  endfacet
  facet normal -0.711813 0.677619 -0.18481
    outer loop
      vertex 124.433 -112.78 15.1625
      vertex 125.827 -114.043 5.1625
      vertex 120.08 -120.08 5.1625
    endloop
  endfacet
  facet normal -0.803525 0.565845 -0.184844
    outer loop
      vertex 141.199 -94.3462 5.1625
      vertex 136.4 -101.161 5.1625
      vertex 134.889 -100.04 15.1625
    endloop
  endfacet
  facet normal -0.774765 0.604625 -0.184845
    outer loop
      vertex 134.889 -100.04 15.1625
      vertex 136.4 -101.161 5.1625
      vertex 131.272 -107.732 5.1625
    endloop
  endfacet
  facet normal -0.803505 0.565884 -0.184809
    outer loop
      vertex 139.635 -93.3011 15.1625
      vertex 141.199 -94.3462 5.1625
      vertex 134.889 -100.04 15.1625
    endloop
  endfacet
  facet normal -0.830295 0.52579 -0.184809
    outer loop
      vertex 144.045 -86.3371 15.1625
      vertex 141.199 -94.3462 5.1625
      vertex 139.635 -93.3011 15.1625
    endloop
  endfacet
  facet normal -0.855072 0.484466 -0.184781
    outer loop
      vertex 149.767 -80.052 5.1625
      vertex 145.658 -87.3043 5.1625
      vertex 144.045 -86.3371 15.1625
    endloop
  endfacet
  facet normal -0.982472 0.0242032 -0.18483
    outer loop
      vertex 167.938 0 15.1625
      vertex 169.614 -8.33261 5.1625
      vertex 167.735 -8.2403 15.1625
    endloop
  endfacet
  facet normal -0.968308 0.167992 -0.184818
    outer loop
      vertex 166.12 -24.6415 15.1625
      vertex 166.556 -33.13 5.1625
      vertex 164.711 -32.763 15.1625
    endloop
  endfacet
  facet normal -0.441859 0.87784 -0.184818
    outer loop
      vertex 79.1652 -148.108 15.1625
      vertex 80.052 -149.767 5.1625
      vertex 71.8025 -151.814 15.1625
    endloop
  endfacet
  facet normal -0.398287 0.898457 -0.184776
    outer loop
      vertex 71.8025 -151.814 15.1625
      vertex 72.6069 -153.514 5.1625
      vertex 64.9868 -156.892 5.1625
    endloop
  endfacet
  facet normal -0.641895 0.744188 -0.184811
    outer loop
      vertex 112.78 -124.433 15.1625
      vertex 114.043 -125.827 5.1625
      vertex 106.538 -129.817 15.1625
    endloop
  endfacet
  facet normal -0.87784 0.441859 -0.184818
    outer loop
      vertex 151.814 -71.8025 15.1625
      vertex 149.767 -80.052 5.1625
      vertex 148.108 -79.1652 15.1625
    endloop
  endfacet
  facet normal -0.711828 0.677608 -0.184795
    outer loop
      vertex 124.433 -112.78 15.1625
      vertex 120.08 -120.08 5.1625
      vertex 118.75 -118.75 15.1625
    endloop
  endfacet
  facet normal -0.744086 0.641982 -0.184917
    outer loop
      vertex 129.817 -106.538 15.1625
      vertex 131.272 -107.732 5.1625
      vertex 125.827 -114.043 5.1625
    endloop
  endfacet
  facet normal -0.958894 0.215326 -0.184818
    outer loop
      vertex 164.711 -32.763 15.1625
      vertex 166.556 -33.13 5.1625
      vertex 162.905 -40.8055 15.1625
    endloop
  endfacet
  facet normal -0.308217 0.933175 -0.184896
    outer loop
      vertex 56.5764 -158.121 15.1625
      vertex 52.1115 -160.383 11.189
      vertex 51.8805 -159.672 15.1625
    endloop
  endfacet
  facet normal -0.308295 0.933168 -0.184804
    outer loop
      vertex 52.1115 -160.383 11.189
      vertex 56.5764 -158.121 15.1625
      vertex 57.2102 -159.892 5.1625
    endloop
  endfacet
  facet normal -0.353742 0.916904 -0.184804
    outer loop
      vertex 64.2669 -155.154 15.1625
      vertex 57.2102 -159.892 5.1625
      vertex 56.5764 -158.121 15.1625
    endloop
  endfacet
  facet normal -0.744188 0.641895 -0.184811
    outer loop
      vertex 129.817 -106.538 15.1625
      vertex 125.827 -114.043 5.1625
      vertex 124.433 -112.78 15.1625
    endloop
  endfacet
  facet normal -0.532375 0.840641 -0.0994964
    outer loop
      vertex 92.7455 -138.803 69.675
      vertex 86.3371 -144.045 59.675
      vertex 85.823 -143.187 69.675
    endloop
  endfacet
  facet normal -0.958979 0.265451 -0.0994714
    outer loop
      vertex 161.935 -40.5625 69.675
      vertex 162.905 -40.8055 59.675
      vertex 160.706 -48.7497 59.675
    endloop
  endfacet
  facet normal -0.840641 0.532375 -0.0994964
    outer loop
      vertex 143.187 -85.823 69.675
      vertex 144.045 -86.3371 59.675
      vertex 138.803 -92.7455 69.675
    endloop
  endfacet
  facet normal -0.994736 0.0245307 -0.0994945
    outer loop
      vertex 166.938 0 69.675
      vertex 167.735 -8.2403 59.675
      vertex 166.736 -8.19123 69.675
    endloop
  endfacet
  facet normal -0.753479 0.649909 -0.0994314
    outer loop
      vertex 129.817 -106.538 59.675
      vertex 124.433 -112.78 59.675
      vertex 123.693 -112.108 69.675
    endloop
  endfacet
  facet normal -0.784379 0.612245 -0.0995233
    outer loop
      vertex 134.085 -99.4445 69.675
      vertex 134.889 -100.04 59.675
      vertex 129.817 -106.538 59.675
    endloop
  endfacet
  facet normal -0.944836 0.31206 -0.0995168
    outer loop
      vertex 160.706 -48.7497 59.675
      vertex 158.121 -56.5764 59.675
      vertex 157.179 -56.2395 69.675
    endloop
  endfacet
  facet normal -0.970867 0.217985 -0.099495
    outer loop
      vertex 163.73 -32.5679 69.675
      vertex 164.711 -32.763 59.675
      vertex 161.935 -40.5625 69.675
    endloop
  endfacet
  facet normal -0.987559 0.121804 -0.099457
    outer loop
      vertex 166.134 -16.3627 69.675
      vertex 167.129 -16.4608 59.675
      vertex 165.131 -24.4948 69.675
    endloop
  endfacet
  facet normal -0.994738 0.0245054 -0.0994738
    outer loop
      vertex 167.938 0 59.675
      vertex 167.735 -8.2403 59.675
      vertex 166.938 0 69.675
    endloop
  endfacet
  facet normal -0.720711 0.686064 -0.099459
    outer loop
      vertex 124.433 -112.78 59.675
      vertex 118.75 -118.75 59.675
      vertex 118.043 -118.043 69.675
    endloop
  endfacet
  facet normal -0.312046 0.944841 -0.0995168
    outer loop
      vertex 56.5764 -158.121 59.675
      vertex 51.7565 -159.29 63.6895
      vertex 56.2395 -157.179 69.675
    endloop
  endfacet
  facet normal -0.312066 0.944831 -0.0995446
    outer loop
      vertex 51.7565 -159.29 63.6895
      vertex 56.5764 -158.121 59.675
      vertex 51.8805 -159.672 59.675
    endloop
  endfacet
  facet normal -0.358122 0.92836 -0.0994857
    outer loop
      vertex 63.8842 -154.23 69.675
      vertex 64.2669 -155.154 59.675
      vertex 56.2395 -157.179 69.675
    endloop
  endfacet
  facet normal -0.358155 0.928343 -0.0995162
    outer loop
      vertex 64.2669 -155.154 59.675
      vertex 56.5764 -158.121 59.675
      vertex 56.2395 -157.179 69.675
    endloop
  endfacet
  facet normal -0.813529 0.572944 -0.0995266
    outer loop
      vertex 139.635 -93.3011 59.675
      vertex 134.889 -100.04 59.675
      vertex 134.085 -99.4445 69.675
    endloop
  endfacet
  facet normal -0.720693 0.686086 -0.0994363
    outer loop
      vertex 123.693 -112.108 69.675
      vertex 124.433 -112.78 59.675
      vertex 118.043 -118.043 69.675
    endloop
  endfacet
  facet normal -0.92836 0.358122 -0.0994857
    outer loop
      vertex 157.179 -56.2395 69.675
      vertex 155.154 -64.2669 59.675
      vertex 154.23 -63.8842 69.675
    endloop
  endfacet
  facet normal -0.944825 0.312104 -0.0994802
    outer loop
      vertex 159.749 -48.4594 69.675
      vertex 160.706 -48.7497 59.675
      vertex 157.179 -56.2395 69.675
    endloop
  endfacet
  facet normal -0.928343 0.358155 -0.0995162
    outer loop
      vertex 157.179 -56.2395 69.675
      vertex 158.121 -56.5764 59.675
      vertex 155.154 -64.2669 59.675
    endloop
  endfacet
  facet normal -0.987559 0.121805 -0.0994564
    outer loop
      vertex 167.129 -16.4608 59.675
      vertex 166.12 -24.6415 59.675
      vertex 165.131 -24.4948 69.675
    endloop
  endfacet
  facet normal -0.686064 0.720711 -0.099459
    outer loop
      vertex 118.043 -118.043 69.675
      vertex 118.75 -118.75 59.675
      vertex 112.78 -124.433 59.675
    endloop
  endfacet
  facet normal -0.572952 0.813524 -0.0995184
    outer loop
      vertex 99.4445 -134.085 69.675
      vertex 93.3011 -139.635 59.675
      vertex 92.7455 -138.803 69.675
    endloop
  endfacet
  facet normal -0.686086 0.720693 -0.0994363
    outer loop
      vertex 118.043 -118.043 69.675
      vertex 112.78 -124.433 59.675
      vertex 112.108 -123.693 69.675
    endloop
  endfacet
  facet normal -0.447374 0.888797 -0.0994811
    outer loop
      vertex 78.6938 -147.226 69.675
      vertex 79.1652 -148.108 59.675
      vertex 71.8025 -151.814 59.675
    endloop
  endfacet
  facet normal -0.490469 0.865762 -0.0994809
    outer loop
      vertex 86.3371 -144.045 59.675
      vertex 79.1652 -148.108 59.675
      vertex 78.6938 -147.226 69.675
    endloop
  endfacet
  facet normal -0.312114 0.944824 -0.0994595
    outer loop
      vertex 56.2395 -157.179 69.675
      vertex 51.7565 -159.29 63.6895
      vertex 51.5716 -158.721 69.675
    endloop
  endfacet
  facet normal -0.784441 0.612178 -0.0994494
    outer loop
      vertex 134.085 -99.4445 69.675
      vertex 129.817 -106.538 59.675
      vertex 129.044 -105.904 69.675
    endloop
  endfacet
  facet normal -0.909688 0.4032 -0.0994856
    outer loop
      vertex 154.23 -63.8842 69.675
      vertex 155.154 -64.2669 59.675
      vertex 151.814 -71.8025 59.675
    endloop
  endfacet
  facet normal -0.865751 0.490485 -0.0994973
    outer loop
      vertex 147.226 -78.6938 69.675
      vertex 144.045 -86.3371 59.675
      vertex 143.187 -85.823 69.675
    endloop
  endfacet
  facet normal -0.909695 0.403186 -0.0994727
    outer loop
      vertex 154.23 -63.8842 69.675
      vertex 151.814 -71.8025 59.675
      vertex 150.91 -71.375 69.675
    endloop
  endfacet
  facet normal -0.970863 0.218014 -0.0994715
    outer loop
      vertex 164.711 -32.763 59.675
      vertex 162.905 -40.8055 59.675
      vertex 161.935 -40.5625 69.675
    endloop
  endfacet
  facet normal -0.992353 0.0731076 -0.0994563
    outer loop
      vertex 166.736 -8.19123 69.675
      vertex 167.129 -16.4608 59.675
      vertex 166.134 -16.3627 69.675
    endloop
  endfacet
  facet normal -0.992345 0.0731539 -0.0994943
    outer loop
      vertex 167.735 -8.2403 59.675
      vertex 167.129 -16.4608 59.675
      vertex 166.736 -8.19123 69.675
    endloop
  endfacet
  facet normal -0.612245 0.784379 -0.0995233
    outer loop
      vertex 106.538 -129.817 59.675
      vertex 100.04 -134.889 59.675
      vertex 99.4445 -134.085 69.675
    endloop
  endfacet
  facet normal -0.649909 0.753479 -0.0994314
    outer loop
      vertex 112.108 -123.693 69.675
      vertex 112.78 -124.433 59.675
      vertex 106.538 -129.817 59.675
    endloop
  endfacet
  facet normal -0.403186 0.909695 -0.0994727
    outer loop
      vertex 71.375 -150.91 69.675
      vertex 71.8025 -151.814 59.675
      vertex 63.8842 -154.23 69.675
    endloop
  endfacet
  facet normal -0.4032 0.909688 -0.0994856
    outer loop
      vertex 71.8025 -151.814 59.675
      vertex 64.2669 -155.154 59.675
      vertex 63.8842 -154.23 69.675
    endloop
  endfacet
  facet normal -0.813524 0.572952 -0.0995184
    outer loop
      vertex 138.803 -92.7455 69.675
      vertex 139.635 -93.3011 59.675
      vertex 134.085 -99.4445 69.675
    endloop
  endfacet
  facet normal -0.840654 0.53235 -0.0995198
    outer loop
      vertex 144.045 -86.3371 59.675
      vertex 139.635 -93.3011 59.675
      vertex 138.803 -92.7455 69.675
    endloop
  endfacet
  facet normal -0.753492 0.649893 -0.0994481
    outer loop
      vertex 129.044 -105.904 69.675
      vertex 129.817 -106.538 59.675
      vertex 123.693 -112.108 69.675
    endloop
  endfacet
  facet normal -0.865762 0.490469 -0.0994809
    outer loop
      vertex 147.226 -78.6938 69.675
      vertex 148.108 -79.1652 59.675
      vertex 144.045 -86.3371 59.675
    endloop
  endfacet
  facet normal -0.888797 0.447374 -0.0994811
    outer loop
      vertex 151.814 -71.8025 59.675
      vertex 148.108 -79.1652 59.675
      vertex 147.226 -78.6938 69.675
    endloop
  endfacet
  facet normal -0.888793 0.447384 -0.0994725
    outer loop
      vertex 150.91 -71.375 69.675
      vertex 151.814 -71.8025 59.675
      vertex 147.226 -78.6938 69.675
    endloop
  endfacet
  facet normal -0.958976 0.265461 -0.0994803
    outer loop
      vertex 161.935 -40.5625 69.675
      vertex 160.706 -48.7497 59.675
      vertex 159.749 -48.4594 69.675
    endloop
  endfacet
  facet normal -0.53235 0.840654 -0.0995198
    outer loop
      vertex 92.7455 -138.803 69.675
      vertex 93.3011 -139.635 59.675
      vertex 86.3371 -144.045 59.675
    endloop
  endfacet
  facet normal -0.572944 0.813529 -0.0995266
    outer loop
      vertex 99.4445 -134.085 69.675
      vertex 100.04 -134.889 59.675
      vertex 93.3011 -139.635 59.675
    endloop
  endfacet
  facet normal -0.612178 0.784441 -0.0994494
    outer loop
      vertex 105.904 -129.044 69.675
      vertex 106.538 -129.817 59.675
      vertex 99.4445 -134.085 69.675
    endloop
  endfacet
  facet normal -0.649893 0.753492 -0.0994481
    outer loop
      vertex 112.108 -123.693 69.675
      vertex 106.538 -129.817 59.675
      vertex 105.904 -129.044 69.675
    endloop
  endfacet
  facet normal -0.447384 0.888793 -0.0994725
    outer loop
      vertex 78.6938 -147.226 69.675
      vertex 71.8025 -151.814 59.675
      vertex 71.375 -150.91 69.675
    endloop
  endfacet
  facet normal -0.980393 0.170089 -0.099495
    outer loop
      vertex 166.12 -24.6415 59.675
      vertex 164.711 -32.763 59.675
      vertex 163.73 -32.5679 69.675
    endloop
  endfacet
  facet normal -0.980389 0.170136 -0.0994563
    outer loop
      vertex 165.131 -24.4948 69.675
      vertex 166.12 -24.6415 59.675
      vertex 163.73 -32.5679 69.675
    endloop
  endfacet
  facet normal -0.490485 0.865751 -0.0994973
    outer loop
      vertex 85.823 -143.187 69.675
      vertex 86.3371 -144.045 59.675
      vertex 78.6938 -147.226 69.675
    endloop
  endfacet
  facet normal 0 1 0
    outer loop
      vertex 171.45 0 66.425
      vertex 167.938 0 59.675
      vertex 168.869 0 66.425
    endloop
  endfacet
  facet normal 0 1 0
    outer loop
      vertex 171.45 0 66.425
      vertex 167.938 0 15.1625
      vertex 167.938 0 59.675
    endloop
  endfacet
  facet normal 0 1 -0
    outer loop
      vertex 171.45 0 0
      vertex 167.938 0 15.1625
      vertex 171.45 0 66.425
    endloop
  endfacet
  facet normal 0 1 0
    outer loop
      vertex 167.938 0 15.1625
      vertex 171.45 0 0
      vertex 169.819 0 5.1625
    endloop
  endfacet
  facet normal 0 1 0
    outer loop
      vertex 169.819 0 5.1625
      vertex 171.45 0 0
      vertex 169.819 0 0
    endloop
  endfacet
  facet normal 0 1 0
    outer loop
      vertex 168.869 0 70
      vertex 166.938 0 69.675
      vertex 166.938 0 70
    endloop
  endfacet
  facet normal 0 1 -0
    outer loop
      vertex 168.869 0 66.425
      vertex 166.938 0 69.675
      vertex 168.869 0 70
    endloop
  endfacet
  facet normal 0 1 0
    outer loop
      vertex 166.938 0 69.675
      vertex 168.869 0 66.425
      vertex 167.938 0 59.675
    endloop
  endfacet
  facet normal -0.951007 -0.309169 0
    outer loop
      vertex 52.4617 -161.461 0
      vertex 52.9656 -163.011 0
      vertex 52.4617 -161.461 5.1625
    endloop
  endfacet
  facet normal -0.951057 -0.309014 3.77055e-06
    outer loop
      vertex 52.9656 -163.011 66.425
      vertex 51.8805 -159.672 15.1625
      vertex 52.1115 -160.383 11.189
    endloop
  endfacet
  facet normal -0.95105 -0.309037 -1.14457e-06
    outer loop
      vertex 52.1682 -160.557 66.425
      vertex 51.5716 -158.721 69.675
      vertex 51.7565 -159.29 63.6895
    endloop
  endfacet
  facet normal -0.951057 -0.309015 2.80981e-05
    outer loop
      vertex 52.9656 -163.011 66.425
      vertex 51.7565 -159.29 63.6895
      vertex 51.8805 -159.672 59.675
    endloop
  endfacet
  facet normal -0.95104 -0.309067 0
    outer loop
      vertex 51.8805 -159.672 15.1625
      vertex 52.9656 -163.011 66.425
      vertex 51.8805 -159.672 59.675
    endloop
  endfacet
  facet normal -0.951049 -0.309039 -0
    outer loop
      vertex 52.1682 -160.557 70
      vertex 51.5716 -158.721 69.675
      vertex 52.1682 -160.557 66.425
    endloop
  endfacet
  facet normal -0.951049 -0.309039 0
    outer loop
      vertex 51.5716 -158.721 69.675
      vertex 52.1682 -160.557 70
      vertex 51.5716 -158.721 70
    endloop
  endfacet
  facet normal -0.95091 -0.309468 9.9274e-05
    outer loop
      vertex 52.9656 -163.011 0
      vertex 52.1115 -160.383 11.189
      vertex 52.4617 -161.461 5.1625
    endloop
  endfacet
  facet normal -0.951034 -0.309086 0
    outer loop
      vertex 52.1115 -160.383 11.189
      vertex 52.9656 -163.011 0
      vertex 52.9656 -163.011 66.425
    endloop
  endfacet
  facet normal -0.951051 -0.309033 8.50049e-07
    outer loop
      vertex 51.7565 -159.29 63.6895
      vertex 52.9656 -163.011 66.425
      vertex 52.1682 -160.557 66.425
    endloop
  endfacet
endsolid OpenSCAD_Model
